{
    "population": [
            {
                "alias": "RAL_mods",
                "spec":{
                        "projCode": "S",
                        "compTypeCode": "MODULE",
                        "instCode": "RAL",
                        "filters": {}
                }
            },
            {
                "alias": "RAL_mod_sensors",
                "spec":{
                        "projCode": "S",
                        "compTypeCode": "MODULE",
                        "instCode": "RAL",
                        "filters": {
                            "child": {"compTypeCode":"SENSOR"}
                        }
                }
            }
    ],
    "extraction":[
            {
                "usePopulations": ["RAL_mods"],
                "alias": "mod_met",
                "spec":[
                        {"testCode": "MODULE_METROLOGY", "paraCode": "PB_POSITION", "subs":[{"PB_P1":0}]},
                        {"testCode": "MODULE_METROLOGY", "paraCode": "CAP_HEIGHT", "subs":[{"PB_P1":0}]}
                ]
            },
            {
                "usePopulations": ["RAL_mod_sensors"],
                "alias": "sen_met",
                "spec":[
                        {"testCode":"ATLAS18_SHAPE_METROLOGY_V1", "paraCode": "BOWING"}
                ]
            }
    ],
    "visualisation":[
            {
                "useExtractions": [
                        "mod_met", 
                        "sen_met" 
                ],
                "alias": "mod_sen_comp",
                "DQ": true,
                "match_pc": "parent_child",
                "correlations":[
                        { 
                        "x":{"testCode": "MODULE_METROLOGY", "paraCode": "PB_POSITION", "subs":[{"PB_P1":0}]}, 
                        "y":{"testCode":"ATLAS18_SHAPE_METROLOGY_V1", "paraCode": "BOWING"} 
                        }
                ]
            }
    ],
    "distribution":[
            {
                "alias": "RAL_mod_sen_comp",
                "reportName": "RAL_mod_sen_comp_local",
                "location": "local",
                "reportDir":"/code/reporting/htmls/",
                "useVisualisations":[
                        "mod_sen_comp"
                ]
            }
    ]
}
