compType,stage,stageOrder,altStage,testOrder,testType
BARE_MODULE,BAREMODULEASSEMBLY,-1,nan,-1,
BARE_MODULE,UNHAPPY,-1,nan,-1,
BARE_MODULE,NOT_USED,-1,nan,-1,
BARE_MODULE,MODULE/ASSEMBLY,-1,nan,-1,
BARE_MODULE,MODULE/WIREBONDING,-1,nan,-1,
BARE_MODULE,MODULE/INITIAL_WARM,-1,nan,-1,
BARE_MODULE,MODULE/QC_CROSSCHECK,-1,nan,-1,
BARE_MODULE,MODULE/INITIAL_COLD,-1,nan,-1,
BARE_MODULE,MODULE/PARYLENE_MASKING,-1,nan,-1,
BARE_MODULE,MODULE/PARYLENE_COATING,-1,nan,-1,
BARE_MODULE,MODULE/PARYLENE_UNMASKING,-1,nan,-1,
BARE_MODULE,MODULE/POST_PARYLENE_WARM,-1,nan,-1,
BARE_MODULE,MODULE/POST_PARYLENE_COLD,-1,nan,-1,
BARE_MODULE,MODULE/WIREBOND_PROTECTION,-1,nan,-1,
BARE_MODULE,MODULE/THERMAL_CYCLES,-1,nan,-1,
BARE_MODULE,MODULE/LONG_TERM_STABILITY_TEST,-1,nan,-1,
BARE_MODULE,MODULE/FINAL_WARM,-1,nan,-1,
BARE_MODULE,MODULE/FINAL_COLD,-1,nan,-1,
BARE_MODULE,MODULE/UNHAPPY,-1,nan,-1,
BARE_MODULE,MODULE/COMPLETE,-1,nan,-1,
BARE_MODULE,MODULE/RECEPTION,-1,nan,-1,
BARE_MODULE,MODULE/TAB_CUTTING,-1,nan,-1,
BARE_MODULE,OB_LOADED_MODULE_CELL/ASSEMBLY,-1,nan,-1,
BARE_MODULE,OB_LOADED_MODULE_CELL/THERMAL_CYCLES,-1,nan,-1,
BARE_MODULE,OB_LOADED_MODULE_CELL/FINAL_WARM,-1,nan,-1,
BARE_MODULE,OB_LOADED_MODULE_CELL/FINAL_COLD,-1,nan,-1,
BARE_MODULE,OB_LOADED_MODULE_CELL/THERMAL_CONDUCTIVITY,-1,nan,-1,
BARE_MODULE,OB_LOADED_MODULE_CELL/ENVELOPE_CHECK,-1,nan,-1,
BARE_MODULE,OB_LOADED_MODULE_CELL/UNHAPPY,-1,nan,-1,
BARE_MODULE,OB_LOADED_MODULE_CELL/COMPLETE,-1,nan,-1,
BARE_MODULE,OB_LOADED_MODULE_CELL/RECEPTION,-1,nan,-1,
BARE_MODULE,BAREMODULERECEPTION,3,False,1,VISUAL_INSPECTION
BARE_MODULE,BAREMODULERECEPTION,3,False,2,MASS_MEASUREMENT
BARE_MODULE,BAREMODULERECEPTION,3,False,3,QUAD_BARE_MODULE_METROLOGY
BARE_MODULE,BAREMODULERECEPTION,3,False,4,FLATNESS
BARE_MODULE,BAREMODULERECEPTION,3,False,5,BARE_MODULE_SENSOR_IV
BARE_MODULE,BAREMODULERECEPTION,3,False,6,SINGLE_BARE_MODULE_METROLOGY
BENCHMARK,TEST_0,-1,nan,-1,
BPOL12V_CHIP,RECEPTION,-1,nan,-1,
BPOL12V_CHIP,BPOL12V_ASSEMBLY,-1,nan,-1,
BV_COMPONENT,BV_STAGE_1,-1,nan,-1,
BV_COMPONENT,BV_STAGE_2,-1,nan,-1,
BV_COMPONENT,BV_STAGE_3,-1,nan,-1,
COFFEE_COMP,UNUSED_STAGE,-1,nan,-1,
COFFEE_COMP,COFFEE_DRINKING,2,False,1,SIT_IN
COFFEE_COMP,COFFEE_DRINKING,2,False,2,TAKE_AWAY
DATA_FLEX,FINISHED,-1,nan,-1,
DATA_FLEX,RECEPTION,0,None,0,VISUAL_INSPECTION
DATA_FLEX,TESTING,0,None,0,CONNECTIVITY
DATA_FLEX,TESTING,0,None,0,CONTINUITY
DATA_FLEX,TESTING,0,None,0,RESISTANCE
DATA_FLEX,TESTING,0,None,0,SIGNAL_INTEGRITY
EPOXY,,-1,nan,-1,
EVAP_ASSEMBLY,LASER_WELD_EVAP,-1,nan,-1,
EVAP_ASSEMBLY,LASER_WELD_TUBES,-1,nan,-1,
FE_CHIP,HYBRIDISATION,-1,nan,-1,
FE_CHIP,UNUSABLE,-1,nan,-1,
FE_CHIP,BAREMODULEASSEMBLY,-1,nan,-1,
FE_CHIP,MODULE/ASSEMBLY,-1,nan,-1,
FE_CHIP,MODULE/WIREBONDING,-1,nan,-1,
FE_CHIP,MODULE/PARYLENE_MASKING,-1,nan,-1,
FE_CHIP,MODULE/PARYLENE_COATING,-1,nan,-1,
FE_CHIP,MODULE/UNHAPPY,-1,nan,-1,
FE_CHIP,MODULE/COMPLETE,-1,nan,-1,
FE_CHIP,MODULE/RECEPTION,-1,nan,-1,
FE_CHIP,OB_LOADED_MODULE_CELL/ASSEMBLY,-1,nan,-1,
FE_CHIP,OB_LOADED_MODULE_CELL/THERMAL_CONDUCTIVITY,-1,nan,-1,
FE_CHIP,OB_LOADED_MODULE_CELL/ENVELOPE_CHECK,-1,nan,-1,
FE_CHIP,OB_LOADED_MODULE_CELL/UNHAPPY,-1,nan,-1,
FE_CHIP,OB_LOADED_MODULE_CELL/COMPLETE,-1,nan,-1,
FE_CHIP,OB_LOADED_MODULE_CELL/RECEPTION,-1,nan,-1,
FE_CHIP,TEST_JM_OEC_FE,-1,nan,-1,
FE_CHIP,TESTONWAFER,0,False,0,FECHIP_TEST
FE_CHIP,BAREMODULERECEPTION,4,False,0,MIN_HEALTH_TEST
FE_CHIP,BAREMODULERECEPTION,4,False,1,ANALOG_READBACK
FE_CHIP,MODULE/INITIAL_WARM,7,False,0,ADC_CALIBRATION
FE_CHIP,MODULE/INITIAL_WARM,7,False,1,ANALOG_READBACK
FE_CHIP,MODULE/INITIAL_WARM,7,False,2,SLDO
FE_CHIP,MODULE/INITIAL_WARM,7,False,3,VCAL_CALIBRATION
FE_CHIP,MODULE/INITIAL_WARM,7,False,4,LP_MODE
FE_CHIP,MODULE/INITIAL_WARM,7,False,5,OVERVOLTAGE_PROTECTION
FE_CHIP,MODULE/INITIAL_WARM,7,False,6,UNDERSHUNT_PROTECTION
FE_CHIP,MODULE/INITIAL_WARM,7,False,7,DATA_TRANSMISSION
FE_CHIP,MODULE/INITIAL_WARM,7,False,8,INJECTION_CAPACITANCE
FE_CHIP,MODULE/INITIAL_WARM,7,False,9,MIN_HEALTH_TEST
FE_CHIP,MODULE/INITIAL_WARM,7,False,10,TUNING
FE_CHIP,MODULE/INITIAL_WARM,7,False,11,PIXEL_FAILURE_ANALYSIS
FE_CHIP,MODULE/QC_CROSSCHECK,8,True,0,ADC_CALIBRATION
FE_CHIP,MODULE/QC_CROSSCHECK,8,True,1,ANALOG_READBACK
FE_CHIP,MODULE/QC_CROSSCHECK,8,True,2,SLDO
FE_CHIP,MODULE/QC_CROSSCHECK,8,True,3,VCAL_CALIBRATION
FE_CHIP,MODULE/QC_CROSSCHECK,8,True,4,LP_MODE
FE_CHIP,MODULE/QC_CROSSCHECK,8,True,5,OVERVOLTAGE_PROTECTION
FE_CHIP,MODULE/QC_CROSSCHECK,8,True,6,UNDERSHUNT_PROTECTION
FE_CHIP,MODULE/QC_CROSSCHECK,8,True,7,DATA_TRANSMISSION
FE_CHIP,MODULE/QC_CROSSCHECK,8,True,8,INJECTION_CAPACITANCE
FE_CHIP,MODULE/QC_CROSSCHECK,8,True,9,MIN_HEALTH_TEST
FE_CHIP,MODULE/QC_CROSSCHECK,8,True,10,TUNING
FE_CHIP,MODULE/QC_CROSSCHECK,8,True,11,PIXEL_FAILURE_ANALYSIS
FE_CHIP,MODULE/INITIAL_COLD,9,False,0,ADC_CALIBRATION
FE_CHIP,MODULE/INITIAL_COLD,9,False,1,ANALOG_READBACK
FE_CHIP,MODULE/INITIAL_COLD,9,False,2,SLDO
FE_CHIP,MODULE/INITIAL_COLD,9,False,3,VCAL_CALIBRATION
FE_CHIP,MODULE/INITIAL_COLD,9,False,4,INJECTION_CAPACITANCE
FE_CHIP,MODULE/INITIAL_COLD,9,False,5,TUNING
FE_CHIP,MODULE/INITIAL_COLD,9,False,6,MIN_HEALTH_TEST
FE_CHIP,MODULE/INITIAL_COLD,9,False,7,PIXEL_FAILURE_ANALYSIS
FE_CHIP,MODULE/INITIAL_COLD,9,False,8,LP_MODE
FE_CHIP,MODULE/INITIAL_COLD,9,False,9,OVERVOLTAGE_PROTECTION
FE_CHIP,MODULE/INITIAL_COLD,9,False,10,UNDERSHUNT_PROTECTION
FE_CHIP,MODULE/INITIAL_COLD,9,False,11,DATA_TRANSMISSION
FE_CHIP,MODULE/PARYLENE_UNMASKING,12,False,0,MIN_HEALTH_TEST
FE_CHIP,MODULE/PARYLENE_UNMASKING,12,False,1,PIXEL_FAILURE_ANALYSIS
FE_CHIP,MODULE/POST_PARYLENE_WARM,13,False,0,ADC_CALIBRATION
FE_CHIP,MODULE/POST_PARYLENE_WARM,13,False,1,ANALOG_READBACK
FE_CHIP,MODULE/POST_PARYLENE_WARM,13,False,2,OVERVOLTAGE_PROTECTION
FE_CHIP,MODULE/POST_PARYLENE_WARM,13,False,3,UNDERSHUNT_PROTECTION
FE_CHIP,MODULE/POST_PARYLENE_WARM,13,False,4,SLDO
FE_CHIP,MODULE/POST_PARYLENE_WARM,13,False,5,VCAL_CALIBRATION
FE_CHIP,MODULE/POST_PARYLENE_WARM,13,False,6,DATA_TRANSMISSION
FE_CHIP,MODULE/POST_PARYLENE_WARM,13,False,7,INJECTION_CAPACITANCE
FE_CHIP,MODULE/POST_PARYLENE_WARM,13,False,8,MIN_HEALTH_TEST
FE_CHIP,MODULE/POST_PARYLENE_WARM,13,False,9,TUNING
FE_CHIP,MODULE/POST_PARYLENE_WARM,13,False,10,PIXEL_FAILURE_ANALYSIS
FE_CHIP,MODULE/POST_PARYLENE_WARM,13,False,11,LP_MODE
FE_CHIP,MODULE/POST_PARYLENE_COLD,14,False,0,ADC_CALIBRATION
FE_CHIP,MODULE/POST_PARYLENE_COLD,14,False,1,ANALOG_READBACK
FE_CHIP,MODULE/POST_PARYLENE_COLD,14,False,2,VCAL_CALIBRATION
FE_CHIP,MODULE/POST_PARYLENE_COLD,14,False,3,LP_MODE
FE_CHIP,MODULE/POST_PARYLENE_COLD,14,False,4,DATA_TRANSMISSION
FE_CHIP,MODULE/POST_PARYLENE_COLD,14,False,5,OVERVOLTAGE_PROTECTION
FE_CHIP,MODULE/POST_PARYLENE_COLD,14,False,6,UNDERSHUNT_PROTECTION
FE_CHIP,MODULE/POST_PARYLENE_COLD,14,False,7,SLDO
FE_CHIP,MODULE/POST_PARYLENE_COLD,14,False,8,MIN_HEALTH_TEST
FE_CHIP,MODULE/POST_PARYLENE_COLD,14,False,9,TUNING
FE_CHIP,MODULE/POST_PARYLENE_COLD,14,False,10,PIXEL_FAILURE_ANALYSIS
FE_CHIP,MODULE/POST_PARYLENE_COLD,14,False,11,INJECTION_CAPACITANCE
FE_CHIP,MODULE/WIREBOND_PROTECTION,15,True,0,MIN_HEALTH_TEST
FE_CHIP,MODULE/WIREBOND_PROTECTION,15,True,1,PIXEL_FAILURE_ANALYSIS
FE_CHIP,MODULE/THERMAL_CYCLES,16,False,0,MIN_HEALTH_TEST
FE_CHIP,MODULE/THERMAL_CYCLES,16,False,1,PIXEL_FAILURE_ANALYSIS
FE_CHIP,MODULE/LONG_TERM_STABILITY_TEST,17,False,0,MIN_HEALTH_TEST
FE_CHIP,MODULE/LONG_TERM_STABILITY_TEST,17,False,1,PIXEL_FAILURE_ANALYSIS
FE_CHIP,MODULE/FINAL_WARM,18,False,0,ADC_CALIBRATION
FE_CHIP,MODULE/FINAL_WARM,18,False,1,ANALOG_READBACK
FE_CHIP,MODULE/FINAL_WARM,18,False,2,SLDO
FE_CHIP,MODULE/FINAL_WARM,18,False,3,VCAL_CALIBRATION
FE_CHIP,MODULE/FINAL_WARM,18,False,4,UNDERSHUNT_PROTECTION
FE_CHIP,MODULE/FINAL_WARM,18,False,5,OVERVOLTAGE_PROTECTION
FE_CHIP,MODULE/FINAL_WARM,18,False,6,DATA_TRANSMISSION
FE_CHIP,MODULE/FINAL_WARM,18,False,7,MIN_HEALTH_TEST
FE_CHIP,MODULE/FINAL_WARM,18,False,8,PIXEL_FAILURE_ANALYSIS
FE_CHIP,MODULE/FINAL_WARM,18,False,9,TUNING
FE_CHIP,MODULE/FINAL_WARM,18,False,10,LP_MODE
FE_CHIP,MODULE/FINAL_WARM,18,False,11,INJECTION_CAPACITANCE
FE_CHIP,MODULE/FINAL_COLD,19,False,0,ADC_CALIBRATION
FE_CHIP,MODULE/FINAL_COLD,19,False,1,ANALOG_READBACK
FE_CHIP,MODULE/FINAL_COLD,19,False,2,SLDO
FE_CHIP,MODULE/FINAL_COLD,19,False,3,VCAL_CALIBRATION
FE_CHIP,MODULE/FINAL_COLD,19,False,4,INJECTION_CAPACITANCE
FE_CHIP,MODULE/FINAL_COLD,19,False,5,LP_MODE
FE_CHIP,MODULE/FINAL_COLD,19,False,6,OVERVOLTAGE_PROTECTION
FE_CHIP,MODULE/FINAL_COLD,19,False,7,UNDERSHUNT_PROTECTION
FE_CHIP,MODULE/FINAL_COLD,19,False,8,TUNING
FE_CHIP,MODULE/FINAL_COLD,19,False,9,MIN_HEALTH_TEST
FE_CHIP,MODULE/FINAL_COLD,19,False,10,PIXEL_FAILURE_ANALYSIS
FE_CHIP,MODULE/FINAL_COLD,19,False,11,DATA_TRANSMISSION
FE_CHIP,MODULE/TAB_CUTTING,23,False,1,MIN_HEALTH_TEST
FE_CHIP,OB_LOADED_MODULE_CELL/THERMAL_CYCLES,25,False,1,MIN_HEALTH_TEST
FE_CHIP,OB_LOADED_MODULE_CELL/THERMAL_CYCLES,25,False,2,PIXEL_FAILURE_ANALYSIS
FE_CHIP,OB_LOADED_MODULE_CELL/FINAL_WARM,26,False,1,MIN_HEALTH_TEST
FE_CHIP,OB_LOADED_MODULE_CELL/FINAL_WARM,26,False,2,ANALOG_READBACK
FE_CHIP,OB_LOADED_MODULE_CELL/FINAL_WARM,26,False,3,ADC_CALIBRATION
FE_CHIP,OB_LOADED_MODULE_CELL/FINAL_WARM,26,False,4,SLDO
FE_CHIP,OB_LOADED_MODULE_CELL/FINAL_WARM,26,False,5,VCAL_CALIBRATION
FE_CHIP,OB_LOADED_MODULE_CELL/FINAL_WARM,26,False,6,LP_MODE
FE_CHIP,OB_LOADED_MODULE_CELL/FINAL_WARM,26,False,7,OVERVOLTAGE_PROTECTION
FE_CHIP,OB_LOADED_MODULE_CELL/FINAL_WARM,26,False,8,UNDERSHUNT_PROTECTION
FE_CHIP,OB_LOADED_MODULE_CELL/FINAL_WARM,26,False,9,DATA_TRANSMISSION
FE_CHIP,OB_LOADED_MODULE_CELL/FINAL_WARM,26,False,10,INJECTION_CAPACITANCE
FE_CHIP,OB_LOADED_MODULE_CELL/FINAL_WARM,26,False,11,TUNING
FE_CHIP,OB_LOADED_MODULE_CELL/FINAL_WARM,26,False,12,PIXEL_FAILURE_ANALYSIS
FE_CHIP,OB_LOADED_MODULE_CELL/FINAL_COLD,27,False,1,MIN_HEALTH_TEST
FE_CHIP,OB_LOADED_MODULE_CELL/FINAL_COLD,27,False,2,ANALOG_READBACK
FE_CHIP,OB_LOADED_MODULE_CELL/FINAL_COLD,27,False,3,ADC_CALIBRATION
FE_CHIP,OB_LOADED_MODULE_CELL/FINAL_COLD,27,False,4,SLDO
FE_CHIP,OB_LOADED_MODULE_CELL/FINAL_COLD,27,False,5,VCAL_CALIBRATION
FE_CHIP,OB_LOADED_MODULE_CELL/FINAL_COLD,27,False,6,LP_MODE
FE_CHIP,OB_LOADED_MODULE_CELL/FINAL_COLD,27,False,7,OVERVOLTAGE_PROTECTION
FE_CHIP,OB_LOADED_MODULE_CELL/FINAL_COLD,27,False,8,UNDERSHUNT_PROTECTION
FE_CHIP,OB_LOADED_MODULE_CELL/FINAL_COLD,27,False,9,DATA_TRANSMISSION
FE_CHIP,OB_LOADED_MODULE_CELL/FINAL_COLD,27,False,10,INJECTION_CAPACITANCE
FE_CHIP,OB_LOADED_MODULE_CELL/FINAL_COLD,27,False,11,TUNING
FE_CHIP,OB_LOADED_MODULE_CELL/FINAL_COLD,27,False,12,PIXEL_FAILURE_ANALYSIS
FE_CHIP,TEST_AFTER_LOADED_LOCAL_SUPPORT_ASSEMBLY,33,False,0,OBLoadedLocalSupportQC_ElectricalConnectivity
FE_CHIP,TEST_AFTER_LOADED_LOCAL_SUPPORT_ASSEMBLY,33,False,1,OBLoadedLocalSupportQC_ElectricalPerformance
FE_CHIP,TEST_AFTER_LOADED_LOCAL_SUPPORT_ASSEMBLY,33,False,2,OBLoadedLocalSupport_IntegrationSite
FE_CHIP,TEST_AFTER_LOADED_LOCAL_SUPPORT_ASSEMBLY,33,False,3,OBLoadedLocalSupport_QCElectricalLowPower
FE_WAFER,WAFER_RECEIVED,-1,nan,-1,
FE_WAFER,WAFER_DICING,-1,nan,-1,
FE_WAFER,POST_PROCESSING,-1,nan,-1,
FE_WAFER,WAFER_PROBING,1,False,1,WAFER_PROBING
GBCR,NOTPOPULATED,-1,nan,-1,
GBCR,POPULATED,-1,nan,-1,
GELPACK,INUSE,-1,nan,-1,
GLUE,NEW,-1,nan,-1,
GLUE,INUSE,-1,nan,-1,
GLUE,EXPIRED,-1,nan,-1,
GLUE,EMPTY,-1,nan,-1,
IS_BARE_LOCAL_SUPPORT,SHIPPING_TO_LBNL,-1,nan,-1,
IS_BARE_LOCAL_SUPPORT,SHIPPING_TO_UMASS,-1,nan,-1,
IS_BARE_LOCAL_SUPPORT,SHIPPING_TO_SLAC,-1,nan,-1,
IS_BARE_LOCAL_SUPPORT,FOAM_RECEPTION_UMASS,0,False,1,FOAM_DENSITY
IS_BARE_LOCAL_SUPPORT,FOAM_RECEPTION_UMASS,0,False,2,THERMAL_CONDUCTIVITY
IS_BARE_LOCAL_SUPPORT,FOAM_SHAPING,2,False,1,CARBON_FOAM_WEIGHT
IS_BARE_LOCAL_SUPPORT,COCURING_FOAM,3,False,1,CARBON_BACKING_WEIGHT
IS_BARE_LOCAL_SUPPORT,COCURING_FOAM,3,False,2,FOAM_PLUS_BACKING_WEIGHT
IS_BARE_LOCAL_SUPPORT,COCURING_FOAM,3,False,3,VISUAL_INSPECTION
IS_BARE_LOCAL_SUPPORT,MACHINE_ASSEMBLY,4,False,1,ENVELOPE
IS_BARE_LOCAL_SUPPORT,MACHINE_ASSEMBLY,4,False,2,LOCAL_SUPPORT_WEIGHT
IS_BARE_LOCAL_SUPPORT,BONDING,5,False,1,STANDOFF_BRACKET_FIT
IS_BARE_LOCAL_SUPPORT,UMASS_QUALITY_CONTROL,7,False,1,CMM_METROLOGY
IS_BARE_LOCAL_SUPPORT,UMASS_QUALITY_CONTROL,7,False,2,HIGH_PRESSURE_TEST
IS_BARE_LOCAL_SUPPORT,UMASS_QUALITY_CONTROL,7,False,3,LEAK_TEST
IS_BARE_LOCAL_SUPPORT,UMASS_QUALITY_CONTROL,7,False,4,THERMAL_PERFORMANCE
IS_BARE_LOCAL_SUPPORT,RECEPTION_SLAC,10,False,0,VISUAL_CHECK
IS_BARE_LOCAL_SUPPORT,RECEPTION_SLAC,10,False,1,CMM_METROLOGY
IS_BARREL,,-1,nan,-1,
IS_BA_HALF,MERGING_QUARTERSHELLS,-1,nan,-1,
IS_BA_QS,MOUNTING_STAVES,-1,nan,-1,
IS_BA_QS,TESTING,-1,nan,-1,
IS_BA_QS,WELDING,-1,nan,-1,
IS_BA_QS_RAW,QS_ACCEPT,-1,nan,-1,
IS_COOL_TUBE,COOL_TUBE_SHIPPING,-1,nan,-1,
IS_COOL_TUBE,COOL_TUBE_RECEPTION_ANL,0,False,0,SIZE_TEST
IS_COOL_TUBE,COOL_TUBE_SIZE_SHAPE,1,False,1,SPATIAL_CONTROL
IS_COOL_TUBE,COOL_TUBE_WELD,2,False,0,HELIUM_LEAK_TEST
IS_COOL_TUBE,COOL_TUBE_WELD,2,False,1,HIGH_PRESSURE_TEST
IS_COOL_TUBE,COOL_TUBE_RECEPTION_LBNL,5,False,0,COOL_TUBE_WEIGHT
IS_EC_HALF,MERGING_QUARTERSHELLS,-1,nan,-1,
IS_EC_QS,MOUNTING_COOLING,-1,nan,-1,
IS_EC_QS,MOUNTING_SERVICES_PP0,-1,nan,-1,
IS_EC_QS,MOUNTING_RINGS,-1,nan,-1,
IS_EC_QS,WELDING,-1,nan,-1,
IS_EC_QS,TESTING,-1,nan,-1,
IS_EC_QS,ADD_BCM,-1,nan,-1,
IS_EC_QS_RAW,QS_Accept,1,False,1,QS_Vis
IS_ENDCAP,MERGING_QUARTERSHELLS,-1,nan,-1,
IS_LOADED_LOCAL_SUPPORT,LOADING_FLEXES,-1,nan,-1,
IS_LOADED_LOCAL_SUPPORT,PREPROD_QC_BOX_TESTS,-1,nan,-1,
IS_LOADED_LOCAL_SUPPORT,QC_BOX_TESTS,-1,nan,-1,
IS_LOADED_LOCAL_SUPPORT,RECEPTION,0,False,1,GLUE_TEST
IS_LOADED_LOCAL_SUPPORT,LOADING,1,False,1,LOADING_CALIB
IS_LOADED_LOCAL_SUPPORT,THERMAL_CYCLE,4,False,1,THERMAL_CYCLE
IS_TYPE0,SIGNAL_INTEGRITY,-1,nan,-1,
IS_TYPE0,SHIPPING_TO_SLAC,-1,nan,-1,
IS_TYPE0,RECEPTION,0,False,0,VISUAL_INSPECTION
IS_TYPE0,CONECTIVITY,1,False,0,CONECTIVITY_TEST
IS_TYPE0,RECEPTION_SLAC,4,False,0,VISUAL_INSPECTION
IS_TYPE1_DATA,PP0_RECEPTION,0,False,0,VISUAL_INSPECTION
IS_TYPE1_DATA,PP0_RECEPTION,0,False,1,METROLOGY
IS_TYPE1_DATA,PP0_RECEPTION,0,False,2,TIME_DOMAIN_REFLECTOMETRY
IS_TYPE1_DATA,ELECTRONICS_LOADING,1,False,0,VISUAL_INSPECTION
IS_TYPE1_DATA,ELECTRICAL_TESTS_OPTIONAL,2,True,0,CONNECTIVITY_TEST
IS_TYPE1_DATA,ELECTRICAL_TESTS_OPTIONAL,2,True,1,HV_TEST
IS_TYPE1_DATA,ELECTRICAL_TESTS_OPTIONAL,2,True,2,LV_TEST
IS_TYPE1_DATA,ELECTRICAL_TESTS_OPTIONAL,2,True,3,LV_READBACK
IS_TYPE1_DATA,ELECTRICAL_TESTS_OPTIONAL,2,True,4,NTC_READBACK
IS_TYPE1_DATA,TWINAX_ASSEMBLY,3,False,0,VISUAL_INSPECTION
IS_TYPE1_DATA,DATA_TRANSMISSION_OPTIONAL,4,True,0,DATA_TRANSMISSION
IS_TYPE1_DATA,THERMAL_CYCLING,5,False,0,THERMAL_CYCLING
IS_TYPE1_DATA,ELECTRICAL_TESTS,6,False,0,CONNECTIVITY_TEST
IS_TYPE1_DATA,ELECTRICAL_TESTS,6,False,1,HV_TEST
IS_TYPE1_DATA,ELECTRICAL_TESTS,6,False,2,LV_TEST
IS_TYPE1_DATA,ELECTRICAL_TESTS,6,False,3,LV_READBACK
IS_TYPE1_DATA,ELECTRICAL_TESTS,6,False,4,NTC_READBACK
IS_TYPE1_DATA,DATA_TRANSMISSION,7,False,0,DATA_TRANSMISSION
IS_TYPE1_POWER,ASSEMBLY,-1,nan,-1,
IS_TYPE1_POWER,POTTING,-1,nan,-1,
IS_TYPE1_POWER,RECEPTION,-1,nan,-1,
IS_TYPE1_POWER,LOADINGCOMPLETE,-1,nan,-1,
IS_TYPE1_POWER,UNHAPPY,-1,nan,-1,
IS_TYPE1_POWER,COMPLETE,-1,nan,-1,
IS_TYPE1_POWER,PREPOTTING_QC,2,False,1,VISUAL_INSPECTION
IS_TYPE1_POWER,PREPOTTING_QC,2,False,2,MECHANICAL
IS_TYPE1_POWER,PREPOTTING_QC,2,False,3,POWER_TEST
IS_TYPE1_POWER,PREPOTTING_QC,2,False,4,ELECTRICAL_TEST
IS_TYPE1_POWER,POSTPOTTING_QC,4,False,1,ELECTRICAL_TEST
IS_TYPE1_POWER,POSTPOTTING_QC,4,False,2,MASS
LISSY_CARD,,-1,nan,-1,
LISSY_CRATE,,-1,nan,-1,
MEZZANINE,,-1,nan,-1,
MODULE,MODULERECEPTION,-1,nan,-1,
MODULE,LOADINGCOMPLETE,-1,nan,-1,
MODULE,MODULE/UNHAPPY,-1,nan,-1,
MODULE,MODULE/COMPLETE,-1,nan,-1,
MODULE,OB_LOADED_MODULE_CELL/ASSEMBLY,-1,nan,-1,
MODULE,OB_LOADED_MODULE_CELL/THERMAL_CYCLES,-1,nan,-1,
MODULE,OB_LOADED_MODULE_CELL/FINAL_WARM,-1,nan,-1,
MODULE,OB_LOADED_MODULE_CELL/FINAL_COLD,-1,nan,-1,
MODULE,OB_LOADED_MODULE_CELL/THERMAL_CONDUCTIVITY,-1,nan,-1,
MODULE,OB_LOADED_MODULE_CELL/ENVELOPE_CHECK,-1,nan,-1,
MODULE,OB_LOADED_MODULE_CELL/UNHAPPY,-1,nan,-1,
MODULE,OB_LOADED_MODULE_CELL/COMPLETE,-1,nan,-1,
MODULE,OB_LOADED_MODULE_CELL/RECEPTION,-1,nan,-1,
MODULE,MODULE/ASSEMBLY,0,False,0,MASS_MEASUREMENT
MODULE,MODULE/ASSEMBLY,0,False,2,GLUE_MODULE_FLEX_ATTACH
MODULE,MODULE/ASSEMBLY,0,False,3,TRIPLET_METROLOGY
MODULE,MODULE/ASSEMBLY,0,False,4,VISUAL_INSPECTION
MODULE,MODULE/ASSEMBLY,0,False,5,FLATNESS
MODULE,MODULE/ASSEMBLY,0,False,7,QUAD_MODULE_METROLOGY
MODULE,MODULE/WIREBONDING,1,False,0,WIREBONDING
MODULE,MODULE/WIREBONDING,1,False,1,WIREBOND_PULL_TEST
MODULE,MODULE/WIREBONDING,1,False,2,VISUAL_INSPECTION
MODULE,MODULE/INITIAL_WARM,2,False,0,E_SUMMARY
MODULE,MODULE/INITIAL_WARM,2,False,1,IV_MEASURE
MODULE,MODULE/QC_CROSSCHECK,3,True,0,IV_MEASURE
MODULE,MODULE/QC_CROSSCHECK,3,True,1,E_SUMMARY
MODULE,MODULE/INITIAL_COLD,4,False,0,E_SUMMARY
MODULE,MODULE/INITIAL_COLD,4,False,1,IV_MEASURE
MODULE,MODULE/PARYLENE_MASKING,5,False,1,VISUAL_INSPECTION
MODULE,MODULE/PARYLENE_COATING,6,False,0,PARYLENE
MODULE,MODULE/PARYLENE_COATING,6,False,1,VISUAL_INSPECTION
MODULE,MODULE/PARYLENE_UNMASKING,7,False,2,FLATNESS
MODULE,MODULE/PARYLENE_UNMASKING,7,False,3,VISUAL_INSPECTION
MODULE,MODULE/PARYLENE_UNMASKING,7,False,4,IV_MEASURE
MODULE,MODULE/PARYLENE_UNMASKING,7,False,5,E_SUMMARY
MODULE,MODULE/POST_PARYLENE_WARM,8,False,0,E_SUMMARY
MODULE,MODULE/POST_PARYLENE_WARM,8,False,1,IV_MEASURE
MODULE,MODULE/POST_PARYLENE_COLD,9,False,0,E_SUMMARY
MODULE,MODULE/POST_PARYLENE_COLD,9,False,1,IV_MEASURE
MODULE,MODULE/WIREBOND_PROTECTION,10,True,0,E_SUMMARY
MODULE,MODULE/WIREBOND_PROTECTION,10,True,1,WP_ENVELOPE
MODULE,MODULE/WIREBOND_PROTECTION,10,True,2,MASS_MEASUREMENT
MODULE,MODULE/WIREBOND_PROTECTION,10,True,3,VISUAL_INSPECTION
MODULE,MODULE/WIREBOND_PROTECTION,10,True,4,IV_MEASURE
MODULE,MODULE/THERMAL_CYCLES,11,False,1,E_SUMMARY
MODULE,MODULE/THERMAL_CYCLES,11,False,2,THERMAL_CYCLING
MODULE,MODULE/THERMAL_CYCLES,11,False,3,FLATNESS
MODULE,MODULE/THERMAL_CYCLES,11,False,4,VISUAL_INSPECTION
MODULE,MODULE/THERMAL_CYCLES,11,False,5,IV_MEASURE
MODULE,MODULE/LONG_TERM_STABILITY_TEST,12,False,0,E_SUMMARY
MODULE,MODULE/LONG_TERM_STABILITY_TEST,12,False,1,IV_MEASURE
MODULE,MODULE/LONG_TERM_STABILITY_TEST,12,False,2,LONGTERM_STABILITY_DCS
MODULE,MODULE/FINAL_WARM,13,False,0,E_SUMMARY
MODULE,MODULE/FINAL_WARM,13,False,1,IV_MEASURE
MODULE,MODULE/FINAL_COLD,14,False,0,E_SUMMARY
MODULE,MODULE/FINAL_COLD,14,False,1,IV_MEASURE
MODULE,MODULE/RECEPTION,19,False,1,VISUAL_INSPECTION
MODULE,MODULE/RECEPTION,19,False,2,E_SUMMARY
MODULE,MODULE/RECEPTION,19,False,3,IV_MEASURE
MODULE,MODULE/TAB_CUTTING,20,False,1,MASS_MEASUREMENT
MODULE,MODULE/TAB_CUTTING,20,False,2,CUTTER_PCB_TAB
MODULE,MODULE/TAB_CUTTING,20,False,3,VISUAL_INSPECTION
MODULE,MODULE/TAB_CUTTING,20,False,4,E_SUMMARY
MODULE,MODULE/TAB_CUTTING,20,False,5,IV_MEASURE
MODULESQ,DB,3,True,1,DB_ACC
MODULESQ,DB,3,True,2,DB_SETUP
MODULESQ,DB,3,True,3,DB_HELP
MODULESQ,DB,3,True,4,DB_NON
MODULESQ,FLEX,4,True,1,FLEX_VIBARE
MODULESQ,FLEX,4,True,2,FLEX_THICK
MODULESQ,FLEX,4,True,3,FLEX_MET
MODULESQ,FLEX,4,True,4,FLEX_VIPOP
MODULESQ,FLEX,4,True,5,FLEX_LVHV
MODULESQ,FLEXQA,5,True,1,FLEX_SPARM
MODULESQ,FLEXQA,5,True,2,FLEX_TC
MODULESQ,FLEXQA,5,True,3,FLEX_TS
MODULESQ,FLEXQA,5,True,4,FLEX_QAHV
MODULESQ,FLEXQA,5,True,5,FLEX_QA
MODULESQ,FLEXQA,5,True,7,FLEX_WB
MODULESQ,FLEXQA,5,True,8,FLEX_HVCAP
MODULESQ,COAT,6,True,1,COAT_MASK
MODULESQ,COAT,6,True,2,COAT_SHIP
MODULESQ,COAT,6,True,3,COAT_THICK
MODULESQ,COAT,6,True,4,COAT_AD
MODULESQ,COAT,6,True,5,COAT_DEMASK
MODULESQ,COAT,6,True,6,COAT_VI
MODULESQ,COAT,6,True,7,COAT_ELECQC
MODULESQ,QREC,7,True,1,QREC_FLMM
MODULESQ,QREC,7,True,2,QREC_FLVI
MODULESQ,QREC,7,True,3,QREC_DUMM
MODULESQ,QREC,7,True,4,QREC_DUVI
MODULESQ,QREC,7,True,5,QREC_BMMM
MODULESQ,QREC,7,True,6,QREC_BMVI
MODULESQ,QREC,7,True,7,QREC_BMET
MODULESQ,QASS,8,True,1,QASS_TOOL
MODULESQ,QASS,8,True,2,QASS_GLASS
MODULESQ,QASS,8,True,3,QASS_SI
MODULESQ,QASS,8,True,4,QASS_RECEPMET
MODULESQ,QASS,8,True,5,QASS_ASS1
MODULESQ,QASS,8,True,6,QASS_ASS5
MODULESQ,QASS,8,True,7,QASS_BSF
MODULESQ,TREC,9,True,0,TREC_FLMM
MODULESQ,TREC,9,True,1,TREC_FLVI
MODULESQ,TREC,9,True,2,TREC_DUMM
MODULESQ,TREC,9,True,3,TREC_DUVI
MODULESQ,TREC,9,True,4,TREC_BMMM
MODULESQ,TREC,9,True,5,TREC_BMVI
MODULESQ,TREC,9,True,6,TREC_INST
MODULESQ,TREC,9,True,7,TREC_BMET
MODULESQ,TASS,10,True,1,TASS_PREP
MODULESQ,TASS,10,True,2,TASS_GLASS
MODULESQ,TASS,10,True,3,TASS_SI
MODULESQ,TASS,10,True,4,TASS_ASSDIG
MODULESQ,TASS,10,True,5,TASS_ASS1
MODULESQ,TASS,10,True,6,TASS_ASS3
MODULESQ,TEST,11,True,1,TEST_COLD
MODULESQ,TEST,11,True,2,TEST_TC
MODULESQ,TEST,11,True,3,TEST_INT
MODULESQ,TEST,11,True,4,TEST_DCS
MODULESQ,TEST,11,True,5,TEST_PAR
MODULESQ,TEST,11,True,6,TEST_STAB
MODULESQ,TEST,11,True,7,TEST_XRAY
MODULESQ,TEST,11,True,8,TEST_RT
MODULESQ,TEST,11,True,9,TEST_TQ
MODULESQ,DIG,12,True,0,DIG_1PU
MODULESQ,DIG,12,True,1,DIG_MIN
MODULESQ,DIG,12,True,2,DIG_SIMP
MODULESQ,DIG,12,True,3,DIG_ADV
MODULESQ,DIG,12,True,4,DIG_TQ
MODULESQ,FULL,13,True,0,FULL_TCT
MODULESQ,FULL,13,True,1,FULL_DIS
MODULESQ,LAB,13,True,1,LAB_ROOM
MODULESQ,FULL,13,True,2,FULL_TC
MODULESQ,LAB,13,True,2,LAB_ASIC
MODULESQ,FULL,13,True,3,FULL_LONG
MODULESQ,LAB,13,True,3,LAB_STORAGE
MODULESQ,FULL,13,True,4,FULL_QC1
MODULESQ,LAB,13,True,4,LAB_SHIP
MODULESQ,FULL,13,True,5,FULL_QC5
MODULESQ,LAB,13,True,5,LAB_PRO
MODULESQ,FULL,13,True,6,FULL_QCP
MODULESQ,FULL,13,True,7,FULL_RREC
MODULESQ,FULL,13,True,8,FULL_TQ
MODULESQ,FULL,13,True,9,FULL_SWAP
MODULESQ,OBWBP,14,True,2,OBWBP_GLUEDEP
MODULESQ,OBWBP,14,True,3,OBWBP_GLUEPAT
MODULESQ,OBWBP,14,True,4,OBWBP_CONNECT
MODULESQ,OBWBP,14,True,5,OBWBP_ATTACH
MODULE_CARRIER,MODULE_CARRIER_EXISTING,-1,nan,-1,
MODULE_CARRIER,MODULE/INITIAL_WARM,-1,nan,-1,
MODULE_CARRIER,MODULE/QC_CROSSCHECK,-1,nan,-1,
MODULE_CARRIER,MODULE/INITIAL_COLD,-1,nan,-1,
MODULE_CARRIER,MODULE/PARYLENE_MASKING,-1,nan,-1,
MODULE_CARRIER,MODULE/PARYLENE_COATING,-1,nan,-1,
MODULE_CARRIER,MODULE/PARYLENE_UNMASKING,-1,nan,-1,
MODULE_CARRIER,MODULE/POST_PARYLENE_WARM,-1,nan,-1,
MODULE_CARRIER,MODULE/POST_PARYLENE_COLD,-1,nan,-1,
MODULE_CARRIER,MODULE/WIREBOND_PROTECTION,-1,nan,-1,
MODULE_CARRIER,MODULE/THERMAL_CYCLES,-1,nan,-1,
MODULE_CARRIER,MODULE/LONG_TERM_STABILITY_TEST,-1,nan,-1,
MODULE_CARRIER,MODULE/FINAL_WARM,-1,nan,-1,
MODULE_CARRIER,MODULE/FINAL_COLD,-1,nan,-1,
MOPS_CHIP,COMPLETE,-1,nan,-1,
MOPS_CHIP,UNHAPPY,-1,nan,-1,
MOPS_CHIP,PACKAGED_MOPS_RECEPTION,1,False,0,VISUAL_INSPECTION
MOPS_CHIP,PACKAGED_MOPS_TEST,2,False,0,BASIC_ELECTRICAL_TEST
MOPS_CHIP,PACKAGED_MOPS_TEST,2,False,1,COMMUNICATION_TEST
MOPS_CHIP,PACKAGED_MOPS_TEST,2,False,2,REGISTER_TEST
MOPS_CHIP,PACKAGED_MOPS_TEST,2,False,3,ADC_TEST
MOPS_CHIP,QA_TESTING,3,True,0,ADC_TEST
MOPS_CHIP,QA_TESTING,3,True,1,BASIC_ELECTRICAL_TEST
OB_BARE_LS_ADHESIVE,IN_USE,-1,nan,-1,
OB_BARE_LS_ADHESIVE,EXPIRED,-1,nan,-1,
OB_BARE_LS_ADHESIVE,EMPTY,-1,nan,-1,
OB_BARE_LS_ADHESIVE,RECEPTION,1,False,-1,
OB_BARE_MODULE_CELL,ASSEMBLY,-1,nan,-1,
OB_BARE_MODULE_CELL,ASSEMBLY_IN_TRANSPORT_BOX,-1,nan,-1,
OB_BARE_MODULE_CELL,PACKAGING_FOR_SHIPMENT1,-1,nan,-1,
OB_BARE_MODULE_CELL,CELL_COATING,-1,nan,-1,
OB_BARE_MODULE_CELL,PACKAGING_FOR_SHIPMENT,-1,nan,-1,
OB_BARE_MODULE_CELL,DISASSEMBLY_FROM_TRANSPORT_BOX,-1,nan,-1,
OB_BARE_MODULE_CELL,OB_LOADED_MODULE_CELL/ASSEMBLY,-1,nan,-1,
OB_BARE_MODULE_CELL,OB_LOADED_MODULE_CELL/THERMAL_CYCLES,-1,nan,-1,
OB_BARE_MODULE_CELL,OB_LOADED_MODULE_CELL/FINAL_WARM,-1,nan,-1,
OB_BARE_MODULE_CELL,OB_LOADED_MODULE_CELL/FINAL_COLD,-1,nan,-1,
OB_BARE_MODULE_CELL,OB_LOADED_MODULE_CELL/THERMAL_CONDUCTIVITY,-1,nan,-1,
OB_BARE_MODULE_CELL,OB_LOADED_MODULE_CELL/ENVELOPE_CHECK,-1,nan,-1,
OB_BARE_MODULE_CELL,OB_LOADED_MODULE_CELL/UNHAPPY,-1,nan,-1,
OB_BARE_MODULE_CELL,OB_LOADED_MODULE_CELL/COMPLETE,-1,nan,-1,
OB_BARE_MODULE_CELL,OB_LOADED_MODULE_CELL/RECEPTION,-1,nan,-1,
OB_BARE_MODULE_CELL,QC,2,False,1,Mass_Control
OB_BARE_MODULE_CELL,QC,2,False,2,Dimensional_Control
OB_BARE_MODULE_CELL,QC,2,False,3,Thermal_cycling
OB_BARE_MODULE_CELL,QC,2,False,4,Thermal_performance_check
OB_BARE_MODULE_CELL,QC,2,False,5,Visual_Inspection
OB_BARE_MODULE_CELL,RECEPTION_AT_CELL_LOADING_SITE,7,False,1,Visual_Inspection
OB_BASE_BLOCK,MACHINING,1,nan,-1,
OB_BASE_BLOCK,QC_BEFORE_NI_COATING,2,False,1,Visual_Inspection
OB_BASE_BLOCK,QC_BEFORE_NI_COATING,2,False,2,Dimensional_Control
OB_BASE_BLOCK,QC_BEFORE_NI_COATING,2,False,3,Mass_Control
OB_BASE_BLOCK,PACKAGE_FOR_SHIPMENT_FOR_NI_COATING,3,False,-1,
OB_BASE_BLOCK,QC2,4,None,1,Mass_Control
OB_BASE_BLOCK,QC2,4,None,2,Coating_Check
OB_BASE_BLOCK,QC2,4,None,3,Visual_Inspection
OB_BASE_BLOCK,QC2,4,None,4,Magnetic_Check
OB_COOLING_BLOCK,MACHINING,-1,nan,-1,
OB_COOLING_BLOCK,QC,3,False,1,Dimensional_Control
OB_COOLING_BLOCK,QC,3,False,3,Thread_Check
OB_COOLING_BLOCK,QC,3,False,4,
OB_COOLING_BLOCK,QC,3,False,4,Mass_Control
OB_COOLING_PIPE_LONGERON,BENDING,1,False,1,Pipe_Bending_Check
OB_COOLING_PIPE_LONGERON,PIPE_CLEANING,2,False,1,Pipe_Cleaning_Check
OB_COOLING_PIPE_LONGERON,QC1,3,False,1,Visual_inspection
OB_COOLING_PIPE_LONGERON,QC1,3,False,2,Dimensional_control
OB_COOLING_PIPE_LONGERON,QC1,3,False,3,Mass_Control
OB_COOLING_PIPE_LONGERON,SLEEVE_BRAZING,4,False,1,Brazing_Check
OB_COOLING_PIPE_LONGERON,QC_AFTER_SLEEVE_BRAZING,5,False,1,Visual_Inspection_after_Brazing
OB_COOLING_PIPE_LONGERON,QC_AFTER_SLEEVE_BRAZING,5,False,3,Dimensional_control
OB_COOLING_PIPE_LONGERON,QC_AFTER_SLEEVE_BRAZING,5,False,4,Pressure_Check
OB_COOLING_PIPE_LONGERON,QC_AFTER_SLEEVE_BRAZING,5,False,5,Leak_Check
OB_COOLING_PIPE_LONGERON,QC_AFTER_SLEEVE_BRAZING,5,False,5,Mass_Control
OB_COOLING_PIPE_LONGERON,PACKAGE_FOR_SHIPMENT_FOR_NI_COATING,6,False,-1,
OB_COOLING_PIPE_LONGERON,QC2,7,False,1,Coating_Check
OB_COOLING_PIPE_LONGERON,QC2,7,False,2,Visual_inspection
OB_COOLING_PIPE_LONGERON,QC2,7,False,3,Mass_Control
OB_COOLING_PIPE_LONGERON,QC2,7,False,4,Magnetic_Check
OB_Cooling_pipe_IHR,BENDING,1,False,1,Pipe_Bending_Check
OB_Cooling_pipe_IHR,PIPE_CLEANING_1,2,False,1,Pipe_Cleaning_Check
OB_Cooling_pipe_IHR,QC1,3,False,1,Visual_Inspection
OB_Cooling_pipe_IHR,QC1,3,False,2,Dimensional_Control
OB_Cooling_pipe_IHR,QC1,3,False,3,Mass_Control
OB_Cooling_pipe_IHR,SLEEVE_BRAZING,4,False,1,Brazing_Check
OB_Cooling_pipe_IHR,PIPE_BENDING_2,5,False,1,Pipe_Bending_Check
OB_Cooling_pipe_IHR,PIPE_CLEANING_2,6,False,1,Pipe_Cleaning_Check
OB_Cooling_pipe_IHR,QC_AFTER_SLEEVE_BRAZING_AND_BENDING_2,7,False,1,Visual_Inspection_after_Brazing
OB_Cooling_pipe_IHR,QC_AFTER_SLEEVE_BRAZING_AND_BENDING_2,7,False,2,Dimensional_Control
OB_Cooling_pipe_IHR,QC_AFTER_SLEEVE_BRAZING_AND_BENDING_2,7,False,3,Mass_Control
OB_Cooling_pipe_IHR,QC_AFTER_SLEEVE_BRAZING_AND_BENDING_2,7,False,4,Pressure_Check
OB_Cooling_pipe_IHR,QC_AFTER_SLEEVE_BRAZING_AND_BENDING_2,7,False,5,Leak_Check
OB_Cooling_pipe_IHR,PACKAGE_FOR_SHIPMENT_FOR_NI_COATING,8,False,-1,
OB_Cooling_pipe_IHR,QC2,9,False,1,Coating_Check
OB_Cooling_pipe_IHR,QC2,9,False,2,Visual_Inspection
OB_Cooling_pipe_IHR,QC2,9,False,3,Mass_Control
OB_Cooling_pipe_IHR,QC2,9,False,4,Magnetic_Check
OB_END_OF_LONGERON_BRACKET,MANUFACTURING,1,nan,-1,
OB_END_OF_LONGERON_BRACKET,MACHINING,2,False,-1,
OB_END_OF_LONGERON_BRACKET,QC1,3,False,1,Dimensional_Control
OB_END_OF_LONGERON_BRACKET,QC1,3,False,2,Mass_Control
OB_END_OF_LONGERON_BRACKET,QC1,3,False,3,Visual_Inspection
OB_END_OF_LONGERON_SUPPORT,GLUING,-1,nan,-1,
OB_END_OF_LONGERON_SUPPORT,QC,-1,nan,-1,
OB_END_OF_LONGERON_SUPPORT,PACKAGE,-1,nan,-1,
OB_END_OF_LONGERON_SUPPORT,SHIPMENT,-1,nan,-1,
OB_FUNCTIONAL_IHR,ASSEMBLY,1,nan,-1,
OB_FUNCTIONAL_IHR,PACKAGING_FOR_SHIPMENT,2,True,-1,
OB_FUNCTIONAL_IHR,QC,3,False,1,Grounding_Check
OB_FUNCTIONAL_IHR,QC,3,False,2,Leak_Check
OB_FUNCTIONAL_IHR,QC,3,False,3,Mass_Control
OB_FUNCTIONAL_IHR,QC,3,False,4,Dimensional_Control
OB_FUNCTIONAL_IHR,QC,3,False,5,Pressure_Check
OB_FUNCTIONAL_IHR,QC,3,False,6,Soldering_Check
OB_FUNCTIONAL_IHR,QC,3,False,7,Thermal_cycling
OB_FUNCTIONAL_IHR,QC,3,False,8,Thermal_Performance_Check
OB_FUNCTIONAL_IHR,QC,3,False,9,VISUAL_INSPECTION
OB_FUNCTIONAL_IHR,PACKAGING_FOR_SHIPMENT1,4,True,-1,
OB_FUNCTIONAL_IHR,RECEPTION_AT_CELL_INTEGRATION_SITE,5,False,1,VISUAL_INSPECTION
OB_FUNCTIONAL_LONGERON,ASSEMBLY,1,nan,-1,
OB_FUNCTIONAL_LONGERON,PACKAGING_FOR_SHIPMENT,2,True,-1,
OB_FUNCTIONAL_LONGERON,QC,3,False,1,Dimensional_Control
OB_FUNCTIONAL_LONGERON,QC,3,False,2,Leak_Check
OB_FUNCTIONAL_LONGERON,QC,3,False,3,Mass_Control
OB_FUNCTIONAL_LONGERON,QC,3,False,4,Grounding_Check
OB_FUNCTIONAL_LONGERON,QC,3,False,5,Thermal_Cycling
OB_FUNCTIONAL_LONGERON,QC,3,False,6,Thermal_Performance_Test
OB_FUNCTIONAL_LONGERON,QC,3,False,7,Pressure_Check
OB_FUNCTIONAL_LONGERON,QC,3,False,8,Visual_Inspection
OB_FUNCTIONAL_LONGERON,PACKAGING_FOR_SHIPMENT1,4,True,-1,
OB_FUNCTIONAL_LONGERON,RECEPTION_AT_CELL_INTEGRATION_SITE,5,False,1,Visual_Inspection
OB_FUNCTIONAL_PIPE_LONGERON,ASSEMBLY,1,nan,-1,
OB_FUNCTIONAL_PIPE_LONGERON,QC1,3,False,1,Visual_Inspection
OB_FUNCTIONAL_PIPE_LONGERON,QC1,3,False,2,Soldering_Check
OB_GUSSET,MANUFACTURING,-1,nan,-1,
OB_GUSSET,QC1,2,False,1,Dimensional_Control
OB_GUSSET,QC1,2,False,2,Mass_Control
OB_GUSSET,QC1,2,False,3,Thread_Check
OB_GUSSET,QC1,2,False,4,Visual_Inspection
OB_HALF_RING_SHELL,MANUFACTURING,1,nan,-1,
OB_HALF_RING_SHELL,MACHINING,2,False,-1,
OB_HALF_RING_SHELL,QC,3,False,1,Dimensional_Control
OB_HALF_RING_SHELL,QC,3,False,2,Mass_Control
OB_HALF_RING_SHELL,QC,3,False,3,Mechanical_Test
OB_HALF_RING_SHELL,QC,3,False,4,Visual_Inspection
OB_IHR_PIPE_STRAIN_RELIEF,MANUFACTURING,-1,nan,-1,
OB_IHR_PIPE_STRAIN_RELIEF,QC,2,False,1,Dimensional_Control
OB_IHR_PIPE_STRAIN_RELIEF,QC,2,False,2,Mass_Control
OB_IHR_PIPE_STRAIN_RELIEF,QC,2,False,3,Visual_Inspection
OB_INCLINED_DATA_PCB,ICD_PCB_RECEPTION,1,False,1,OB_DATAPCB_RECEPTION
OB_INCLINED_HALF_RING_HF,INITIAL,-1,nan,-1,
OB_INCLINED_HALF_RING_HF,REGISTERED,-1,nan,-1,
OB_INCLINED_HALF_RING_HF,QC_DONE,-1,nan,-1,
OB_INCLINED_HALF_RING_HF,PACKED,-1,nan,-1,
OB_INCLINED_HALF_RING_HF,FINAL,-1,nan,-1,
OB_INCLINED_PP0,RECEPTION,1,False,1,VISUAL_INSPECTION
OB_INCLINED_PP0,RECEPTION,1,False,2,METROLOGY
OB_INCLINED_PP0,SMD_COMPONENTS_ASSEMBLED,2,False,1,VISUAL_INSPECTION
OB_INCLINED_PP0,INSERTS_ASSEMBLED,3,False,1,MASS_MEASUREMENT
OB_INCLINED_PP0,THERMAL_CYCLING,4,False,1,THERMAL_CYCLING
OB_INCLINED_PP0,QC_TESTS,5,False,0,HV_DIELECTRIC
OB_INCLINED_PP0,QC_TESTS,5,False,1,CHECK_SIGNAL_DISTRIBUTION
OB_INCLINED_PP0,QC_TESTS,5,False,2,METROLOGY
OB_INCLINED_PP0,QC_TESTS,5,False,3,VISUAL_INSPECTION
OB_INCLINED_PP0,QC_TESTS,5,False,4,CHECK_TILOCK
OB_INCLINED_PP0,QC_TESTS,5,False,5,CONTINUITY
OB_INCLINED_PP0,QC_TESTS,5,False,6,INSERT_RESISTANCE
OB_INCLINED_PP0,QC_TESTS,5,False,7,CHECK_SP_CHAIN_IMAX
OB_INCLINED_PP0,QC_TESTS,5,False,8,MOPS_TEST
OB_INCLINED_PP0,RECEPTION_CELL_INTEGRATION_SITE,6,False,1,VISUAL_INSPECTION
OB_INCLINED_PP0_PANEL_TEST_COUPON,RECEPTION,-1,nan,-1,
OB_INCLINED_PP0_PANEL_TEST_COUPON,SMA_ASSEMBLY,2,False,1,IMPEDANCE
OB_INCLINED_PP0_PANEL_TEST_COUPON,SAMPLES_IN_RESIN,3,False,1,CROSS_SECTION
OB_INSERTS,RECEPTION,-1,nan,-1,
OB_INSERTS,QC,-1,nan,-1,
OB_LOADED_INCLINED_HALF_RING,ASSEMBLY,-1,nan,-1,
OB_LOADED_INCLINED_HALF_RING,THERMAL_CYCLE,2,True,1,THERMAL_CYCLE
OB_LOADED_INCLINED_HALF_RING,CONNECTIVITY_CHECKOUT_ELECTRICAL,3,False,1,Tilock_and_MOPS_check
OB_LOADED_INCLINED_HALF_RING,CONNECTIVITY_CHECKOUT_ELECTRICAL,3,False,2,LPGBT_PHASE_TUNING
OB_LOADED_INCLINED_HALF_RING,CONNECTIVITY_CHECKOUT_ELECTRICAL,3,False,3,Front_end_temperature_readback
OB_LOADED_INCLINED_HALF_RING,CONNECTIVITY_CHECKOUT_ELECTRICAL,3,False,4,Tilock_and_MOPS_readback
OB_LOADED_INCLINED_HALF_RING,PERFORMANCE_QC_ELECTRICAL,4,False,1,LPGBT_PHASE_TUNING
OB_LOADED_INCLINED_HALF_RING,PERFORMANCE_QC_ELECTRICAL,4,False,2,I-V_scan
OB_LOADED_INCLINED_HALF_RING,PERFORMANCE_QC_ELECTRICAL,4,False,3,Digital_scan
OB_LOADED_INCLINED_HALF_RING,PERFORMANCE_QC_ELECTRICAL,4,False,4,Analog_scan
OB_LOADED_INCLINED_HALF_RING,PERFORMANCE_QC_ELECTRICAL,4,False,5,Threshold_and_noise_measurement
OB_LOADED_INCLINED_HALF_RING,PERFORMANCE_QC_ELECTRICAL,4,False,6,Disconnected_bump_bond_scan
OB_LOADED_INCLINED_HALF_RING,PERFORMANCE_QC_ELECTRICAL,4,False,7,Front_end_temperature_readback
OB_LOADED_INCLINED_HALF_RING,PERFORMANCE_QC_ELECTRICAL,4,False,8,Tilock_and_MOPS_readback
OB_LOADED_INCLINED_HALF_RING,LOW_POWER_QC_ELECTRICAL,5,False,1,Tilock_and_MOPS_readback
OB_LOADED_INCLINED_HALF_RING,LOW_POWER_QC_ELECTRICAL,5,False,2,Analog_scan
OB_LOADED_INCLINED_HALF_RING,LOW_POWER_QC_ELECTRICAL,5,False,3,Digital_scan
OB_LOADED_INCLINED_HALF_RING,PACKAGING_FOR_SHIPMENT1,6,True,-1,
OB_LOADED_INCLINED_HALF_RING,QC_GEOMETRY_&_MASS,7,False,1,ENVELOPE_CONTROL
OB_LOADED_INCLINED_HALF_RING,QC_GEOMETRY_&_MASS,7,False,2,MASS_MEASUREMENT
OB_LOADED_INCLINED_HALF_RING,QC_GEOMETRY_&_MASS,7,False,3,METROLOGY_SURVEY
OB_LOADED_INCLINED_HALF_RING,PACKAGING_FOR_SHIPMENT,8,True,-1,
OB_LOADED_INCLINED_HALF_RING,RECEPTION_AT_INTEGRATION_SITE,9,False,1,Analog_scan
OB_LOADED_INCLINED_HALF_RING,RECEPTION_AT_INTEGRATION_SITE,9,False,2,Digital_scan
OB_LOADED_INCLINED_HALF_RING,RECEPTION_AT_INTEGRATION_SITE,9,False,3,Tilock_and_MOPS_readback
OB_LOADED_LONGERON,ASSEMBLY,-1,nan,-1,
OB_LOADED_LONGERON,THERMAL_CYCLE,2,True,1,THERMAL_CYCLE_TEST
OB_LOADED_LONGERON,CONNECTIVITY_CHECKOUT_ELECTRICAL,3,False,1,Tilock_and_MOPS_check
OB_LOADED_LONGERON,CONNECTIVITY_CHECKOUT_ELECTRICAL,3,False,2,LPGBT_PHASE_TUNING
OB_LOADED_LONGERON,CONNECTIVITY_CHECKOUT_ELECTRICAL,3,False,3,Frontend_temperature_readback
OB_LOADED_LONGERON,CONNECTIVITY_CHECKOUT_ELECTRICAL,3,False,4,Tilock_and_MOPS_readback
OB_LOADED_LONGERON,PERFORMANCE_QC_ELECTRICAL,4,False,1,LPGBT_PHASE_TUNING
OB_LOADED_LONGERON,PERFORMANCE_QC_ELECTRICAL,4,False,2,I-V_scan
OB_LOADED_LONGERON,PERFORMANCE_QC_ELECTRICAL,4,False,3,Digital_Scan
OB_LOADED_LONGERON,PERFORMANCE_QC_ELECTRICAL,4,False,4,Analog_Scan
OB_LOADED_LONGERON,PERFORMANCE_QC_ELECTRICAL,4,False,5,Threshold/Noise_Measurement
OB_LOADED_LONGERON,PERFORMANCE_QC_ELECTRICAL,4,False,6,Disconnected_Bump_Bond_Scan
OB_LOADED_LONGERON,PERFORMANCE_QC_ELECTRICAL,4,False,7,Frontend_temperature_readback
OB_LOADED_LONGERON,PERFORMANCE_QC_ELECTRICAL,4,False,8,Tilock_and_MOPS_readback
OB_LOADED_LONGERON,LOW_POWER_QC_ELECTRICAL,5,False,1,Tilock_and_MOPS_readback
OB_LOADED_LONGERON,LOW_POWER_QC_ELECTRICAL,5,False,2,Analog_Scan
OB_LOADED_LONGERON,LOW_POWER_QC_ELECTRICAL,5,False,3,Digital_Scan
OB_LOADED_LONGERON,PACKAGING_FOR_SHIPMENT1,6,True,-1,
OB_LOADED_LONGERON,QC_GEOMETRY_AND_MASS,7,False,1,Envelope_control
OB_LOADED_LONGERON,QC_GEOMETRY_AND_MASS,7,False,2,MASS
OB_LOADED_LONGERON,QC_GEOMETRY_AND_MASS,7,False,3,METROLOGY_SURVEY
OB_LOADED_LONGERON,PACKAGING_FOR_SHIPMENT,8,True,-1,
OB_LOADED_LONGERON,RECEPTION_AT_INTEGRATION_SITE,10,False,1,Analog_Scan
OB_LOADED_LONGERON,RECEPTION_AT_INTEGRATION_SITE,10,False,2,Digital_Scan
OB_LOADED_LONGERON,RECEPTION_AT_INTEGRATION_SITE,10,False,3,Tilock_and_MOPS_readback
OB_LOADED_MODULE_CELL,OB_LOADED_MODULE_CELL/UNHAPPY,-1,nan,-1,
OB_LOADED_MODULE_CELL,OB_LOADED_MODULE_CELL/RECEPTION,-1,nan,-1,
OB_LOADED_MODULE_CELL,PIGTAIL_INSERTION,-1,nan,-1,
OB_LOADED_MODULE_CELL,OB_LOADED_MODULE_CELL/ASSEMBLY,0,False,1,MASS_MEASUREMENT
OB_LOADED_MODULE_CELL,OB_LOADED_MODULE_CELL/ASSEMBLY,0,False,2,GLUE_MODULE_CELL_ATTACH
OB_LOADED_MODULE_CELL,OB_LOADED_MODULE_CELL/ASSEMBLY,0,False,3,VISUAL_INSPECTION
OB_LOADED_MODULE_CELL,OB_LOADED_MODULE_CELL/ASSEMBLY,0,False,4,OB_LOADED_CELL_METROLOGY
OB_LOADED_MODULE_CELL,OB_LOADED_MODULE_CELL/ASSEMBLY,0,False,5,OB_LOADED_CELL_ENVELOPE
OB_LOADED_MODULE_CELL,OB_LOADED_MODULE_CELL/THERMAL_CYCLES,1,False,1,VISUAL_INSPECTION
OB_LOADED_MODULE_CELL,OB_LOADED_MODULE_CELL/THERMAL_CYCLES,1,False,2,FLATNESS
OB_LOADED_MODULE_CELL,OB_LOADED_MODULE_CELL/THERMAL_CYCLES,1,False,3,E_SUMMARY
OB_LOADED_MODULE_CELL,OB_LOADED_MODULE_CELL/THERMAL_CYCLES,1,False,4,IV_MEASURE
OB_LOADED_MODULE_CELL,OB_LOADED_MODULE_CELL/THERMAL_CYCLES,1,False,5,THERMAL_CYCLING
OB_LOADED_MODULE_CELL,OB_LOADED_MODULE_CELL/FINAL_WARM,2,False,1,E_SUMMARY
OB_LOADED_MODULE_CELL,OB_LOADED_MODULE_CELL/FINAL_WARM,2,False,2,IV_MEASURE
OB_LOADED_MODULE_CELL,OB_LOADED_MODULE_CELL/FINAL_COLD,3,False,1,E_SUMMARY
OB_LOADED_MODULE_CELL,OB_LOADED_MODULE_CELL/FINAL_COLD,3,False,2,IV_MEASURE
OB_LOADED_MODULE_CELL,OB_LOADED_MODULE_CELL/THERMAL_CONDUCTIVITY,4,False,1,THERMAL_MEASURE
OB_LOADED_MODULE_CELL,OB_LOADED_MODULE_CELL/ENVELOPE_CHECK,5,False,1,VISUAL_INSPECTION
OB_LOADED_MODULE_CELL,OB_LOADED_MODULE_CELL/ENVELOPE_CHECK,5,False,2,OB_LOADED_CELL_METROLOGY
OB_LOADED_MODULE_CELL,OB_LOADED_MODULE_CELL/ENVELOPE_CHECK,5,False,3,OB_LOADED_CELL_ENVELOPE
OB_LOADED_MODULE_CELL,OB_LOADED_MODULE_CELL/COMPLETE,7,True,1,GRADING_SUMMARY
OB_LOADING_ADHESIVE,RECEPTION,-1,nan,-1,
OB_LOADING_ADHESIVE,QC1,-1,nan,-1,
OB_LOCAL_SUPPORT_BOX,READY,-1,nan,-1,
OB_LONGERON_COMPOSITE_STRUCTURE,Assembly,-1,nan,-1,
OB_LONGERON_COMPOSITE_STRUCTURE,QC,3,False,1,Mass_Control
OB_LONGERON_COMPOSITE_STRUCTURE,QC,3,False,2,Dimensional_Control
OB_LONGERON_COMPOSITE_STRUCTURE,QC,3,False,3,Mechanical_Test
OB_LONGERON_COMPOSITE_STRUCTURE,QC,3,False,4,Visuall_Inspection
OB_LONGERON_HF,INITIAL,-1,nan,-1,
OB_LONGERON_HF,REGISTERED,-1,nan,-1,
OB_LONGERON_HF,QC_DONE,-1,nan,-1,
OB_LONGERON_HF,PACKED,-1,nan,-1,
OB_LONGERON_HF,FINAL,-1,nan,-1,
OB_Longeron_Inserts,Reception,-1,nan,-1,
OB_MASSOLETTE,,-1,nan,-1,
OB_PG_TILE,RECEPTION,-1,nan,-1,
OB_PG_TILE,PACKAGE_FOR_SHIPMENT,-1,nan,-1,
OB_PG_TILE,QC1,2,False,1,Mass_Control
OB_PG_TILE,QC1,2,False,2,Dimensional_Control
OB_PG_TILE,RECEPTION_AT_CELL_ASSEMBLY_SITE,4,False,0,Visual_Inspection
OB_PIGTAIL,PIGTAIL_RECEPTION_BEFORE_CABLING,0,False,0,OB_PIGTAIL_PASS_FAIL
OB_PIGTAIL,PIGTAIL_RECEPTION_AFTER_CABLING,1,False,0,OB_PIGTAIL_RECEPTION_AC
OB_PIGTAIL,UNBENT_PIGTAILS_ELECTRICAL_TESTS,2,True,0,OB_PIGTAIL_PASS_FAIL
OB_PIGTAIL,Bending,3,False,1,OB_PIGTAIL_PASS_FAIL
OB_PIGTAIL,BENT_PIGTAILS_ELECTRICAL_TESTS,4,False,1,OB_PIGTAIL_PASS_FAIL
OB_PIGTAIL_PANEL,OB_PANEL_PIGTAIL_RECEPTION_BEFORE_CABLING,0,False,1,OB_PANEL_RECEPTION_BC
OB_PIPE_SUPPORT,MANUFACTURING,-1,nan,-1,
OB_PIPE_SUPPORT,QC1,2,False,1,Dimensional_Control
OB_PIPE_SUPPORT,QC1,2,False,2,Mass_Control
OB_PIPE_SUPPORT,QC1,2,False,3,Visual_Inspection
OB_RAW_MATERIAL_AL_G,RECEPTION,-1,nan,-1,
OB_RAW_MATERIAL_AL_G,QC1,2,False,1,Density_Check
OB_RAW_MATERIAL_CFRP,RECEPTION_RAW_MATERIAL,-1,nan,-1,
OB_RAW_MATERIAL_CFRP,IN_USE,-1,nan,-1,
OB_RAW_MATERIAL_CFRP,EXPIRED,-1,nan,-1,
OB_RAW_MATERIAL_CFRP,EMPTY,-1,nan,-1,
OB_SAMTEC_SCREWS,,-1,nan,-1,
OB_TERMINATIONBOARD,OB_TB_RECEPTION,1,False,1,OB_TB_RECEPTION_TEST
OB_TITANUIM_TUBE,RECEPTION,-1,nan,-1,
OB_TITANUIM_TUBE,QC,1,False,1,Dimensional_Control
OB_TITANUIM_TUBE,QC,1,False,2,Metallography
OB_TITANUIM_TUBE,QC,1,False,3,Mechanical_Test
OB_TRUSS,MANUFACTURING,1,nan,-1,
OB_TRUSS,MACHINING,2,False,-1,
OB_TRUSS,QC,3,False,1,Visual_Inspection
OB_TRUSS,QC,3,False,2,Dimensional_Control
OB_TRUSS,QC,3,False,3,Mass_Control
OB_TRUSS,QC,3,False,4,Flexion_Test
OB_TYPE1_DATA_BUNDLE,OB-T1DATA-RECEPTION,-1,nan,-1,
OB_TYPE1_DATA_BUNDLE,RECEPTION_AT_INTERGRATION_SITE,-1,nan,-1,
OB_TYPE1_POWER_SUPERBUNDLE,UNHAPPY,-1,nan,-1,
OB_TYPE1_POWER_SUPERBUNDLE,RECPETION_INTEGRATION,-1,nan,-1,
OB_TYPE1_POWER_SUPERBUNDLE,INTEGRATION_COMPLETE,-1,nan,-1,
OB_TYPE1_POWER_SUPERBUNDLE,ASSEMBLY,1,False,1,PREPOTTING_VISUAL_INSPECTION
OB_TYPE1_POWER_SUPERBUNDLE,ASSEMBLY,1,False,2,CONNECTOR_VISUAL_INSPECTION
OB_TYPE1_POWER_SUPERBUNDLE,THERMAL_CYCLING,2,False,1,BUNDLE_LENGTHS_CHECK
OB_TYPE1_POWER_SUPERBUNDLE,THERMAL_CYCLING,2,False,2,GEOMETRY_CONTROL
OB_TYPE1_POWER_SUPERBUNDLE,THERMAL_CYCLING,2,False,3,ELECTRICAL_TEST
OB_TYPE1_POWER_SUPERBUNDLE,THERMAL_CYCLING,2,False,4,POWER_TEST
OB_Termination_Sleeves,RECEPTION,0,False,-1,
OB_VIRTUAL_HV_GROUP,_OB_LOADED_LOCAL_SUPPORT/PERFORMANCE_QC_ELECTRICAL_ECHAFAUDAGE,-1,nan,-1,
OB_VIRTUAL_HV_GROUP,_OB_LOADED_LOCAL_SUPPORT/LOW_POWER_QC_ELECTRICAL_ECHAFAUDAGE,-1,nan,-1,
OB_VIRTUAL_HV_GROUP,_OB_LOADED_LOCAL_SUPPORT/RECEPTION_AT_INTEGRATION_SITE_ECHAFAUDAGE,-1,nan,-1,
OB_VIRTUAL_HV_GROUP,_OB_LOADED_LOCAL_SUPPORT/CONNECTIVITY_CHECKOUT_ELECTRICAL_ECHAFAUDAGE,1,False,1,Tilock_and_MOPS_check_ECHAFAUDAGE
OB_WB_PROTECTION_ROOF,QC,1,False,1,MASS
OB_WB_PROTECTION_ROOF,QC,1,False,2,DIMENSION
OB_WB_PROTECTION_ROOF,QC,1,False,3,VISUAL_INSPECTION
OB_WB_PROTECTION_ROOF,RECEPTION_ASSEMBLY_SITE,2,False,1,VISUAL_INSPECTION
OB_ZRAY_INTERPOSERS_TRAY,,-1,nan,-1,
OEC_BARE_BUS_TAPE,SMD_LOADING,-1,nan,-1,
OEC_BARE_BUS_TAPE,REC,0,False,0,QUICK_QC
OEC_BARE_BUS_TAPE,REJECTED,1,True,0,QUICK_QC
OEC_BARE_BUS_TAPE,REC_QC,2,False,0,MET
OEC_BARE_BUS_TAPE,REC_QC,2,False,1,VIS
OEC_BARE_BUS_TAPE,REC_QC,2,False,2,CON
OEC_BARE_BUS_TAPE,QC_NOT_PASSED,3,True,0,QUICK_QC
OEC_BARE_HR,QC_NOT_PASSED,-1,nan,-1,
OEC_BARE_HR,Bare_HR_Ready_for_BT_Loading,-1,nan,-1,
OEC_BARE_HR,QC1,2,False,1,GROUNDING
OEC_BARE_HR,QC1,2,False,3,METROLOGY
OEC_BARE_HR,QC1,2,False,4,THERMAL
OEC_BARE_HR,QC1,2,False,4,PRESSURE_TEMPERATURE_TEST
OEC_BARE_HR,QC1,2,False,5,VISUAL_INSPECTION
OEC_Bare_HR_WITH_BUS_TAPES,Ready_for_shipment_to_loading_site,-1,nan,-1,
OEC_Bare_HR_WITH_BUS_TAPES,HR_Discarded,-1,nan,-1,
OEC_Bare_HR_WITH_BUS_TAPES,RECEPTION_LOADING,-1,nan,-1,
OEC_Bare_HR_WITH_BUS_TAPES,QC1,1,False,1,Electric_QC
OEC_Bare_HR_WITH_BUS_TAPES,QC1,1,False,2,Tape_to_HR_Metrology
OEC_CARBON_FIBRE_VEIL_HR,Ready_to_use,-1,nan,-1,
OEC_CARBON_FIBRE_VEIL_HR,Reception,1,False,1,MANUFACTURER_DATA_CHECK
OEC_CARBON_FOAM_TRAPEZOIDS_HR,READY_FOR_SHIPMENT_CO-CURE,-1,nan,-1,
OEC_CARBON_FOAM_TRAPEZOIDS_HR,TO_BE_REVIEWED,-1,nan,-1,
OEC_CARBON_FOAM_TRAPEZOIDS_HR,COMPLETED_STAGE,-1,nan,-1,
OEC_CARBON_FOAM_TRAPEZOIDS_HR,RECEPTION,1,False,1,RECEPTION_TESTS
OEC_Conductive_epoxy_BT_TO_HR,In_Use,-1,nan,-1,
OEC_Conductive_epoxy_BT_TO_HR,Empty,-1,nan,-1,
OEC_Conductive_epoxy_BT_TO_HR,expired,-1,nan,-1,
OEC_Conductive_epoxy_BT_TO_HR,New,1,False,1,product_specifications
OEC_ELECTRICAL_BREAK_HR_TI_PIPE,RECEPTION,1,False,1,RECEPTION
OEC_ELECTRICAL_BREAK_HR_TI_PIPE,READY_TO_USE,2,False,-1,
OEC_EVAPORATOR_HR,Failed_welding,-1,nan,-1,
OEC_EVAPORATOR_HR,QC_TEST_PASSED,-1,nan,-1,
OEC_EVAPORATOR_HR,Failed_Pressure_test,-1,nan,-1,
OEC_EVAPORATOR_HR,ASSEMBLY,1,False,1,ASSEMBLY_TESTs
OEC_EVAPORATOR_HR,QC1,3,False,1,PRESSURE_TEST
OEC_FOAM_BLOCKS,RECEPTION_TEST_PASSED,-1,nan,-1,
OEC_FOAM_BLOCKS,RECEPTION,1,False,3,RECEPTION_TESTS
OEC_GLUE_HR,RECEPTION,-1,nan,-1,
OEC_GLUE_HR,RECEPTION_TEST_PASSED,-1,nan,-1,
OEC_GLUE_HR,NEW,-1,nan,-1,
OEC_GLUE_HR,IN_USE,-1,nan,-1,
OEC_GLUE_HR,EMPTY,-1,nan,-1,
OEC_GLUE_HR,EXPIRED,-1,nan,-1,
OEC_GRAPHITE_POWDER_HR,RECEPTION_TEST_PASSED,-1,nan,-1,
OEC_GRAPHITE_POWDER_HR,RECEPTION,1,False,1,Vendor_specifications
OEC_HALF_SANDWICH,Discarded,-1,nan,-1,
OEC_HALF_SANDWICH,Ready_for_shipment,-1,nan,-1,
OEC_HALF_SANDWICH,HS_DAMAGED,-1,nan,-1,
OEC_HALF_SANDWICH,Ready_for_Half_ring,-1,nan,-1,
OEC_HALF_SANDWICH,HS_assembly_test,1,False,3,Assembly_test
OEC_HALF_SANDWICH,Reception_assembly_site,4,False,1,PRE-MACHINING_CO-CURES_INSPECTION
OEC_HALF_SANDWICH,HS_ASSEMBLY_QC,6,False,1,INTEGRITY_INSPECTION
OEC_HANDLING_FRAME,QC_TEST_STAGE,1,False,1,FIXATION_POINTS_FLATNESS
OEC_HANDLING_FRAME,QC_TEST_STAGE,1,False,2,FLATNESS
OEC_HVG,,-1,nan,-1,
OEC_INSTERT_HR,RECEPTION,-1,nan,-1,
OEC_INSTERT_HR,RECEPTION_TEST_PASSED,-1,nan,-1,
OEC_LLS,LOADING_OEC_LLS,-1,nan,-1,
OEC_LLS,UNHAPPY_OEC_LLS,-1,nan,-1,
OEC_LLS,TRANSBOX_OEC_LLS,-1,nan,-1,
OEC_LLS,OEC_LLS_THERM_CYC,-1,nan,-1,
OEC_LLS,OEC_LLS_LP_WARM,-1,nan,-1,
OEC_LLS,OEC_LLS_ENV_SURV,2,False,1,HR_ENVELOPE_SURVEY_LLS
OEC_LLS,PP_CONNEC_OEC_LLS,3,False,0,OEC_LLS_PP_CONT
OEC_LLS,PP_CONNEC_OEC_LLS,3,False,1,OEC_LLS_PP_OPT
OEC_LLS,OEC_LLS_E_QC_PRETHERM,5,False,0,OEC_LLS_Connectivity_Checkout
OEC_LLS,OEC_LLS_E_QC_PRETHERM,5,False,1,OEC_LLS_BERT
OEC_LLS_BUS_TAPE,,-1,nan,-1,
OEC_LLS_SP,,-1,nan,-1,
OEC_LLS_TEST,LOADED,-1,nan,-1,
OEC_LLS_TEST,OEC_HR_PIGTAIL_CONNECTION,-1,nan,-1,
OEC_LLS_TEST,OEC_TRANSPORTBOX,-1,nan,-1,
OEC_LLS_TEST,LOADED_OEC_ELECTRICALQC_PRE_THERM,-1,nan,-1,
OEC_LLS_TEST,THERMALCYCLE,-1,nan,-1,
OEC_LLS_TEST,OEC_WARM_LP_TESTING,-1,nan,-1,
OEC_LLS_TEST,OEC_UNHAPPY,-1,nan,-1,
OEC_LLS_TEST,ENVELOPESURVEY,1,False,1,OEC_HR_ENVELOPE_SURVEY
OEC_MOUNTING_LUG_HR,Ready_to_use,-1,nan,-1,
OEC_MOUNTING_LUG_HR,RECEPTION,1,False,1,DIMENSIONS_CHECK
OEC_PIGTAIL_HR,RECEPTION,-1,nan,-1,
OEC_PIGTAIL_HR,QC1,-1,nan,-1,
OEC_PIPE_END_CLOSEOUT_HR,RECEPTION_TEST_PASSED,-1,nan,-1,
OEC_PIPE_END_CLOSEOUT_HR,Ready_to_use,-1,nan,-1,
OEC_PRE_PREG_HR,Ready_to_use,-1,nan,-1,
OEC_PRE_PREG_HR,USED,-1,nan,-1,
OEC_PRE_PREG_HR,EXPIRED,-1,nan,-1,
OEC_PRE_PREG_HR,RECEPTION_TESTS,1,False,1,RECEPTION_TESTS
OEC_TEST_BARE_LLS,,-1,nan,-1,
OEC_TI_PIPE,WELDING_STAGE,-1,nan,-1,
OEC_TI_PIPE,RECEPTION,1,False,2,Tube_test_Lancs
OEC_TI_PIPE,RECEPTION,1,False,2,JIG
OEC_TI_PIPE,WeldingSiteReception,3,False,2,PIPE_shape_QC_TESTS
OPTOBOARD,IN_OPTOBOX,-1,nan,-1,
OPTOBOARD,UNHAPPY,-1,nan,-1,
OPTOBOARD,RECEPTION,0,False,0,OPTOBOARD_VISUAL_INSPECTION
OPTOBOARD,RECEPTION,0,False,1,POWER_ON_TEST
OPTOBOARD,BPOL_ASSEMBLED,1,False,0,DOWNLINK_TEST
OPTOBOARD,BPOL_ASSEMBLED,1,False,1,LPGBT_INPUT
OPTOBOARD,BPOL_ASSEMBLED,1,False,2,SOFTERROR_TEST
OPTOBOX,MECHANICS_PRODUCTION,-1,nan,-1,
OPTOBOX,ASSEMBLED,-1,nan,-1,
OPTOBOX,IN_INTEGRATION_OPTOPANEL,-1,nan,-1,
OPTOBOX,UNHAPPY,-1,nan,-1,
OPTOBOX,IN_FINAL_OPTOPANEL,-1,nan,-1,
OPTOBOX_CAN_BUS_CABLE,UNHAPPY,-1,nan,-1,
OPTOBOX_CAN_BUS_CABLE,ASSEMBLED,-1,nan,-1,
OPTOBOX_CAN_BUS_CABLE,RECEPTION,0,False,0,CAN_BUS_CABLE_VISUAL_INSPECTION
OPTOBOX_CAN_BUS_CABLE,RECEPTION,0,False,1,CONNECTIVITY
OPTOBOX_CONNECTORBOARD,UNHAPPY,-1,nan,-1,
OPTOBOX_CONNECTORBOARD,IN_OPTOBOX,-1,nan,-1,
OPTOBOX_CONNECTORBOARD,RECEPTION,0,False,0,VISUAL_INSPECTION
OPTOBOX_CONNECTORBOARD,RECEPTION,0,False,1,CHANNEL_VOLTAGE_TESTS
OPTOBOX_OPTICAL_FAN_OUT,IN_OPTOBOX,-1,nan,-1,
OPTOBOX_OPTICAL_FAN_OUT,UNHAPPY,-1,nan,-1,
OPTOBOX_OPTICAL_FAN_OUT,RECEPTION,1,False,0,CONNECTIVITY
OPTOBOX_OPTICAL_FAN_OUT,RECEPTION,1,False,1,VISUAL_INSPECTION
OPTOBOX_POWERBOARD,UNHAPPY,-1,nan,-1,
OPTOBOX_POWERBOARD,IN_OPTOBOX,-1,nan,-1,
OPTOBOX_POWERBOARD,RECEPTION,1,False,0,OB_PB_VISUAL_INSPECTION
OPTOBOX_POWERBOARD,RECEPTION,1,False,1,MOPS_READOUT
OPTOBOX_POWERBOX,POWERBOX_RECEPTION,-1,nan,-1,
OPTOBOX_POWERBOX,POWERBOX_ASSEMBLY,-1,nan,-1,
OPTOBOX_POWER_CABLE,RECEPTION,-1,nan,-1,
OPTOBOX_POWER_CABLE,IN_OPTOBOX,-1,nan,-1,
OPTOBOX_POWER_CABLE,UNHAPPY,-1,nan,-1,
OPTOPANEL,ASSEMBLED,-1,nan,-1,
OPTOPANEL,UNHAPPY,-1,nan,-1,
OPTOPANEL,RECEPTION,0,False,0,CLEANLINESS_INSPECTION
OPTOPANEL_COOLING_PLATE,IN_OPTOPANEL,-1,nan,-1,
OPTOPANEL_COOLING_PLATE,UNHAPPY,-1,nan,-1,
OPTOPANEL_COOLING_PLATE,PRODUCTION,1,False,0,VISUAL_INSPECTION
OPTOPANEL_COOLING_PLATE,PRODUCTION,1,False,1,FLUID_TEST
PCB,UNHAPPY,-1,nan,-1,
PCB,PCB_READY_FOR_MODULE,-1,nan,-1,
PCB,MODULE/ASSEMBLY,-1,nan,-1,
PCB,MODULE/WIREBONDING,-1,nan,-1,
PCB,MODULE/INITIAL_WARM,-1,nan,-1,
PCB,MODULE/QC_CROSSCHECK,-1,nan,-1,
PCB,MODULE/INITIAL_COLD,-1,nan,-1,
PCB,MODULE/PARYLENE_MASKING,-1,nan,-1,
PCB,MODULE/PARYLENE_COATING,-1,nan,-1,
PCB,MODULE/PARYLENE_UNMASKING,-1,nan,-1,
PCB,MODULE/POST_PARYLENE_WARM,-1,nan,-1,
PCB,MODULE/POST_PARYLENE_COLD,-1,nan,-1,
PCB,MODULE/WIREBOND_PROTECTION,-1,nan,-1,
PCB,MODULE/THERMAL_CYCLES,-1,nan,-1,
PCB,MODULE/LONG_TERM_STABILITY_TEST,-1,nan,-1,
PCB,MODULE/FINAL_WARM,-1,nan,-1,
PCB,MODULE/FINAL_COLD,-1,nan,-1,
PCB,MODULE/UNHAPPY,-1,nan,-1,
PCB,MODULE/COMPLETE,-1,nan,-1,
PCB,MODULE/RECEPTION,-1,nan,-1,
PCB,MODULE/TAB_CUTTING,-1,nan,-1,
PCB,OB_LOADED_MODULE_CELL/ASSEMBLY,-1,nan,-1,
PCB,OB_LOADED_MODULE_CELL/THERMAL_CYCLES,-1,nan,-1,
PCB,OB_LOADED_MODULE_CELL/FINAL_WARM,-1,nan,-1,
PCB,OB_LOADED_MODULE_CELL/FINAL_COLD,-1,nan,-1,
PCB,OB_LOADED_MODULE_CELL/THERMAL_CONDUCTIVITY,-1,nan,-1,
PCB,OB_LOADED_MODULE_CELL/ENVELOPE_CHECK,-1,nan,-1,
PCB,OB_LOADED_MODULE_CELL/UNHAPPY,-1,nan,-1,
PCB,OB_LOADED_MODULE_CELL/COMPLETE,-1,nan,-1,
PCB,OB_LOADED_MODULE_CELL/RECEPTION,-1,nan,-1,
PCB,COMPLETE,-1,nan,-1,
PCB,PCB_RECEPTION,0,False,2,METROLOGY
PCB,PCB_RECEPTION,0,False,3,DOWEL_TOLERANCE_CHECK
PCB,PCB_RECEPTION,0,False,4,LAYER_THICKNESS
PCB,PCB_RECEPTION,0,False,5,IMAGE_CAPTURE_TEST
PCB,PCB_RECEPTION,0,False,6,VISUAL_INSPECTION
PCB,PCB_RECEPTION,0,False,6,VIA_RESISTANCE
PCB,PCB_POPULATION,1,False,2,VISUAL_INSPECTION
PCB,PCB_POPULATION,1,False,2,COMPONENT_POSITION_CHECK
PCB,PCB_CUTTING,2,False,1,QUICK_TAB_CUTTING_INSPECTION
PCB,QA_PRE_THERMAL_CYCLE,3,True,0,SLDO_RESISTORS
PCB,QA_PRE_THERMAL_CYCLE,3,True,1,NTC_VERIFICATION
PCB,QA_PRE_THERMAL_CYCLE,3,True,2,SIGNAL_TRANSMISSION
PCB,QA_PRE_THERMAL_CYCLE,3,True,3,VIA_RESISTANCE
PCB,QA_PRE_THERMAL_CYCLE,3,True,4,METROLOGY
PCB,QA_PRE_THERMAL_CYCLE,3,True,5,HV_LV_TEST
PCB,QA_POST_THERMAL_CYCLE,4,True,1,NTC_VERIFICATION
PCB,QA_POST_THERMAL_CYCLE,4,True,2,VIA_RESISTANCE
PCB,QA_POST_THERMAL_CYCLE,4,True,4,HV_LV_TEST
PCB,QA_POST_RADIATION_CYCLE,5,True,1,SIGNAL_TRANSMISSION
PCB,QA_POST_RADIATION_CYCLE,5,True,2,VIA_RESISTANCE
PCB,QA_POST_RADIATION_CYCLE,5,True,3,METROLOGY
PCB,QA_POST_RADIATION_CYCLE,5,True,4,SLDO_RESISTORS
PCB,QA_POST_RADIATION_CYCLE,5,True,5,NTC_VERIFICATION
PCB,PCB_QC,6,False,2,HV_LV_TEST
PCB,PCB_QC,6,False,2,DOWEL_TOLERANCE_CHECK
PCB,PCB_RECEPTION_MODULE_SITE,9,False,1,VISUAL_INSPECTION
PCB,PCB_RECEPTION_MODULE_SITE,9,False,2,MASS
PCB,PCB_RECEPTION_MODULE_SITE,9,False,3,METROLOGY
PCB_TESTCOUPON,COMPLETE,-1,nan,-1,
PCB_TESTCOUPON,BARE_BOARD_RECEPTION,1,False,1,VISUAL_INSPECTION
PCB_TESTCOUPON,PRE_THERMAL_CYCLE,2,True,1,LAYER_THICKNESS
PCB_TESTCOUPON,PRE_THERMAL_CYCLE,2,True,2,SIGNAL_TRANSMISSION
PCB_TESTCOUPON,PRE_THERMAL_CYCLE,2,True,3,VIA_RESISTANCE
PCB_TESTCOUPON,PRE_THERMAL_CYCLE,2,True,4,
PCB_TESTCOUPON,PRE_THERMAL_CYCLE,2,True,6,DELAMINATION
PCB_TESTCOUPON,PRE_THERMAL_CYCLE,2,True,7,INSULATION_RESISTANCE
PCB_TESTCOUPON,POST_THERMAL_CYCLE,3,True,1,VIA_RESISTANCE
PCB_TESTCOUPON,POST_THERMAL_CYCLE,3,True,2,
PCB_TESTCOUPON,POST_THERMAL_CYCLE,3,True,3,DELAMINATION
PCB_TESTCOUPON,POST_THERMAL_CYCLE,3,True,4,INSULATION_RESISTANCE
PIXEL_IS,,-1,nan,-1,
PIXEL_LPGBT,NOTPOPULATED,-1,nan,-1,
PIXEL_LPGBT,POPULATED,1,False,0,BER_UPLINK_TEST
POWER_FLEX,FINISHED,-1,nan,-1,
POWER_FLEX,RECEPTION,0,None,0,VISUAL_INSPECTION
POWER_FLEX,TESTING,0,None,0,CONNECTIVITY
POWER_FLEX,TESTING,0,None,0,CONTINUITY
POWER_FLEX,TESTING,0,None,0,RESISTANCE
PP0_LONGERON,PP0_RECEPTION_BEFORE_CABLING,0,False,0,PASS_FAIL
PP0_LONGERON,PP0_RECEPTION_AFTER_CABLING,1,False,0,RECEPTION_AC
PP0_LONGERON,PP0_UNBENT_ELECTRICAL_TESTS,2,True,0,PASS_FAIL
PP0_LONGERON,PP0_FLAT_BENDING,3,False,0,PASS_FAIL
PP0_LONGERON,PP0_FLAT_GT,4,True,1,PP0_FLAT_GT
PP0_LONGERON,PP0_BENT_ELECTRICAL_TESTS,5,False,0,PASS_FAIL
PP0_LONGERON,PP0_FLAT_SHIP,6,False,1,PP0_SHIP
PP0_LONGERON_PANEL,PP0_FLAT_PANEL_RECEPTION_BEFORE_CABLING,1,False,0,OB_PANEL_RECEPTION_BC
PP1_CONNECTOR,RECEPTION,-1,nan,-1,
PP1_CONNECTOR,ASSEMBLY,-1,nan,-1,
PP1_CONNECTOR,ASSEMBLED,-1,nan,-1,
PP1_CONNECTOR,UNHAPPY,-1,nan,-1,
PP1_CONNECTOR,VISUAL_INSPECTION,2,False,1,VISUAL_INSPECTION
PP1_CONNECTOR_PROPOSAL,_UNHAPPY_ALTERNATIVE,-1,nan,-1,
PP1_CONNECTOR_PROPOSAL,_ASSEMBLY_ALTERNATIVE,-1,nan,-1,
PP1_CONNECTOR_PROPOSAL,_LOADING_COMPLETE_ALTERNATIVE,-1,nan,-1,
PP1_CONNECTOR_PROPOSAL,_RECEPTION_ALTERNATIVE,0,False,1,VISUAL_INSPECTION_ALTERNATIVE
RIGID_RING,FINISHED,-1,nan,-1,
RIGID_RING,RECEPTION,0,None,0,VISUAL_INSPECTION
RIGID_RING,TESTING,0,None,0,CONNECTIVITY
RIGID_RING,TESTING,0,None,0,CONTINUITY
RIGID_RING,TESTING,0,None,0,RESISTANCE
RIGID_RING,TESTING,0,None,0,SIGNAL_INTEGRITY
SENSOR_TILE,NOT_USED,-1,nan,-1,
SENSOR_TILE,BAREMODULEASSEMBLY,-1,nan,-1,
SENSOR_TILE,MODULE/ASSEMBLY,-1,nan,-1,
SENSOR_TILE,MODULE/WIREBONDING,-1,nan,-1,
SENSOR_TILE,MODULE/INITIAL_WARM,-1,nan,-1,
SENSOR_TILE,MODULE/QC_CROSSCHECK,-1,nan,-1,
SENSOR_TILE,MODULE/INITIAL_COLD,-1,nan,-1,
SENSOR_TILE,MODULE/PARYLENE_MASKING,-1,nan,-1,
SENSOR_TILE,MODULE/PARYLENE_COATING,-1,nan,-1,
SENSOR_TILE,MODULE/PARYLENE_UNMASKING,-1,nan,-1,
SENSOR_TILE,MODULE/POST_PARYLENE_WARM,-1,nan,-1,
SENSOR_TILE,MODULE/POST_PARYLENE_COLD,-1,nan,-1,
SENSOR_TILE,MODULE/WIREBOND_PROTECTION,-1,nan,-1,
SENSOR_TILE,MODULE/THERMAL_CYCLES,-1,nan,-1,
SENSOR_TILE,MODULE/LONG_TERM_STABILITY_TEST,-1,nan,-1,
SENSOR_TILE,MODULE/FINAL_WARM,-1,nan,-1,
SENSOR_TILE,MODULE/FINAL_COLD,-1,nan,-1,
SENSOR_TILE,MODULE/UNHAPPY,-1,nan,-1,
SENSOR_TILE,MODULE/COMPLETE,-1,nan,-1,
SENSOR_TILE,MODULE/RECEPTION,-1,nan,-1,
SENSOR_TILE,MODULE/TAB_CUTTING,-1,nan,-1,
SENSOR_TILE,OB_LOADED_MODULE_CELL/ASSEMBLY,-1,nan,-1,
SENSOR_TILE,OB_LOADED_MODULE_CELL/THERMAL_CYCLES,-1,nan,-1,
SENSOR_TILE,OB_LOADED_MODULE_CELL/FINAL_WARM,-1,nan,-1,
SENSOR_TILE,OB_LOADED_MODULE_CELL/FINAL_COLD,-1,nan,-1,
SENSOR_TILE,OB_LOADED_MODULE_CELL/THERMAL_CONDUCTIVITY,-1,nan,-1,
SENSOR_TILE,OB_LOADED_MODULE_CELL/ENVELOPE_CHECK,-1,nan,-1,
SENSOR_TILE,OB_LOADED_MODULE_CELL/UNHAPPY,-1,nan,-1,
SENSOR_TILE,OB_LOADED_MODULE_CELL/COMPLETE,-1,nan,-1,
SENSOR_TILE,OB_LOADED_MODULE_CELL/RECEPTION,-1,nan,-1,
SENSOR_TILE,sensor_manufacturer,0,False,1,CV_MEASURE
SENSOR_TILE,sensor_manufacturer,0,False,2,IV_MEASURE
SENSOR_TILE,WAFER_PROCESSING,1,False,1,VISUAL_INSPECTION
SENSOR_TILE,WAFER_PROCESSING,1,False,2,SENSOR_METROLOGY
SENSOR_TILE,WAFER_PROCESSING,1,False,3,IV_MEASURE
SENSOR_TILE,WAFER_PROCESSING,1,False,4,CV_MEASURE
SENSOR_TILE,QA,2,True,1,CV_MEASURE
SENSOR_TILE,QA,2,True,2,IV_MEASURE
SENSOR_TILE,QA,2,True,3,IT_MEASURE
SENSOR_TILE,QA,2,True,4,INTER-PIXEL_CAPACITANCE
SENSOR_TILE,QA,2,True,5,INTER-PIXEL_RESISTANCE
SENSOR_TILE,QA,2,True,6,SENSOR_METROLOGY
SENSOR_TILE,POST_IRRAD,3,True,0,IV_MEASURE
SENSOR_TILE,POST_IRRAD,3,True,1,CV_MEASURE
SENSOR_TILE,BAREMODULERECEPTION,6,False,1,IV_MEASURE
SENSOR_WAFER,WAFER_DICING,-1,nan,-1,
SENSOR_WAFER,COMPLETE,-1,nan,-1,
SENSOR_WAFER,sensor_manufacturer,1,False,1,WAFER_BOW
SENSOR_WAFER,sensor_manufacturer,1,False,2,VISUAL_INSPECTION
TEST-WAFER-SIMON,VENDOR,-1,nan,-1,
TESTCARRIER,REMOVEMODULE,-1,nan,-1,
TESTCARRIER,ADDMODULE,2,False,1,RECEPTION
TESTCHIPMONIKA,DICED,-1,nan,-1,
TESTCHIPMONIKA,RECEPTIONTEST,1,False,0,TESTCHIP
TESTCHIPMONIKA,RECEPTIONTEST,1,False,1,TEST4
TESTCHIPMONIKA,NOT_USABLE,2,True,1,DICING_TEST
TESTMODULE,RECEPTION,-1,nan,-1,
TESTMODULE,LOADED_MODULE,-1,nan,-1,
TESTMODULE,ASSEMBLE,-1,nan,-1,
TESTMODULE,complete,-1,nan,-1,
TESTMODULE,reception_test,1,False,1,RECEPTIONTEST
TESTWAFER_MONIKA,WAFER_RECEPTION_TEST,-1,nan,-1,
TESTWAFER_MONIKA,DICING,-1,nan,-1,
TESTWAFER_MONIKA,RECEPTIONTEST,1,False,1,WAFERTEST
TESTWAFER_MONIKA,RECEPTIONTEST,1,False,2,IV_MEASURE
TESTWAFER_MONIKA,RECEPTIONTEST,1,False,3,MASSTEST
TEST_HARNESS,ASSEMBLY,-1,nan,-1,
TEST_HARNESS,COMPLETE,-1,nan,-1,
TEST_JM_OEC_FE,,-1,nan,-1,
TEST_JM_OEC_GROUP,,-1,nan,-1,
TEST_JM_OEC_MOD,,-1,nan,-1,
TEST_JM_OEC_SIDE_2,,-1,nan,-1,
TEST_JM_OEC_TOPLEVELONE,TEST_JM_TOP_ENVELOP_SURVEY,0,False,0,TEST_JM_OEC_LLS_METROLOGY
TEST_JM_OEC_TOPLEVELONE,TEST_JM_OEC_TOP_PP_CONN,2,False,0,TEST_JM_OEC_LLS_PP_VIS
TEST_JM_OEC_TOPLEVELONE,TEST_JM_OEC_TOP_PP_CONN,2,False,1,TEST_JM_OEC_LLS_PP_CONT
TEST_JM_OEC_TOPLEVELONE,TEST_JM_OEC_TOP_PRETHERM_ET,3,False,0,TEST_JM_OEC_LLS_BERT
TEST_JM_OEC_TOPLEVELONE,TEST_JM_OEC_TOP_PRETHERM_ET,3,False,1,TEST_JM_OEC_LLS_CONN_CHECK
TEST_JM_OEC_TOPLEVELONE,TEST_JM_OEC_TOP_PRETHERM_ET,3,False,2,TEST_JM_OEC_LLS_FE_TEMP
TEST_JM_OEC_TOPLEVELONE,TEST_JM_OEC_TOP_PRETHERM_ET,3,False,3,TEST_JM_OEC_LLS_TL_MOPS
TEST_JM_OEC_TOPLEVELONE,TEST_JM_OEC_TOP_THERM_CYC,4,False,0,TEST_JM_OEC_LLS_TC_TEMP
TEST_JM_OEC_TOPLEVELONE,TEST_JM_OEC_TOP_POSTTHERM_ET,5,False,0,TEST_JM_OEC_LLS_CONN_CHECK
TEST_JM_OEC_TOPLEVELONE,TEST_JM_OEC_TOP_POSTTHERM_ET,5,False,1,TEST_JM_OEC_LLS_BERT
TEST_JM_OEC_TOPLEVELONE,TEST_JM_OEC_TOP_POSTTHERM_ET,5,False,2,TEST_JM_OEC_LLS_FE_TEMP
TEST_JM_OEC_TOPLEVELONE,TEST_JM_OEC_TOP_POSTTHERM_ET,5,False,3,TEST_JM_OEC_LLS_TL_MOPS
TEST_JM_OEC_TOPLEVELONE,TEST_JM_OEC_TOP_LP_TESTS,6,False,0,TEST_JM_OEC_LLS_FE_TEMP
TEST_JM_OEC_TOPLEVELONE,TEST_JM_OEC_TOP_LP_TESTS,6,False,1,TEST_JM_OEC_LLS_TL_MOPS
TEST_MONIKA2,,-1,nan,-1,
TEST_OB_LOADED_MODULE_CELL,ASSEMBLY,-1,nan,-1,
TEST_OB_LOADED_MODULE_CELL,THERMAL_CYCLING,-1,nan,-1,
TEST_OB_LOADED_MODULE_CELL,QC1,-1,nan,-1,
TEST_OB_LOADED_MODULE_CELL,PACKAGE+SHIPMENT,-1,nan,-1,
TEST_OB_LOADED_MODULE_CELL,RECEPTION_AT_LOADED_LOCAL_SUPPORT-SITE,-1,nan,-1,
TEST_PIPE,RECEPTION,-1,nan,-1,
TEST_PIPES,RECEPTION,-1,nan,-1,
TEST_PIPE_BATCH,RECEPTION,-1,nan,-1,
TEST_SATOSHI,STAGE1,1,False,1,MASS
TEST_SATOSHI,STAGE2,2,False,1,MASS
TEST_SATOSHI,STAGE2,2,False,2,METROLOGY_QUAD
TEST_SATOSHI,STAGE2,2,False,3,METROLOGY_TRIPLET
TEST_SATOSHI,STAGE3,3,False,1,MASS
TEST_SATOSHI,STAGE_ALT,5,True,1,MASS
TEST_SYNC,,-1,nan,-1,
TRIPLETCRATE,EXISTS,-1,nan,-1,
US_TEST_PIXEL_COMPONENT,,-1,nan,-1,
VTRX+,RECEPTION,1,False,2,
VTRX+,MOUNTING,2,False,1,
pkreb,,-1,nan,-1,
test_assembly,QC,-1,nan,-1,
test_assembly,assembly,1,False,0,TEST
test_carrier_monika,usable,-1,nan,-1,
test_glue,reception,-1,nan,-1,
test_material,reception,-1,nan,-1,
test_module_monika,PUT_IN_CARRIER,1,False,0,MASS
test_module_monika,QA1,2,True,1,MASS
test_module_monika,QA2,3,True,0,MASS
test_module_monika,QC,4,False,0,MASS
test_module_monika,outcarrier,5,False,0,MASS
test_module_monika,QA3,6,True,0,MASS
