Reading specification file

### Final settingDict ###

{
    "population": [
        {
            "alias": "GL_mods",
            "spec": {
                "projCode": "S",
                "compTypeCode": "MODULE",
                "instCode": "GL",
                "filters": []
            }
        }
    ],
    "extraction": [
        {
            "usePopulations": "GL_mods",
            "alias": "GL_mods_comp_stuff",
            "compSummary": false,
            "stageOrder": false
        },
        {
            "usePopulations": "GL_mods",
            "alias": "GL_mods_stage_stuff",
            "stageSummary": false
        },
        {
            "usePopulations": "GL_mods",
            "alias": "GL_mods_test_stuff",
            "testSummary": false,
            "spec": "all"
        }
    ],
    "visualisation": [
        {
            "useExtractions": [
                "GL_mods_comp_stuff"
            ],
            "compSummary": false,
            "alias": "GL_mods_comp_stuff"
        },
        {
            "useExtractions": [
                "GL_mods_stage_stuff"
            ],
            "stageSummary": false,
            "alias": "GL_mods_stage_stuff"
        },
        {
            "useExtractions": [
                "GL_mods_test_stuff"
            ],
            "testSummary": false,
            "alias": "GL_mods_test_stuff"
        }
    ],
    "distribution": [
        {
            "alias": "GL_mod_stuff",
            "reportName": "GL_mod_stuff_local",
            "location": "local",
            "reportDir": "/code/userPages/reportMakerApp/htmls/",
            "useVisualisations": [
                "GL_mods_comp_stuff",
                "GL_mods_stage_stuff",
                "GL_mods_test_stuff"
            ]
        }
    ]
}
ac1 not found :(
AC1 found :)
ac2 not found :(
AC2 found :)
Set up user:

###
Kenneth Wraight your token expires in 1798 seconds
###
working on pop: GL_mods
found instCode: GL
casting input as list
working on: GL
found components: 26
found components: 26
===============
Found components for GL_mods: 26
===============

working on ext: GL_mods_comp_stuff
found pop:GL_mods
===============
testTypes for GL_mods_comp_stuff : 0
===============

working on ext: GL_mods_stage_stuff
found pop:GL_mods
===============
testTypes for GL_mods_stage_stuff : 0
===============

working on ext: GL_mods_test_stuff
found pop:GL_mods
component loop 0: [0:100]
no tests for 8e5a4aeeb94887caaa6751de71318746
no tests for d4c253f5adf456838c4c11fbff4b4e5f
VISUAL_INSPECTION : 11
MODULE_IV_PS_V1 : 109
GLUE_WEIGHT : 10
VISUAL_INSPECTION_RECEPTION : 9
MODULE_METROLOGY : 38
MODULE_BOW : 12
MODULE_WIRE_BONDING : 2
MODULE_IV_AMAC : 5
MODULE_IV_PS_BONDED : 1
===============
testTypes for GL_mods_test_stuff : 9
===============

working on ext: GL_mods_comp_stuff
skipping testRuns for GL_mods_comp_stuff
working on ext: GL_mods_stage_stuff
skipping testRuns for GL_mods_stage_stuff
working on ext: GL_mods_test_stuff
use *all* for matchedTestRuns
{'VISUAL_INSPECTION': ['6262911ed7b94b000b75c5a4', '62a997d4e684f9000ab9e42b', '62a995bde684f9000ab9d588', '62024b7b987fb9000ab3c3bc', '6357c6514cc1d500277ead5f', '60be17d502982d000aa34455', '6357c6e04cc1d500277eaf5c', '62a997a7e684f9000ab9e2cf', '62822ba3ba163f000abe21e0', '6357c6954cc1d500277eae32', '61ee729b0765a4000a3a235b'], 'MODULE_IV_PS_V1': ['62667dbeba163f000a97030e', '641ac54be43ca100380fbad5', '6565f92dec7b380038b4db4f', '6419a00ce43ca10038fe531b', '655e10d35f9f88003849f6ef', '62669069ba163f000a974312', '64199f9621d98a00388d14cb', '655c8d398f13b50038861796', '6565ff1106529e0038ebb2f9', '62431a04fa33e8000acb03d8', '636e2c0f4f316a0028e9d7f3', '635fbc88ed4fc400296dae6f', '64199f0ee43ca10038fe49a9', '655e0f4d5f9f88003849f115', '641ac5aae43ca100380fbdcb', '6565f98eec7b380038b4dc83', '623af94e92dacc000aaa5ae7', '64199f30e43ca10038fe4b23', '655e0feae7aee500385bc2f0', '641ac36921d98a00389e76dc', '6565fa35ec7b380038b4dff0', '636ce0374f316a0028e5d1f8', '635fbd92ed4fc400296db24d', '64199fc4e43ca10038fe5040', '655e10afe7aee500385bc44a', '64199fe9e43ca10038fe51f6', '6565fa9406529e0038eba778', '62669082ba163f000a974399', '62822c0dba163f000abe2249', '635fbce0ed4fc400296db10e', '636ce0154f316a0028e5d0e4', '6356f29a4cc1d500277e5c1f', '633d3e77883f23000a1cdc7f', '615c72fe4b1d1c000a477fec', '616ec6e8a46c9c000a6b7e24', '615c75774b1d1c000a478030', '61f91b42d9f876000a9c6a2b', '61fbc7b3d9f876000aa0b016', '61fbc9d1d9f876000aa0b856', '61fbcb0fd9f876000aa0b9ed', '61f7b924d9f876000a9b2cf0', '61f915c5d9f876000a9c65c3', '65ca551832a2a00042e5cb91', '6176c8e454a3d2000a6e6430', '6179acd5fec53a000ac3991d', '6179aefbfec53a000ac399e6', '618c675c01df30000b5eee6e', '618e981001df30000b61193a', '61895b2a2aaf09000a0ee7a2', '618913be2aaf09000a0ebc30', '616ec87aa46c9c000a6b82a0', '6178320254a3d2000a6fc638', '618920982aaf09000a0ec029', '618e8c8c01df30000b611693', '618012210a9e0e000a0daa87', '618025f30a9e0e000a0dc86d', '618020b60a9e0e000a0dbed6', '6189aa69fd67f3000a6b2042', '61941fb8e5e765000a10120a', '618c316901df30000b5eb824', '6179b2eefec53a000ac39af3', '618c259001df30000b5eabe4', '617928e854a3d2000a701756', '617873f254a3d2000a6fdf12', '6189139b2aaf09000a0ebbfe', '618d478901df30000b6014a2', '618cee3c01df30000b5f9709', '618e916e01df30000b61181d', '618d40df01df30000b601283', '6176b4aa54a3d2000a6e5bc7', '618922ac2aaf09000a0ec0ef', '6178723c54a3d2000a6fdef9', '618d49f501df30000b6014d6', '618aef0bfd67f3000a6c926e', '61801d410a9e0e000a0dbc5d', '619780136458de000aa76868', '6179adacfec53a000ac39988', '6179acf1fec53a000ac39931', '61b266f13be1da000a920f66', '618c595801df30000b5ee981', '61801b2d0a9e0e000a0dbb78', '618ae405fd67f3000a6c8cb1', '61ba0c2d3be1da000a98159d', '61b212a23be1da000a91f60a', '61c1c4803be1da000a9e14a7', '618e914401df30000b611802', '6197b42a6458de000aa7750d', '619f7aac6d9ad9000a572319', '61c1c3ec3be1da000a9e143a', '61c1be053be1da000a9e1326', '61fc0d82d9f876000aa13e72', '61fc110fd9f876000aa1416c', '61b2671a3be1da000a920f7e', '61c1c7ea3be1da000a9e1603', '6206852b8263ed000aba09b8', '6209a9dd8263ed000abbf594', '61fc14e9d9f876000aa1431b', '620968f28263ed000abbdc97', '6209a6b98263ed000abbf52d', '62ed3545034bbb000a360a1c', '65b284776a99a10042f18f24', '641ac32de43ca100380fa74d', '6565f9ebec7b380038b4de7e', '64199f7221d98a00388d1392', '655e10705f9f88003849f59d', '633d3e79883f23000a1cdc97', '6356f2cd4cc1d500277e5c42', '64199f5021d98a00388d125d', '655e103c5f9f88003849f52e'], 'GLUE_WEIGHT': ['6295daa48ee6e5000a4daa4b', '6269092dba163f000a9b6583', '65d33d6a98cf8900429c38da', '610a62a4124ef4000aeeddbe', '65a561528aa3f200419c56cf', '628deff0eeca22000a1f8153', '61ee71da0765a4000a3a209d', '65d5cec3674d150042863850', '642ff8760ca03e003629aed2', '65c20c88427ac8004180ed91'], 'VISUAL_INSPECTION_RECEPTION': ['6295da1d8ee6e5000a4da69a', '65d5d27598cf890042bcadb5', '62443e18fa33e8000acb631c', '65ce13f698cf89004291a973', '65a12760bc46d00042ed5234', '6295d9bf8ee6e5000a4da3e6', '6295d9f28ee6e5000a4da565', '65d33cc6674d15004265c044', '65bb96849073ba0042f6034a'], 'MODULE_METROLOGY': ['62a3a84a11638c000ab56dad', '62a3a95811638c000ab56ec3', '62a3ab6d11638c000ab5728c', '626af7c2ba163f000a9ebfd6', '626afb87ba163f000a9ec448', '626a99b7ba163f000a9da006', '626a9b6eba163f000a9da269', '62a104708ee6e5000a635ea6', '65d5e417674d150042865b5c', '65d5e42a98cf890042bcc894', '6124de42b9340d000ad7f22b', '611fae8ab9340d000ad464b1', '611fb907b9340d000ad46960', '61236dfeb9340d000ad642ed', '611fc3e8b9340d000ad46bc6', '611fa9e0b9340d000ad46399', '612425c9b9340d000ad6af0e', '611fc1f5b9340d000ad46b65', '61236c89b9340d000ad63f99', '611fae10b9340d000ad46496', '611fb870b9340d000ad46915', '6156d446b62771000a7eecc5', '6124c8f4b9340d000ad7e5bc', '611fbb11b9340d000ad469d0', '611f9e79b9340d000ad46105', '6156d4deb62771000a7eee32', '611fb9c8b9340d000ad4697f', '6124b244b9340d000ad7c5c6', '611fa084b9340d000ad46191', '6156dd16b62771000a7efbf6', '615c6a3d4b1d1c000a477ba7', '6156db5cb62771000a7ef954', '65afe93a8aa3f20041b5d264', '62a3a8cd11638c000ab56e2e', '62a3aa6611638c000ab57013', '62a3a7fa11638c000ab56d66', '643001cad88aa00038a7b733', '65c3901c643d520042ed801d'], 'MODULE_BOW': ['62a3aba511638c000ab574ee', '62a3a91411638c000ab56e7b', '626ab9eeba163f000a9dd7b2', '62a104b78ee6e5000a635edf', '62d1d142e5e122000a64199d', '63db9291afa0e60036b18462', '63db91296b14440036972d6a', '63db8fde6b144400369728b9', '63db904e6b14440036972a4f', '65afe729870d9000421c61af', '62a3aa9b11638c000ab57031', '65c24876643d520042e27081'], 'MODULE_WIRE_BONDING': ['6295d9678ee6e5000a4da1b7', '61f7a941d9f876000a9b02e2'], 'MODULE_IV_AMAC': ['65ba4fff42dd1e0042fc4106', '65b281916a99a10042f188cf', '65b28256d5a3cd0042d79e57', '65b0fb7d870d90004228e008', '65b284416a99a10042f18e1f'], 'MODULE_IV_PS_BONDED': ['64637eb5931a9c0042ed898c']}
VISUAL_INSPECTION
MODULE_IV_PS_V1
GLUE_WEIGHT
VISUAL_INSPECTION_RECEPTION
MODULE_METROLOGY
MODULE_BOW
MODULE_WIRE_BONDING
MODULE_IV_AMAC
MODULE_IV_PS_BONDED
testRun loop 0: [0:100]
update testRun results: 100
testRun loop 1: [100:200]
update testRun results: 197
final testRun results: 197
===============
testRuns for GL_mods_test_stuff: 197
===============

working on ext: GL_mods_comp_stuff
skipping testRuns for GL_mods_comp_stuff
working on ext: GL_mods_stage_stuff
skipping testRuns for GL_mods_stage_stuff
working on ext: GL_mods_test_stuff
use *all* for matchedTestRuns
{'VISUAL_INSPECTION': ['6262911ed7b94b000b75c5a4', '62a997d4e684f9000ab9e42b', '62a995bde684f9000ab9d588', '62024b7b987fb9000ab3c3bc', '6357c6514cc1d500277ead5f', '60be17d502982d000aa34455', '6357c6e04cc1d500277eaf5c', '62a997a7e684f9000ab9e2cf', '62822ba3ba163f000abe21e0', '6357c6954cc1d500277eae32', '61ee729b0765a4000a3a235b'], 'MODULE_IV_PS_V1': ['62667dbeba163f000a97030e', '641ac54be43ca100380fbad5', '6565f92dec7b380038b4db4f', '6419a00ce43ca10038fe531b', '655e10d35f9f88003849f6ef', '62669069ba163f000a974312', '64199f9621d98a00388d14cb', '655c8d398f13b50038861796', '6565ff1106529e0038ebb2f9', '62431a04fa33e8000acb03d8', '636e2c0f4f316a0028e9d7f3', '635fbc88ed4fc400296dae6f', '64199f0ee43ca10038fe49a9', '655e0f4d5f9f88003849f115', '641ac5aae43ca100380fbdcb', '6565f98eec7b380038b4dc83', '623af94e92dacc000aaa5ae7', '64199f30e43ca10038fe4b23', '655e0feae7aee500385bc2f0', '641ac36921d98a00389e76dc', '6565fa35ec7b380038b4dff0', '636ce0374f316a0028e5d1f8', '635fbd92ed4fc400296db24d', '64199fc4e43ca10038fe5040', '655e10afe7aee500385bc44a', '64199fe9e43ca10038fe51f6', '6565fa9406529e0038eba778', '62669082ba163f000a974399', '62822c0dba163f000abe2249', '635fbce0ed4fc400296db10e', '636ce0154f316a0028e5d0e4', '6356f29a4cc1d500277e5c1f', '633d3e77883f23000a1cdc7f', '615c72fe4b1d1c000a477fec', '616ec6e8a46c9c000a6b7e24', '615c75774b1d1c000a478030', '61f91b42d9f876000a9c6a2b', '61fbc7b3d9f876000aa0b016', '61fbc9d1d9f876000aa0b856', '61fbcb0fd9f876000aa0b9ed', '61f7b924d9f876000a9b2cf0', '61f915c5d9f876000a9c65c3', '65ca551832a2a00042e5cb91', '6176c8e454a3d2000a6e6430', '6179acd5fec53a000ac3991d', '6179aefbfec53a000ac399e6', '618c675c01df30000b5eee6e', '618e981001df30000b61193a', '61895b2a2aaf09000a0ee7a2', '618913be2aaf09000a0ebc30', '616ec87aa46c9c000a6b82a0', '6178320254a3d2000a6fc638', '618920982aaf09000a0ec029', '618e8c8c01df30000b611693', '618012210a9e0e000a0daa87', '618025f30a9e0e000a0dc86d', '618020b60a9e0e000a0dbed6', '6189aa69fd67f3000a6b2042', '61941fb8e5e765000a10120a', '618c316901df30000b5eb824', '6179b2eefec53a000ac39af3', '618c259001df30000b5eabe4', '617928e854a3d2000a701756', '617873f254a3d2000a6fdf12', '6189139b2aaf09000a0ebbfe', '618d478901df30000b6014a2', '618cee3c01df30000b5f9709', '618e916e01df30000b61181d', '618d40df01df30000b601283', '6176b4aa54a3d2000a6e5bc7', '618922ac2aaf09000a0ec0ef', '6178723c54a3d2000a6fdef9', '618d49f501df30000b6014d6', '618aef0bfd67f3000a6c926e', '61801d410a9e0e000a0dbc5d', '619780136458de000aa76868', '6179adacfec53a000ac39988', '6179acf1fec53a000ac39931', '61b266f13be1da000a920f66', '618c595801df30000b5ee981', '61801b2d0a9e0e000a0dbb78', '618ae405fd67f3000a6c8cb1', '61ba0c2d3be1da000a98159d', '61b212a23be1da000a91f60a', '61c1c4803be1da000a9e14a7', '618e914401df30000b611802', '6197b42a6458de000aa7750d', '619f7aac6d9ad9000a572319', '61c1c3ec3be1da000a9e143a', '61c1be053be1da000a9e1326', '61fc0d82d9f876000aa13e72', '61fc110fd9f876000aa1416c', '61b2671a3be1da000a920f7e', '61c1c7ea3be1da000a9e1603', '6206852b8263ed000aba09b8', '6209a9dd8263ed000abbf594', '61fc14e9d9f876000aa1431b', '620968f28263ed000abbdc97', '6209a6b98263ed000abbf52d', '62ed3545034bbb000a360a1c', '65b284776a99a10042f18f24', '641ac32de43ca100380fa74d', '6565f9ebec7b380038b4de7e', '64199f7221d98a00388d1392', '655e10705f9f88003849f59d', '633d3e79883f23000a1cdc97', '6356f2cd4cc1d500277e5c42', '64199f5021d98a00388d125d', '655e103c5f9f88003849f52e'], 'GLUE_WEIGHT': ['6295daa48ee6e5000a4daa4b', '6269092dba163f000a9b6583', '65d33d6a98cf8900429c38da', '610a62a4124ef4000aeeddbe', '65a561528aa3f200419c56cf', '628deff0eeca22000a1f8153', '61ee71da0765a4000a3a209d', '65d5cec3674d150042863850', '642ff8760ca03e003629aed2', '65c20c88427ac8004180ed91'], 'VISUAL_INSPECTION_RECEPTION': ['6295da1d8ee6e5000a4da69a', '65d5d27598cf890042bcadb5', '62443e18fa33e8000acb631c', '65ce13f698cf89004291a973', '65a12760bc46d00042ed5234', '6295d9bf8ee6e5000a4da3e6', '6295d9f28ee6e5000a4da565', '65d33cc6674d15004265c044', '65bb96849073ba0042f6034a'], 'MODULE_METROLOGY': ['62a3a84a11638c000ab56dad', '62a3a95811638c000ab56ec3', '62a3ab6d11638c000ab5728c', '626af7c2ba163f000a9ebfd6', '626afb87ba163f000a9ec448', '626a99b7ba163f000a9da006', '626a9b6eba163f000a9da269', '62a104708ee6e5000a635ea6', '65d5e417674d150042865b5c', '65d5e42a98cf890042bcc894', '6124de42b9340d000ad7f22b', '611fae8ab9340d000ad464b1', '611fb907b9340d000ad46960', '61236dfeb9340d000ad642ed', '611fc3e8b9340d000ad46bc6', '611fa9e0b9340d000ad46399', '612425c9b9340d000ad6af0e', '611fc1f5b9340d000ad46b65', '61236c89b9340d000ad63f99', '611fae10b9340d000ad46496', '611fb870b9340d000ad46915', '6156d446b62771000a7eecc5', '6124c8f4b9340d000ad7e5bc', '611fbb11b9340d000ad469d0', '611f9e79b9340d000ad46105', '6156d4deb62771000a7eee32', '611fb9c8b9340d000ad4697f', '6124b244b9340d000ad7c5c6', '611fa084b9340d000ad46191', '6156dd16b62771000a7efbf6', '615c6a3d4b1d1c000a477ba7', '6156db5cb62771000a7ef954', '65afe93a8aa3f20041b5d264', '62a3a8cd11638c000ab56e2e', '62a3aa6611638c000ab57013', '62a3a7fa11638c000ab56d66', '643001cad88aa00038a7b733', '65c3901c643d520042ed801d'], 'MODULE_BOW': ['62a3aba511638c000ab574ee', '62a3a91411638c000ab56e7b', '626ab9eeba163f000a9dd7b2', '62a104b78ee6e5000a635edf', '62d1d142e5e122000a64199d', '63db9291afa0e60036b18462', '63db91296b14440036972d6a', '63db8fde6b144400369728b9', '63db904e6b14440036972a4f', '65afe729870d9000421c61af', '62a3aa9b11638c000ab57031', '65c24876643d520042e27081'], 'MODULE_WIRE_BONDING': ['6295d9678ee6e5000a4da1b7', '61f7a941d9f876000a9b02e2'], 'MODULE_IV_AMAC': ['65ba4fff42dd1e0042fc4106', '65b281916a99a10042f188cf', '65b28256d5a3cd0042d79e57', '65b0fb7d870d90004228e008', '65b284416a99a10042f18e1f'], 'MODULE_IV_PS_BONDED': ['64637eb5931a9c0042ed898c']}
VISUAL_INSPECTION
MODULE_IV_PS_V1
GLUE_WEIGHT
VISUAL_INSPECTION_RECEPTION
MODULE_METROLOGY
MODULE_BOW
MODULE_WIRE_BONDING
MODULE_IV_AMAC
MODULE_IV_PS_BONDED
testRun loop 0: [0:100]
update testRun results: 100
testRun loop 1: [100:200]
update testRun results: 197
final testRun results: 197
===============
testRuns for GL_mods_test_stuff: 197
===============

working on ext: GL_mods_comp_stuff
found pop:GL_mods
component loop 0: [0:100]
===============
compSummary info. for GL_mods_comp_stuff: id                             26
code                           26
serialNumber                   26
alternativeIdentifier          25
project                        26
subproject                     26
institution                    26
currentLocation                26
currentLocationTs              22
currentLocationUserIdentity    22
shipmentDestination             1
user                            0
componentType                  26
type                           26
currentStage                   26
properties                     26
children                       26
parents                         7
flags                           0
stages                         26
locations                      22
assembled                      26
state                          26
stateTs                        26
stateUserIdentity              26
stateReason                     0
dummy                          26
completed                      26
completedTs                     1
completedUserIdentity           1
completedReason                 1
trashed                        26
trashedTs                       0
trashedUserIdentity             0
trashedReason                   0
inTransit                       1
inTransitTs                     1
reworked                        8
reworkedTs                      0
reworkedUserIdentity            0
reworkedReason                  0
qaPassed                        0
qaState                         0
currentGrade                    0
currentGradeTs                  0
currentGradeUserIdentity        0
currentGradeReason              0
grades                         26
sys                             0
scripts                         0
comments                        4
tests                          26
attachments                    26
cts                            26
No.Stages                      26
No.Tests                       26
dtype: int64
===============

working on ext: GL_mods_stage_stuff
found pop:GL_mods
component loop 0: [0:100]
===============
stageSummary info. for GL_mods_stage_stuff: id                       72
code                     72
project                  72
componentType            72
serialNumber             72
alternativeIdentifier    67
stages                   72
currentLocation          72
type                     72
stage_code               72
stage_dateTime           72
dtype: int64
===============

working on ext: GL_mods_test_stuff
test loop 0: [0:100]
test loop 1: [100:200]
===============
testSummary info. for GL_mods_test_stuff: components               665
institution              665
testType                 665
date                     665
properties               645
results                  645
passed                   665
serialNumber               0
alternativeIdentifier      0
compCode                 665
compTypeCode             665
projCode                 665
typeCode                 665
stage                    665
localName                665
valueType                637
dataType                 637
paraCode                 645
paraValue                541
dtype: int64
===============

working on vis: GL_mods_comp_stuff
found ext:GL_mods_comp_stuff
getting plots...
look for MODULE
look for MODULE
===============
compSummary info. for GL_mods_comp_stuff: 1
===============

===============
stageSummary info. for GL_mods_comp_stuff: 0
===============

===============
testSummary info. for GL_mods_comp_stuff: 0
===============

working on vis: GL_mods_stage_stuff
found ext:GL_mods_stage_stuff
===============
compSummary info. for GL_mods_stage_stuff: 0
===============

getting plots...
using identifier: code
working on: 1b8780cf1e50658baec7b73b7c3b6692
e_0: 1b8780cf1e50658baec7b73b7c3b6692
working on: 22604b7f89e9b0c7bf3e5f833125d565
e_1: 22604b7f89e9b0c7bf3e5f833125d565
working on: 3080064dc57edc20372d24c50e272e67
e_2: 3080064dc57edc20372d24c50e272e67
working on: 32bbd68c2c4f2e5e9066b6705368bf9c
e_3: 32bbd68c2c4f2e5e9066b6705368bf9c
working on: 346a96026d6c23309eaf22e46afb4541
e_4: 346a96026d6c23309eaf22e46afb4541
working on: 4e6b13d6efb631a19f4583c555c0f5ac
e_5: 4e6b13d6efb631a19f4583c555c0f5ac
working on: 5a995b6591a3d2f23600e54da9dfe3ab
e_6: 5a995b6591a3d2f23600e54da9dfe3ab
working on: 5fc6f4e53119afdc9de796bd7f21b03b
e_7: 5fc6f4e53119afdc9de796bd7f21b03b
working on: 6948f574630faf41c05910098e5a47fb
e_8: 6948f574630faf41c05910098e5a47fb
working on: 720264409f633125392e5c8023ed2a2f
e_9: 720264409f633125392e5c8023ed2a2f
working on: 735ba5f127a6ed928d91c65cb7d65a54
e_10: 735ba5f127a6ed928d91c65cb7d65a54
working on: 7c1904bcdbbab894a7f811b17e0e9a34
e_11: 7c1904bcdbbab894a7f811b17e0e9a34
working on: 83ae1526ebcc24f03cb4b999943a5617
e_12: 83ae1526ebcc24f03cb4b999943a5617
working on: 8e5a4aeeb94887caaa6751de71318746
e_13: 8e5a4aeeb94887caaa6751de71318746
working on: 9c406df8fb73682253e0a21253b5a91c
e_14: 9c406df8fb73682253e0a21253b5a91c
working on: a3f7ea4d44551bb1d35e92def72c590e
e_15: a3f7ea4d44551bb1d35e92def72c590e
working on: c3ed475efc5b19ec3f8ec16246d764c7
e_16: c3ed475efc5b19ec3f8ec16246d764c7
working on: ca94b8478c30c506f755d5d61ebf5b1b
e_17: ca94b8478c30c506f755d5d61ebf5b1b
working on: cfc4a12a25f305463b2c8a47d8d03294
e_18: cfc4a12a25f305463b2c8a47d8d03294
working on: d33ee38bc264f6b937f57ec78759fddf
e_19: d33ee38bc264f6b937f57ec78759fddf
working on: d4c253f5adf456838c4c11fbff4b4e5f
e_20: d4c253f5adf456838c4c11fbff4b4e5f
working on: d6b2919a43bb1014eb467fde322dac24
e_21: d6b2919a43bb1014eb467fde322dac24
working on: da7eda6cbc5a23bbfedb59463184c0ff
e_22: da7eda6cbc5a23bbfedb59463184c0ff
working on: df1ac7170414c9de88dd6d7dfbfc2827
e_23: df1ac7170414c9de88dd6d7dfbfc2827
working on: e0122b8771fb00622ea6cedd64908d7e
e_24: e0122b8771fb00622ea6cedd64908d7e
working on: f79a46518c590d9cda2abe95c4c1caf5
e_25: f79a46518c590d9cda2abe95c4c1caf5
['1b8780cf1e50658baec7b73b7c3b6692' '22604b7f89e9b0c7bf3e5f833125d565'
 '3080064dc57edc20372d24c50e272e67' '32bbd68c2c4f2e5e9066b6705368bf9c'
 '346a96026d6c23309eaf22e46afb4541' '4e6b13d6efb631a19f4583c555c0f5ac'
 '5a995b6591a3d2f23600e54da9dfe3ab' '5fc6f4e53119afdc9de796bd7f21b03b'
 '6948f574630faf41c05910098e5a47fb' '720264409f633125392e5c8023ed2a2f'
 '735ba5f127a6ed928d91c65cb7d65a54' '7c1904bcdbbab894a7f811b17e0e9a34'
 '83ae1526ebcc24f03cb4b999943a5617' '8e5a4aeeb94887caaa6751de71318746'
 '9c406df8fb73682253e0a21253b5a91c' 'a3f7ea4d44551bb1d35e92def72c590e'
 'c3ed475efc5b19ec3f8ec16246d764c7' 'ca94b8478c30c506f755d5d61ebf5b1b'
 'cfc4a12a25f305463b2c8a47d8d03294' 'd33ee38bc264f6b937f57ec78759fddf'
 'd4c253f5adf456838c4c11fbff4b4e5f' 'd6b2919a43bb1014eb467fde322dac24'
 'da7eda6cbc5a23bbfedb59463184c0ff' 'df1ac7170414c9de88dd6d7dfbfc2827'
 'e0122b8771fb00622ea6cedd64908d7e' 'f79a46518c590d9cda2abe95c4c1caf5']
using identifier: serialNumber
##### BARREL_LS_MODULE
##### BARREL_SS_MODULE
===============
stageSummary info. for GL_mods_stage_stuff: 2
===============

===============
testSummary info. for GL_mods_stage_stuff: 0
===============

working on vis: GL_mods_test_stuff
found ext:GL_mods_test_stuff
===============
compSummary info. for GL_mods_test_stuff: 0
===============

===============
stageSummary info. for GL_mods_test_stuff: 0
===============

getting plots...
Index(['components', 'institution', 'testType', 'date', 'properties',
       'results', 'passed', 'serialNumber', 'alternativeIdentifier',
       'compCode', 'compTypeCode', 'projCode', 'typeCode', 'stage',
       'localName', 'valueType', 'dataType', 'paraCode', 'paraValue'],
      dtype='object')
working on: HV_TAB_ATTACHED
0 {'id': '603d33328d8f97000b26520d', 'code': 'VISUAL_INSPECTION_RECEPTION', 'name': 'Visual Inspection (Reception)'}
1 {'id': '60bdcd6b02982d000aa2da56', 'code': 'VISUAL_INSPECTION', 'name': 'Visual Inspection'}
2 {'id': '6107f754124ef4000aede2e5', 'code': 'MODULE_IV_PS_V1', 'name': 'Module IV with PS V1'}
3 {'id': '646d3d86931a9c0042151d94', 'code': 'ATLAS18_RECOVERY', 'name': 'Module Recovery'}
4 {'id': '64dffea90cdc7a0042370692', 'code': 'HYBRID_TESTS_SUMMARY', 'name': 'Hybrid Tests Summary'}
using identifier: compCode
working on: GLUED
0 {'id': '60308fafefb208000a6c01cf', 'code': 'GLUE_WEIGHT', 'name': 'Module glue weights'}
1 {'id': '603d33328d8f97000b26520d', 'code': 'VISUAL_INSPECTION_RECEPTION', 'name': 'Visual Inspection (Reception)'}
2 {'id': '60bdcd6b02982d000aa2da56', 'code': 'VISUAL_INSPECTION', 'name': 'Visual Inspection'}
3 {'id': '6107f754124ef4000aede2e5', 'code': 'MODULE_IV_PS_V1', 'name': 'Module IV with PS V1'}
4 {'id': '604bcabf1f7cd9000a4ff897', 'code': 'MODULE_METROLOGY', 'name': 'Module Metrology'}
5 {'id': '608971252d8dac000a3d98c3', 'code': 'MODULE_BOW', 'name': 'Module Bow'}
6 {'id': '646d3d86931a9c0042151d94', 'code': 'ATLAS18_RECOVERY', 'name': 'Module Recovery'}
7 {'id': '64dffea90cdc7a0042370692', 'code': 'HYBRID_TESTS_SUMMARY', 'name': 'Hybrid Tests Summary'}
using identifier: compCode
working on: STITCH_BONDING
0 {'id': '603d33328d8f97000b26520d', 'code': 'VISUAL_INSPECTION_RECEPTION', 'name': 'Visual Inspection (Reception)'}
1 {'id': '6107f754124ef4000aede2e5', 'code': 'MODULE_IV_PS_V1', 'name': 'Module IV with PS V1'}
2 {'id': '608971252d8dac000a3d98c3', 'code': 'MODULE_BOW', 'name': 'Module Bow'}
3 {'id': '639698af1583870036285f8c', 'code': 'MODULE_IV_AMAC', 'name': 'Module IV with AMAC'}
4 {'id': '64dffea90cdc7a0042370692', 'code': 'HYBRID_TESTS_SUMMARY', 'name': 'Hybrid Tests Summary'}
5 {'id': '6567dc8aec7b380038d4f3ae', 'code': 'HVSTABILITY', 'name': 'HV Stability test with AMAC'}
using identifier: compCode
working on: BONDED
0 {'id': '603d33328d8f97000b26520d', 'code': 'VISUAL_INSPECTION_RECEPTION', 'name': 'Visual Inspection (Reception)'}
1 {'id': '60bdcd6b02982d000aa2da56', 'code': 'VISUAL_INSPECTION', 'name': 'Visual Inspection'}
2 {'id': '610bf4a3db062f000b9496d8', 'code': 'MODULE_WIRE_BONDING', 'name': 'Module Wire Bonding'}
3 {'id': '608971252d8dac000a3d98c3', 'code': 'MODULE_BOW', 'name': 'Module Bow'}
4 {'id': '622881b280e95c000a5ee3b0', 'code': 'MODULE_IV_PS_BONDED', 'name': 'Module IV with PS after bonding'}
5 {'id': '639698af1583870036285f8c', 'code': 'MODULE_IV_AMAC', 'name': 'Module IV with AMAC'}
6 {'id': '646d3d86931a9c0042151d94', 'code': 'ATLAS18_RECOVERY', 'name': 'Module Recovery'}
7 {'id': '64dffea90cdc7a0042370692', 'code': 'HYBRID_TESTS_SUMMARY', 'name': 'Hybrid Tests Summary'}
using identifier: compCode
working on: TESTED
0 {'id': '5b1ebed32db78500058b3a63', 'code': 'STROBE_DELAY', 'name': 'Strobe Delay (Obsolete)'}
1 {'id': '5b2212523a864b0005d352eb', 'code': 'PEDESTAL_SCAN', 'name': 'Pedestal Scan (Obsolete)'}
2 {'id': '5b229721f758d70005b1d596', 'code': 'THREE_POINT_GAIN', 'name': 'Three Point Gain (Obsolete)'}
3 {'id': '5b1ebf972db78500058b3a89', 'code': 'RESPONSE_CURVE', 'name': 'Response Curve (Obsolete)'}
4 {'id': '5b1ebfbc2db78500058b3a8f', 'code': 'TRIM_RANGE', 'name': 'Trim Range (Obsolete)'}
5 {'id': '603d33328d8f97000b26520d', 'code': 'VISUAL_INSPECTION_RECEPTION', 'name': 'Visual Inspection (Reception)'}
6 {'id': '622881b280e95c000a5ee3b0', 'code': 'MODULE_IV_PS_BONDED', 'name': 'Module IV with PS after bonding'}
7 {'id': '639698af1583870036285f8c', 'code': 'MODULE_IV_AMAC', 'name': 'Module IV with AMAC'}
8 {'id': '646d3d86931a9c0042151d94', 'code': 'ATLAS18_RECOVERY', 'name': 'Module Recovery'}
9 {'id': '608971252d8dac000a3d98c3', 'code': 'MODULE_BOW', 'name': 'Module Bow'}
10 {'id': '64c99ce9bd95c80042a05a86', 'code': 'MODULE_NOISE_OCCUPANCY_SUMMARY', 'name': 'Module Noise Occupancy Summary'}
11 {'id': '64dbd1fda7a41600425ab53b', 'code': 'MODULE_PEDESTAL_TRIM_SUMMARY', 'name': 'Module Pedestal Trim Summary'}
12 {'id': '64dffea90cdc7a0042370692', 'code': 'HYBRID_TESTS_SUMMARY', 'name': 'Hybrid Tests Summary'}
13 {'id': '6567dc8aec7b380038d4f3ae', 'code': 'HVSTABILITY', 'name': 'HV Stability test with AMAC'}
using identifier: compCode
working on: FINISHED
0 {'id': '603d33328d8f97000b26520d', 'code': 'VISUAL_INSPECTION_RECEPTION', 'name': 'Visual Inspection (Reception)'}
1 {'id': '60bdcd6b02982d000aa2da56', 'code': 'VISUAL_INSPECTION', 'name': 'Visual Inspection'}
2 {'id': '622881b280e95c000a5ee3b0', 'code': 'MODULE_IV_PS_BONDED', 'name': 'Module IV with PS after bonding'}
3 {'id': '639698af1583870036285f8c', 'code': 'MODULE_IV_AMAC', 'name': 'Module IV with AMAC'}
4 {'id': '646d3d86931a9c0042151d94', 'code': 'ATLAS18_RECOVERY', 'name': 'Module Recovery'}
5 {'id': '608971252d8dac000a3d98c3', 'code': 'MODULE_BOW', 'name': 'Module Bow'}
6 {'id': '64dffea90cdc7a0042370692', 'code': 'HYBRID_TESTS_SUMMARY', 'name': 'Hybrid Tests Summary'}
7 {'id': '6567dc8aec7b380038d4f3ae', 'code': 'HVSTABILITY', 'name': 'HV Stability test with AMAC'}
using identifier: compCode
working on: AT_LOADING_SITE
0 {'id': '603d33328d8f97000b26520d', 'code': 'VISUAL_INSPECTION_RECEPTION', 'name': 'Visual Inspection (Reception)'}
1 {'id': '622881b280e95c000a5ee3b0', 'code': 'MODULE_IV_PS_BONDED', 'name': 'Module IV with PS after bonding'}
2 {'id': '639698af1583870036285f8c', 'code': 'MODULE_IV_AMAC', 'name': 'Module IV with AMAC'}
3 {'id': '646d3d86931a9c0042151d94', 'code': 'ATLAS18_RECOVERY', 'name': 'Module Recovery'}
4 {'id': '608971252d8dac000a3d98c3', 'code': 'MODULE_BOW', 'name': 'Module Bow'}
using identifier: compCode
working on: FAILED
0 {'id': '64dffea90cdc7a0042370692', 'code': 'HYBRID_TESTS_SUMMARY', 'name': 'Hybrid Tests Summary'}
1 {'id': '64c99ce9bd95c80042a05a86', 'code': 'MODULE_NOISE_OCCUPANCY_SUMMARY', 'name': 'Module Noise Occupancy Summary'}
using identifier: compCode
working on: QA
using identifier: compCode
working on: ON_CORE
0 {'id': '639698af1583870036285f8c', 'code': 'MODULE_IV_AMAC', 'name': 'Module IV with AMAC'}
1 {'id': '646d3d86931a9c0042151d94', 'code': 'ATLAS18_RECOVERY', 'name': 'Module Recovery'}
using identifier: compCode
using identifier: compCode
using identifier: compCode
===============
testSummary info. for GL_mods_test_stuff: 2
===============

working on GL_mod_stuff
found vis:GL_mods_comp_stuff
found 1 standard_comp_plots standard plots
found 0 standard_test_plots standard plots
found 0 standard_stage_plots standard plots
found 1 standard_over_plots standard plots
found vis:GL_mods_stage_stuff
found 0 standard_comp_plots standard plots
found 0 standard_test_plots standard plots
found 2 standard_stage_plots standard plots
found vis:GL_mods_test_stuff
found 0 standard_comp_plots standard plots
found 2 standard_test_plots standard plots
found 0 standard_stage_plots standard plots
temporal location: 23:50:30 @ 2024-02-21
### Standard Plots
packing: MODULE Overview Summary
in dictlist
working on text
### Current Locations
	 uploading: <class 'datapane.blocks.text.Text'>
working on plot
	 uploading: <class 'datapane.blocks.asset.Plot'>
in dictlist
working on text
### Current Stage
	 uploading: <class 'datapane.blocks.text.Text'>
working on plot
	 uploading: <class 'datapane.blocks.asset.Plot'>
in dictlist
working on text
### Summary Info.
	 uploading: <class 'datapane.blocks.text.Text'>
working on df
	 uploading: <class 'datapane.blocks.asset.DataTable'>
packing: MODULE Component Summary
in dictlist
working on text
### Current Locations
	 uploading: <class 'datapane.blocks.text.Text'>
in dictlist
working on text
BARREL_LS_MODULE
	 uploading: <class 'datapane.blocks.text.Text'>
working on plot
	 uploading: <class 'datapane.blocks.asset.Plot'>
in dictlist
working on text
### Current Stage
	 uploading: <class 'datapane.blocks.text.Text'>
in dictlist
working on text
BARREL_LS_MODULE
	 uploading: <class 'datapane.blocks.text.Text'>
working on plot
	 uploading: <class 'datapane.blocks.asset.Plot'>
in dictlist
working on text
### Summary Info.
	 uploading: <class 'datapane.blocks.text.Text'>
in dictlist
working on text
BARREL_LS_MODULE
	 uploading: <class 'datapane.blocks.text.Text'>
working on df
	 uploading: <class 'datapane.blocks.asset.DataTable'>
in dictlist
working on text
### Current Locations
	 uploading: <class 'datapane.blocks.text.Text'>
in dictlist
working on text
BARREL_SS_MODULE
	 uploading: <class 'datapane.blocks.text.Text'>
working on plot
	 uploading: <class 'datapane.blocks.asset.Plot'>
in dictlist
working on text
### Current Stage
	 uploading: <class 'datapane.blocks.text.Text'>
in dictlist
working on text
BARREL_SS_MODULE
	 uploading: <class 'datapane.blocks.text.Text'>
working on plot
	 uploading: <class 'datapane.blocks.asset.Plot'>
in dictlist
working on text
### Summary Info.
	 uploading: <class 'datapane.blocks.text.Text'>
in dictlist
working on text
BARREL_SS_MODULE
	 uploading: <class 'datapane.blocks.text.Text'>
working on df
	 uploading: <class 'datapane.blocks.asset.DataTable'>
packing: MODULE Stage Summary
in dictlist
working on text
## Stages Visited
	 uploading: <class 'datapane.blocks.text.Text'>
in dictlist
working on text
BARREL_LS_MODULE
	 uploading: <class 'datapane.blocks.text.Text'>
working on plot
	 uploading: <class 'datapane.blocks.asset.Plot'>
in dictlist
working on text
## Stages Visited
	 uploading: <class 'datapane.blocks.text.Text'>
in dictlist
working on text
BARREL_SS_MODULE
	 uploading: <class 'datapane.blocks.text.Text'>
working on plot
	 uploading: <class 'datapane.blocks.asset.Plot'>
packing: MODULE Stage Timeline
in dictlist
working on text
## Stage History
	 uploading: <class 'datapane.blocks.text.Text'>
in dictlist
working on text
BARREL_LS_MODULE
	 uploading: <class 'datapane.blocks.text.Text'>
working on timeline
	 uploading: <class 'datapane.blocks.asset.Plot'>
working on df
	 uploading: <class 'datapane.blocks.asset.DataTable'>
in dictlist
working on text
## Stage History
	 uploading: <class 'datapane.blocks.text.Text'>
in dictlist
working on text
BARREL_SS_MODULE
	 uploading: <class 'datapane.blocks.text.Text'>
working on timeline
	 uploading: <class 'datapane.blocks.asset.Plot'>
working on df
	 uploading: <class 'datapane.blocks.asset.DataTable'>
packing: MODULE Test Summary
in dictlist
working on text
## Populations Per Test
	 uploading: <class 'datapane.blocks.text.Text'>
in dictlist
working on text
BARREL_LS_MODULE
	 uploading: <class 'datapane.blocks.text.Text'>
working on plot
	 uploading: <class 'datapane.blocks.asset.Plot'>
in dictlist
working on text
## Populations Per Test
	 uploading: <class 'datapane.blocks.text.Text'>
in dictlist
working on text
BARREL_SS_MODULE
	 uploading: <class 'datapane.blocks.text.Text'>
working on plot
	 uploading: <class 'datapane.blocks.asset.Plot'>
in dictlist
working on text
## Tests Per Stage
	 uploading: <class 'datapane.blocks.text.Text'>
in dictlist
working on text
BARREL_LS_MODULE
	 uploading: <class 'datapane.blocks.text.Text'>
working on plot
	 uploading: <class 'datapane.blocks.asset.Plot'>
in dictlist
working on text
## Tests Per Stage
	 uploading: <class 'datapane.blocks.text.Text'>
in dictlist
working on text
BARREL_SS_MODULE
	 uploading: <class 'datapane.blocks.text.Text'>
working on plot
	 uploading: <class 'datapane.blocks.asset.Plot'>
packing: MODULE Test Timeline
in dictlist
working on text
## Tests Uploads
	 uploading: <class 'datapane.blocks.text.Text'>
in dictlist
working on text
BARREL_LS_MODULE
	 uploading: <class 'datapane.blocks.text.Text'>
working on timeline
	 uploading: <class 'datapane.blocks.asset.Plot'>
working on df
	 uploading: <class 'datapane.blocks.asset.DataTable'>
in dictlist
working on text
## Tests Uploads
	 uploading: <class 'datapane.blocks.text.Text'>
in dictlist
working on text
BARREL_SS_MODULE
	 uploading: <class 'datapane.blocks.text.Text'>
working on timeline
	 uploading: <class 'datapane.blocks.asset.Plot'>
working on df
	 uploading: <class 'datapane.blocks.asset.DataTable'>
### Custom Plots
### Report Spec
Saving locally.
App saved to .//code/userPages/reportMakerApp/htmls//GL_mod_stuff_local.html
