CARTRIDGE,100 g,2035305,PULL(rotate)
TESTER,Series 4000,20014814
DATE,30/11/2020
TIME,13:12:24
OPERATOR,Simon Pyatt
LOADUNIT,g
TESTSPEED,235.0,um/s
TESTLOAD,6.00,g
FALLBACK,30,%
TEST,1,1,9.794
TEST,2,1,8.223
TEST,3,1,9.964
TEST,4,1,9.447
TEST,5,1,8.993
TEST,6,1,9.584
TEST,7,1,9.243
TEST,8,1,8.825
TEST,9,1,10.212
TEST,10,1,9.777
