TESTER,4000Series,20121819
DATE,17/09/20,
TIME,11:31:12,
TESTGROUP,Destructive Wire Pull,
Batch,WEDGE-E,
Product,MACHINE_QA,
Bonder,hk2,
USERFIELD4,,
USERFIELD5,,
USERFIELD6,,
USERFIELD7,,
USERFIELD8,,
USERFIELD9,,
USERFIELD10,,
OPERATOR,Forest,
SAMPLE,160,
LOADUNIT,g,
CARTRIDGE,25 g,20086918
TESTTYPE,Destruct,
TESTSPEED,557,um/s
TESTLOAD,25,g
MAXTESTLOAD,0,g
LOOPLIMIT,0,um
FALLBACK,90,%
LOWERSPECLIMIT,0,g
UPPERSPECLIMIT,0,g
LOWERCONTROLLIMIT,0,g
UPPERCONTROLLIMIT,0,g
1,1,11.879
2,3,11.746
3,1,11.633
4,3,11.769
5,1,11.807
6,1,11.803
7,1,11.397
8,1,11.832
9,2,11.481
10,1,11.681
11,1,11.728
12,1,11.965
13,1,11.591
14,1,11.731
15,1,11.639
16,1,11.439
17,1,11.553
18,2,11.519
19,1,11.747
20,1,11.641
21,1,11.405
22,1,11.791
23,2,11.69
24,1,11.773
25,3,11.856
26,2,11.797
27,2,11.24
28,3,11.856
29,3,11.884
30,2,11.643
31,3,11.976
32,3,11.857
33,2,11.866
34,1,11.776
35,3,11.78
36,1,11.898
37,1,11.961
38,2,11.717
39,3,11.765
40,2,11.834
41,3,11.937
42,3,11.734
43,3,11.92
44,2,11.481
45,2,11.824
46,1,11.509
47,1,11.767
48,1,11.618
49,1,11.831
50,3,11.835
51,1,11.563
52,1,11.357
53,1,11.599
54,1,11.589
55,1,11.28
56,1,11.64
57,1,11.687
58,1,11.794
59,2,11.466
60,1,11.737
61,3,12.036
62,1,11.796
63,3,11.968
64,1,11.796
65,2,11.859
66,1,11.845
67,1,11.768
68,2,11.925
69,2,11.073
70,2,11.618
71,2,11.772
72,1,11.908
73,2,11.401
74,1,11.744
75,2,11.088
76,2,11.888
77,2,11.488
78,1,11.637
79,1,11.812
80,3,11.995
81,1,11.573
82,2,11.111
83,1,11.485
84,2,11.611
85,2,11.61
86,2,11.269
87,1,11.463
88,2,11.715
89,2,10.953
90,2,11.317
91,2,11.574
92,1,11.621
93,1,11.457
94,1,12.028
95,1,11.833
96,2,11.546
97,2,11.723
98,1,11.57
99,1,11.708
100,3,11.778
