Unnamed: 0,component,componentType,stage,testType, date,runNumber,property1_key,property1_value,property2_key,property2_value,property3_key,property3_value,property4_key,property4_value,passed,problems,result1_key,result1_value,result2_key,result2_value,result3_key,result3_value
0,20UPGPQ0025184,PCB,PCB_QC,HV_TEST,17/12/2021,1,OPERATOR,PeterVenkman,INSTRUMENT,Protonpack,TEMPERATURE,22,HUMIDITY,44,TRUE,FALSE,,,,,LEAKAGE,0.5
1,20UPGPQ0025184,PCB,PCB_QC,NTC_VERIFICATION,18/12/2021,,OPERATOR,RayStantz,INSTRUMENT,Protonpack,,,,,TRUE,TRUE,NTC_TEMP,[25.0],NTC_VOLT,[0.4],,
2,20UPGPQ0025182,PCB,PCB_QC,LV_RAIL_TEST,19/12/2021,3,OPERATOR,EgonSpengler,INSTRUMENT,Protonpack,,,,,FALSE,FALSE,VIN_DROP,0.5,GND_DROP,0.3,,
3,20UPGPQ0025181,PCB,PCB_QC,HV_TEST,17/12/2021,,OPERATOR,WinstonZeddemore,INSTRUMENT,Protonpack,TEMPERATURE,23,HUMIDITY,45,FALSE,TRUE,,,,,LEAKAGE,0.7