compType,stage,stageOrder,altStage,testOrder,testType
20USCAB0123456,FAILED_CHIP,1,False,1,PULL_TEST
ABC,ON_WAFER,1,False,1,POWER_TEST
ABC,ON_WAFER,1,False,2,EMUX_TEST
ABC,ON_WAFER,1,False,3,IMUX_TEST
ABC,ON_WAFER,1,False,4,DAC_TEST
ABC,ON_WAFER,1,False,5,LDO_TEST
ABC,ON_WAFER,1,False,6,TV_TEST
ABC,ON_WAFER,1,False,7,NTV_TEST
ABC,ON_WAFER,1,False,8,GAIN_TEST
ABC,PROBING,2,True,1,DAC_TEST
ABC,PROBING,2,True,2,EMUX_TEST
ABC,PROBING,2,True,3,GAIN_TEST
ABC,PROBING,2,True,4,IMUX_TEST
ABC,PROBING,2,True,5,LDO_TEST
ABC,PROBING,2,True,6,POWER_TEST
ABC,PROBING,2,True,7,TV_TEST
ABC,BONDED,3,True,1,PULL_TEST
ABC,ON_SCB,9,True,1,FAST_TID
ABC,BOND_PULLING,10,True,1,PULL_TEST
ABC,CATEGORY_A,11,True,1,VISUAL_INSPECTION
ABC_GELPACK,PRE_IRRADIATED,4,False,1,VISUAL_INSPECTION
ABC_TEST,BONDED,1,False,1,DAC_TEST
ABC_TEST,BONDED,1,False,2,EMUX_TEST
ABC_TEST,BONDED,1,False,3,IMUX_TEST
ABC_TEST,BONDED,1,False,4,GAIN_TEST
ABC_TEST,BONDED,1,False,5,LDO_TEST
ABC_TEST,BONDED,1,False,6,TV_TEST
ABC_TEST,BONDED,1,False,7,POWER_TEST
ABC_WAFER,UNTESTED,1,False,1,FOUNDRY_DATA
ABC_WAFER,DICED,7,False,1,ASIC_SIZE
ABC_WAFER,DICED,7,False,2,WAFER_THICKNESS
ABC_WAFER,DICED,7,False,3,PULL_TEST
AMAC,ON_WAFER,1,False,1,NTCX_SW_1_FUNCTION
AMAC,PROBED_AT_UPENN,1,False,1,NTCX_SW_1_FUNCTION_TEST
AMAC,ON_WAFER,1,False,2,HVRET_3_RAMP_FUNCTION
AMAC,PROBED_AT_UPENN,1,False,2,HVRET_3_RAMP_FUNCTION
AMAC,ON_WAFER,1,False,3,READOUT_NTCPB_SW_6_FUNCTION
AMAC,PROBED_AT_UPENN,1,False,3,VADC_HREFY_RAMP_FUNCTION
AMAC,ON_WAFER,1,False,4,VADC_HREFY_RAMP_FUNCTION
AMAC,PROBED_AT_UPENN,1,False,4,HV0FREQ_OSCSETTING_0_RAMP_FUNCTION
AMAC,ON_WAFER,1,False,5,READOUT_NTCX_SW_0_FUNCTION
AMAC,PROBED_AT_UPENN,1,False,5,HV1FREQ_OSCSETTING_2_RAMP_FUNCTION
AMAC,ON_WAFER,1,False,6,HV0FREQ_OSCSETTING_0_RAMP_FUNCTION
AMAC,PROBED_AT_UPENN,1,False,6,VADC_HREFX_RAMP_FUNCTION
AMAC,ON_WAFER,1,False,7,READOUT_NTCY_SW_4_FUNCTION
AMAC,PROBED_AT_UPENN,1,False,7,USEFUL_PARAMETERS
AMAC,ON_WAFER,1,False,8,HV1FREQ_OSCSETTING_2_RAMP_FUNCTION
AMAC,PROBED_AT_UPENN,1,False,8,NTCPB_SW_4_FUNCTION
AMAC,ON_WAFER,1,False,9,VADC_HREFX_RAMP_FUNCTION
AMAC,PROBED_AT_UPENN,1,False,9,NTCPB_SW_2_FUNCTION
AMAC,ON_WAFER,1,False,10,USEFUL_PARAMETERS
AMAC,PROBED_AT_UPENN,1,False,10,AMBG_15_RAMPGAIN_FUNCTION_AMBGSWITCH_1_RAMPGAINSWITCH_1
AMAC,ON_WAFER,1,False,11,READOUT_HVRET_5_RAMP_FUNCTION
AMAC,PROBED_AT_UPENN,1,False,11,AMBG_15_RAMPGAIN_FUNCTION_AMBGSWITCH_1_RAMPGAINSWITCH_0
AMAC,ON_WAFER,1,False,12,NTCPB_SW_2_FUNCTION
AMAC,PROBED_AT_UPENN,1,False,12,RO_ENDEAVOUR_RELIABILITY_FUNCTIONS
AMAC,ON_WAFER,1,False,13,AMBG_15_RAMPGAIN_FUNCTION_AMBGSWITCH_1_RAMPGAINSWITCH_1
AMAC,PROBED_AT_UPENN,1,False,13,HV3FREQ_OSCSETTING_3_RAMP_FUNCTION
AMAC,ON_WAFER,1,False,14,AMBG_15_RAMPGAIN_FUNCTION_AMBGSWITCH_1_RAMPGAINSWITCH_0
AMAC,PROBED_AT_UPENN,1,False,14,AMBG_RAMP_FUNCTION_AMBGSWITCH_1
AMAC,ON_WAFER,1,False,15,RO_ENDEAVOUR_RELIABILITY_FUNCTIONS
AMAC,PROBED_AT_UPENN,1,False,15,AMBG_RAMP_FUNCTION_AMBGSWITCH_0
AMAC,ON_WAFER,1,False,16,HV3FREQ_OSCSETTING_3_RAMP_FUNCTION
AMAC,PROBED_AT_UPENN,1,False,16,AMBG_10_RAMPGAIN_FUNCTION_AMBGSWITCH_0_RAMPGAINSWITCH_1
AMAC,ON_WAFER,1,False,17,AMBG_RAMP_FUNCTION_AMBGSWITCH_1
AMAC,PROBED_AT_UPENN,1,False,17,AMBG_10_RAMPGAIN_FUNCTION_AMBGSWITCH_0_RAMPGAINSWITCH_0
AMAC,ON_WAFER,1,False,18,AMBG_RAMP_FUNCTION_AMBGSWITCH_0
AMAC,PROBED_AT_UPENN,1,False,18,HV1FREQ_OSCSETTING_0_RAMP_FUNCTION
AMAC,ON_WAFER,1,False,19,AMBG_10_RAMPGAIN_FUNCTION_AMBGSWITCH_0_RAMPGAINSWITCH_1
AMAC,PROBED_AT_UPENN,1,False,19,AMBG_14_RAMPGAIN_FUNCTION_AMBGSWITCH_1_RAMPGAINSWITCH_0
AMAC,ON_WAFER,1,False,20,AMBG_10_RAMPGAIN_FUNCTION_AMBGSWITCH_0_RAMPGAINSWITCH_0
AMAC,PROBED_AT_UPENN,1,False,20,AMBG_14_RAMPGAIN_FUNCTION_AMBGSWITCH_1_RAMPGAINSWITCH_1
AMAC,ON_WAFER,1,False,21,HV1FREQ_OSCSETTING_0_RAMP_FUNCTION
AMAC,PROBED_AT_UPENN,1,False,21,VDDBG_RAMP_FUNCTION_VDDBGSWITCH_1
AMAC,ON_WAFER,1,False,22,AMBG_14_RAMPGAIN_FUNCTION_AMBGSWITCH_1_RAMPGAINSWITCH_0
AMAC,PROBED_AT_UPENN,1,False,22,VDDBG_RAMP_FUNCTION_VDDBGSWITCH_0
AMAC,ON_WAFER,1,False,23,AMBG_14_RAMPGAIN_FUNCTION_AMBGSWITCH_1_RAMPGAINSWITCH_1
AMAC,PROBED_AT_UPENN,1,False,23,HVRET_1_RAMP_FUNCTION
AMAC,ON_WAFER,1,False,24,READOUT_VADC_HREFX_RAMP_FUNCTION
AMAC,PROBED_AT_UPENN,1,False,24,AMBG_2_RAMPGAIN_FUNCTION_AMBGSWITCH_0_RAMPGAINSWITCH_1
AMAC,ON_WAFER,1,False,25,VDDBG_RAMP_FUNCTION_VDDBGSWITCH_1
AMAC,PROBED_AT_UPENN,1,False,25,AMBG_2_RAMPGAIN_FUNCTION_AMBGSWITCH_0_RAMPGAINSWITCH_0
AMAC,ON_WAFER,1,False,26,VDDBG_RAMP_FUNCTION_VDDBGSWITCH_0
AMAC,PROBED_AT_UPENN,1,False,26,HV0FREQ_OSCSETTING_3_RAMP_FUNCTION
AMAC,ON_WAFER,1,False,27,HVRET_1_RAMP_FUNCTION
AMAC,PROBED_AT_UPENN,1,False,27,HV2FREQ_OSCSETTING_2_RAMP_FUNCTION
AMAC,ON_WAFER,1,False,28,AMBG_2_RAMPGAIN_FUNCTION_AMBGSWITCH_0_RAMPGAINSWITCH_1
AMAC,PROBED_AT_UPENN,1,False,28,HV2FREQ_OSCSETTING_1_RAMP_FUNCTION
AMAC,ON_WAFER,1,False,29,AMBG_2_RAMPGAIN_FUNCTION_AMBGSWITCH_0_RAMPGAINSWITCH_0
AMAC,PROBED_AT_UPENN,1,False,29,AMBG_15_RAMPGAIN_FUNCTION_AMBGSWITCH_0_RAMPGAINSWITCH_1
AMAC,ON_WAFER,1,False,30,READOUT_NTCX_SW_4_FUNCTION
AMAC,PROBED_AT_UPENN,1,False,30,NTCY_SW_0_FUNCTION
AMAC,ON_WAFER,1,False,31,HV0FREQ_OSCSETTING_3_RAMP_FUNCTION
AMAC,PROBED_AT_UPENN,1,False,31,LOGIC_FUNCTIONS
AMAC,ON_WAFER,1,False,32,READOUT_HVRET_1_RAMP_FUNCTION
AMAC,PROBED_AT_UPENN,1,False,32,AMBG_2_RAMPGAIN_FUNCTION_AMBGSWITCH_1_RAMPGAINSWITCH_0
AMAC,ON_WAFER,1,False,33,HV2FREQ_OSCSETTING_2_RAMP_FUNCTION
AMAC,PROBED_AT_UPENN,1,False,33,AMBG_2_RAMPGAIN_FUNCTION_AMBGSWITCH_1_RAMPGAINSWITCH_1
AMAC,ON_WAFER,1,False,34,HV2FREQ_OSCSETTING_1_RAMP_FUNCTION
AMAC,PROBED_AT_UPENN,1,False,34,VADC_CAL_RAMP_FUNCTION
AMAC,ON_WAFER,1,False,35,READOUT_NTCY_SW_6_FUNCTION
AMAC,PROBED_AT_UPENN,1,False,35,AMBG_7_RAMPGAIN_FUNCTION_AMBGSWITCH_0_RAMPGAINSWITCH_0
AMAC,ON_WAFER,1,False,36,READOUT_NTCX_SW_2_FUNCTION
AMAC,PROBED_AT_UPENN,1,False,36,AMBG_7_RAMPGAIN_FUNCTION_AMBGSWITCH_0_RAMPGAINSWITCH_1
AMAC,ON_WAFER,1,False,37,AMBG_15_RAMPGAIN_FUNCTION_AMBGSWITCH_0_RAMPGAINSWITCH_1
AMAC,PROBED_AT_UPENN,1,False,37,AMBG_13_RAMPGAIN_FUNCTION_AMBGSWITCH_0_RAMPGAINSWITCH_0
AMAC,ON_WAFER,1,False,38,READOUT_VADC_HREFY_RAMP_FUNCTION
AMAC,PROBED_AT_UPENN,1,False,38,AMBG_13_RAMPGAIN_FUNCTION_AMBGSWITCH_0_RAMPGAINSWITCH_1
AMAC,ON_WAFER,1,False,39,NTCY_SW_0_FUNCTION
AMAC,PROBED_AT_UPENN,1,False,39,AMBG_6_RAMPGAIN_FUNCTION_AMBGSWITCH_0_RAMPGAINSWITCH_1
AMAC,ON_WAFER,1,False,40,LOGIC_FUNCTIONS
AMAC,PROBED_AT_UPENN,1,False,40,AMBG_6_RAMPGAIN_FUNCTION_AMBGSWITCH_0_RAMPGAINSWITCH_0
AMAC,ON_WAFER,1,False,41,AMBG_2_RAMPGAIN_FUNCTION_AMBGSWITCH_1_RAMPGAINSWITCH_0
AMAC,PROBED_AT_UPENN,1,False,41,AMBG_10_RAMPGAIN_FUNCTION_AMBGSWITCH_1_RAMPGAINSWITCH_0
AMAC,ON_WAFER,1,False,42,AMBG_2_RAMPGAIN_FUNCTION_AMBGSWITCH_1_RAMPGAINSWITCH_1
AMAC,PROBED_AT_UPENN,1,False,42,AMBG_10_RAMPGAIN_FUNCTION_AMBGSWITCH_1_RAMPGAINSWITCH_1
AMAC,ON_WAFER,1,False,43,VADC_CAL_RAMP_FUNCTION
AMAC,PROBED_AT_UPENN,1,False,43,AMAC_DAC_SHUNTY_RAMP_FUNCTION
AMAC,ON_WAFER,1,False,44,AMBG_7_RAMPGAIN_FUNCTION_AMBGSWITCH_0_RAMPGAINSWITCH_0
AMAC,PROBED_AT_UPENN,1,False,44,HVRET_5_RAMP_FUNCTION
AMAC,ON_WAFER,1,False,45,AMBG_7_RAMPGAIN_FUNCTION_AMBGSWITCH_0_RAMPGAINSWITCH_1
AMAC,PROBED_AT_UPENN,1,False,45,HVRET_0_RAMP_FUNCTION
AMAC,ON_WAFER,1,False,46,AMBG_4_RAMPGAIN_FUNCTION_AMBGSWITCH_0_RAMPGAINSWITCH_1
AMAC,PROBED_AT_UPENN,1,False,46,NTCY_SW_4_FUNCTION
AMAC,ON_WAFER,1,False,47,AMBG_13_RAMPGAIN_FUNCTION_AMBGSWITCH_0_RAMPGAINSWITCH_0
AMAC,PROBED_AT_UPENN,1,False,47,HV3FREQ_OSCSETTING_1_RAMP_FUNCTION
AMAC,ON_WAFER,1,False,48,AMBG_13_RAMPGAIN_FUNCTION_AMBGSWITCH_0_RAMPGAINSWITCH_1
AMAC,PROBED_AT_UPENN,1,False,48,RING_OSCILLATOR_RAMP_FUNCTION
AMAC,ON_WAFER,1,False,49,AMBG_6_RAMPGAIN_FUNCTION_AMBGSWITCH_0_RAMPGAINSWITCH_1
AMAC,PROBED_AT_UPENN,1,False,49,NTCY_SW_1_FUNCTION
AMAC,ON_WAFER,1,False,50,AMBG_6_RAMPGAIN_FUNCTION_AMBGSWITCH_0_RAMPGAINSWITCH_0
AMAC,PROBED_AT_UPENN,1,False,50,AMBG_5_RAMPGAIN_FUNCTION_AMBGSWITCH_1_RAMPGAINSWITCH_1
AMAC,ON_WAFER,1,False,51,AMBG_10_RAMPGAIN_FUNCTION_AMBGSWITCH_1_RAMPGAINSWITCH_0
AMAC,PROBED_AT_UPENN,1,False,51,AMBG_5_RAMPGAIN_FUNCTION_AMBGSWITCH_1_RAMPGAINSWITCH_0
AMAC,ON_WAFER,1,False,52,AMBG_10_RAMPGAIN_FUNCTION_AMBGSWITCH_1_RAMPGAINSWITCH_1
AMAC,PROBED_AT_UPENN,1,False,52,NTCX_SW_0_FUNCTION
AMAC,ON_WAFER,1,False,53,AMAC_DAC_SHUNTY_RAMP_FUNCTION
AMAC,PROBED_AT_UPENN,1,False,53,AMBG_8_RAMPGAIN_FUNCTION_AMBGSWITCH_1_RAMPGAINSWITCH_0
AMAC,ON_WAFER,1,False,54,HVRET_5_RAMP_FUNCTION
AMAC,PROBED_AT_UPENN,1,False,54,AMBG_8_RAMPGAIN_FUNCTION_AMBGSWITCH_1_RAMPGAINSWITCH_1
AMAC,ON_WAFER,1,False,55,HVRET_0_RAMP_FUNCTION
AMAC,PROBED_AT_UPENN,1,False,55,AMBG_3_RAMPGAIN_FUNCTION_AMBGSWITCH_1_RAMPGAINSWITCH_1
AMAC,ON_WAFER,1,False,56,NTCY_SW_4_FUNCTION
AMAC,PROBED_AT_UPENN,1,False,56,AMBG_3_RAMPGAIN_FUNCTION_AMBGSWITCH_1_RAMPGAINSWITCH_0
AMAC,ON_WAFER,1,False,57,HV3FREQ_OSCSETTING_1_RAMP_FUNCTION
AMAC,PROBED_AT_UPENN,1,False,57,AMBG_3_RAMPGAIN_FUNCTION_AMBGSWITCH_0_RAMPGAINSWITCH_0
AMAC,ON_WAFER,1,False,58,RING_OSCILLATOR_RAMP_FUNCTION
AMAC,PROBED_AT_UPENN,1,False,58,AMBG_3_RAMPGAIN_FUNCTION_AMBGSWITCH_0_RAMPGAINSWITCH_1
AMAC,ON_WAFER,1,False,59,NTCY_SW_1_FUNCTION
AMAC,PROBED_AT_UPENN,1,False,59,NTCY_SW_2_FUNCTION
AMAC,ON_WAFER,1,False,60,AMBG_5_RAMPGAIN_FUNCTION_AMBGSWITCH_1_RAMPGAINSWITCH_1
AMAC,PROBED_AT_UPENN,1,False,60,AMBG_1_RAMPGAIN_FUNCTION_AMBGSWITCH_1_RAMPGAINSWITCH_1
AMAC,ON_WAFER,1,False,61,AMBG_5_RAMPGAIN_FUNCTION_AMBGSWITCH_1_RAMPGAINSWITCH_0
AMAC,PROBED_AT_UPENN,1,False,61,AMBG_1_RAMPGAIN_FUNCTION_AMBGSWITCH_1_RAMPGAINSWITCH_0
AMAC,ON_WAFER,1,False,62,NTCX_SW_0_FUNCTION
AMAC,PROBED_AT_UPENN,1,False,62,AMBG_1_RAMPGAIN_FUNCTION_AMBGSWITCH_0_RAMPGAINSWITCH_0
AMAC,ON_WAFER,1,False,63,AMBG_8_RAMPGAIN_FUNCTION_AMBGSWITCH_1_RAMPGAINSWITCH_0
AMAC,PROBED_AT_UPENN,1,False,63,AMBG_1_RAMPGAIN_FUNCTION_AMBGSWITCH_0_RAMPGAINSWITCH_1
AMAC,ON_WAFER,1,False,64,AMBG_8_RAMPGAIN_FUNCTION_AMBGSWITCH_1_RAMPGAINSWITCH_1
AMAC,PROBED_AT_UPENN,1,False,64,AMBG_4_RAMPGAIN_FUNCTION_AMBGSWITCH_0_RAMPGAINSWITCH_1
AMAC,ON_WAFER,1,False,65,AMBG_3_RAMPGAIN_FUNCTION_AMBGSWITCH_1_RAMPGAINSWITCH_1
AMAC,PROBED_AT_UPENN,1,False,65,AMBG_4_RAMPGAIN_FUNCTION_AMBGSWITCH_0_RAMPGAINSWITCH_0
AMAC,ON_WAFER,1,False,66,AMBG_3_RAMPGAIN_FUNCTION_AMBGSWITCH_1_RAMPGAINSWITCH_0
AMAC,PROBED_AT_UPENN,1,False,66,HV2FREQ_OSCSETTING_0_RAMP_FUNCTION
AMAC,ON_WAFER,1,False,67,AMBG_3_RAMPGAIN_FUNCTION_AMBGSWITCH_0_RAMPGAINSWITCH_0
AMAC,PROBED_AT_UPENN,1,False,67,AMBG_8_RAMPGAIN_FUNCTION_AMBGSWITCH_0_RAMPGAINSWITCH_1
AMAC,ON_WAFER,1,False,68,AMBG_3_RAMPGAIN_FUNCTION_AMBGSWITCH_0_RAMPGAINSWITCH_1
AMAC,PROBED_AT_UPENN,1,False,68,AMBG_8_RAMPGAIN_FUNCTION_AMBGSWITCH_0_RAMPGAINSWITCH_0
AMAC,ON_WAFER,1,False,69,NTCY_SW_2_FUNCTION
AMAC,PROBED_AT_UPENN,1,False,69,NTCX_SW_2_FUNCTION
AMAC,ON_WAFER,1,False,70,AMBG_1_RAMPGAIN_FUNCTION_AMBGSWITCH_1_RAMPGAINSWITCH_1
AMAC,PROBED_AT_UPENN,1,False,70,AMBG_15_RAMPGAIN_FUNCTION_AMBGSWITCH_0_RAMPGAINSWITCH_0
AMAC,ON_WAFER,1,False,71,AMBG_1_RAMPGAIN_FUNCTION_AMBGSWITCH_1_RAMPGAINSWITCH_0
AMAC,PROBED_AT_UPENN,1,False,71,NTCX_SW_4_FUNCTION
AMAC,ON_WAFER,1,False,72,AMBG_1_RAMPGAIN_FUNCTION_AMBGSWITCH_0_RAMPGAINSWITCH_0
AMAC,PROBED_AT_UPENN,1,False,72,NTCPB_SW_0_FUNCTION
AMAC,ON_WAFER,1,False,73,AMBG_1_RAMPGAIN_FUNCTION_AMBGSWITCH_0_RAMPGAINSWITCH_1
AMAC,PROBED_AT_UPENN,1,False,73,AMAC_DAC_INTERNAL_SHUNTY_RAMP_FUNCTION
AMAC,ON_WAFER,1,False,74,READOUT_VADC_PTAT_RAMP_FUNCTION
AMAC,PROBED_AT_UPENN,1,False,74,NTCPB_SW_1_FUNCTION
AMAC,ON_WAFER,1,False,75,AMBG_4_RAMPGAIN_FUNCTION_AMBGSWITCH_0_RAMPGAINSWITCH_0
AMAC,PROBED_AT_UPENN,1,False,75,HV3FREQ_OSCSETTING_0_RAMP_FUNCTION
AMAC,ON_WAFER,1,False,76,HV2FREQ_OSCSETTING_0_RAMP_FUNCTION
AMAC,PROBED_AT_UPENN,1,False,76,AMAC_DAC_INTERNAL_CALY_RAMP_FUNCTION
AMAC,ON_WAFER,1,False,77,AMBG_8_RAMPGAIN_FUNCTION_AMBGSWITCH_0_RAMPGAINSWITCH_1
AMAC,PROBED_AT_UPENN,1,False,77,VADC_PTAT_RAMP_FUNCTION
AMAC,ON_WAFER,1,False,78,AMBG_8_RAMPGAIN_FUNCTION_AMBGSWITCH_0_RAMPGAINSWITCH_0
AMAC,PROBED_AT_UPENN,1,False,78,AMBG_0_RAMPGAIN_FUNCTION_AMBGSWITCH_1_RAMPGAINSWITCH_0
AMAC,ON_WAFER,1,False,79,NTCX_SW_2_FUNCTION
AMAC,PROBED_AT_UPENN,1,False,79,AMBG_0_RAMPGAIN_FUNCTION_AMBGSWITCH_1_RAMPGAINSWITCH_1
AMAC,ON_WAFER,1,False,80,READOUT_NTCY_SW_0_FUNCTION
AMAC,PROBED_AT_UPENN,1,False,80,AMBG_0_RAMPGAIN_FUNCTION_AMBGSWITCH_0_RAMPGAINSWITCH_1
AMAC,ON_WAFER,1,False,81,NTCX_SW_4_FUNCTION
AMAC,PROBED_AT_UPENN,1,False,81,AMBG_0_RAMPGAIN_FUNCTION_AMBGSWITCH_0_RAMPGAINSWITCH_0
AMAC,ON_WAFER,1,False,82,NTCPB_SW_0_FUNCTION
AMAC,PROBED_AT_UPENN,1,False,82,AMBG_6_RAMPGAIN_FUNCTION_AMBGSWITCH_1_RAMPGAINSWITCH_0
AMAC,ON_WAFER,1,False,83,READOUT_NTCPB_SW_2_FUNCTION
AMAC,PROBED_AT_UPENN,1,False,83,AMBG_6_RAMPGAIN_FUNCTION_AMBGSWITCH_1_RAMPGAINSWITCH_1
AMAC,ON_WAFER,1,False,84,AMBG_15_RAMPGAIN_FUNCTION_AMBGSWITCH_0_RAMPGAINSWITCH_0
AMAC,PROBED_AT_UPENN,1,False,84,HV3FREQ_OSCSETTING_2_RAMP_FUNCTION
AMAC,ON_WAFER,1,False,85,AMAC_DAC_INTERNAL_SHUNTY_RAMP_FUNCTION
AMAC,PROBED_AT_UPENN,1,False,85,HV0FREQ_OSCSETTING_2_RAMP_FUNCTION
AMAC,ON_WAFER,1,False,86,NTCPB_SW_1_FUNCTION
AMAC,PROBED_AT_UPENN,1,False,86,AMBG_12_RAMPGAIN_FUNCTION_AMBGSWITCH_0_RAMPGAINSWITCH_1
AMAC,ON_WAFER,1,False,87,HV3FREQ_OSCSETTING_0_RAMP_FUNCTION
AMAC,ON_WAFER,1,False,88,AMAC_DAC_INTERNAL_CALY_RAMP_FUNCTION
AMAC,PROBED_AT_UPENN,1,False,88,AMBG_7_RAMPGAIN_FUNCTION_AMBGSWITCH_1_RAMPGAINSWITCH_1
AMAC,ON_WAFER,1,False,89,READOUT_NTCY_SW_1_FUNCTION
AMAC,PROBED_AT_UPENN,1,False,89,AMBG_7_RAMPGAIN_FUNCTION_AMBGSWITCH_1_RAMPGAINSWITCH_0
AMAC,ON_WAFER,1,False,90,VADC_PTAT_RAMP_FUNCTION
AMAC,PROBED_AT_UPENN,1,False,90,AMAC_DAC_CALX_RAMP_FUNCTION
AMAC,ON_WAFER,1,False,91,AMBG_0_RAMPGAIN_FUNCTION_AMBGSWITCH_1_RAMPGAINSWITCH_0
AMAC,PROBED_AT_UPENN,1,False,91,AMAC_DAC_INTERNAL_CALX_RAMP_FUNCTION
AMAC,ON_WAFER,1,False,92,AMBG_0_RAMPGAIN_FUNCTION_AMBGSWITCH_1_RAMPGAINSWITCH_1
AMAC,PROBED_AT_UPENN,1,False,92,HVRET_2_RAMP_FUNCTION
AMAC,ON_WAFER,1,False,93,READOUT_NTCY_SW_2_FUNCTION
AMAC,PROBED_AT_UPENN,1,False,93,HVRET_4_RAMP_FUNCTION
AMAC,ON_WAFER,1,False,94,AMBG_0_RAMPGAIN_FUNCTION_AMBGSWITCH_0_RAMPGAINSWITCH_0
AMAC,PROBED_AT_UPENN,1,False,94,AMBG_14_RAMPGAIN_FUNCTION_AMBGSWITCH_0_RAMPGAINSWITCH_1
AMAC,ON_WAFER,1,False,95,AMBG_6_RAMPGAIN_FUNCTION_AMBGSWITCH_1_RAMPGAINSWITCH_0
AMAC,PROBED_AT_UPENN,1,False,95,AMBG_14_RAMPGAIN_FUNCTION_AMBGSWITCH_0_RAMPGAINSWITCH_0
AMAC,ON_WAFER,1,False,96,AMBG_6_RAMPGAIN_FUNCTION_AMBGSWITCH_1_RAMPGAINSWITCH_1
AMAC,PROBED_AT_UPENN,1,False,96,NTCY_SW_6_FUNCTION
AMAC,ON_WAFER,1,False,97,HV3FREQ_OSCSETTING_2_RAMP_FUNCTION
AMAC,PROBED_AT_UPENN,1,False,97,AMBG_9_RAMPGAIN_FUNCTION_AMBGSWITCH_0_RAMPGAINSWITCH_0
AMAC,ON_WAFER,1,False,98,HV0FREQ_OSCSETTING_2_RAMP_FUNCTION
AMAC,PROBED_AT_UPENN,1,False,98,AMBG_9_RAMPGAIN_FUNCTION_AMBGSWITCH_0_RAMPGAINSWITCH_1
AMAC,ON_WAFER,1,False,99,AMBG_12_RAMPGAIN_FUNCTION_AMBGSWITCH_0_RAMPGAINSWITCH_1
AMAC,PROBED_AT_UPENN,1,False,99,NTCPB_SW_6_FUNCTION
AMAC,ON_WAFER,1,False,100,AMBG_12_RAMPGAIN_FUNCTION_AMBGSWITCH_0_RAMPGAINSWITCH_0
AMAC,PROBED_AT_UPENN,1,False,100,HV1FREQ_OSCSETTING_3_RAMP_FUNCTION
AMAC,ON_WAFER,1,False,101,AMBG_7_RAMPGAIN_FUNCTION_AMBGSWITCH_1_RAMPGAINSWITCH_1
AMAC,PROBED_AT_UPENN,1,False,101,AMBG_13_RAMPGAIN_FUNCTION_AMBGSWITCH_1_RAMPGAINSWITCH_1
AMAC,ON_WAFER,1,False,102,AMBG_7_RAMPGAIN_FUNCTION_AMBGSWITCH_1_RAMPGAINSWITCH_0
AMAC,PROBED_AT_UPENN,1,False,102,AMBG_13_RAMPGAIN_FUNCTION_AMBGSWITCH_1_RAMPGAINSWITCH_0
AMAC,ON_WAFER,1,False,103,AMAC_DAC_CALX_RAMP_FUNCTION
AMAC,PROBED_AT_UPENN,1,False,103,POWER_FUNCTIONS
AMAC,ON_WAFER,1,False,104,READOUT_HVRET_4_RAMP_FUNCTION
AMAC,PROBED_AT_UPENN,1,False,104,AMBG_4_RAMPGAIN_FUNCTION_AMBGSWITCH_1_RAMPGAINSWITCH_1
AMAC,ON_WAFER,1,False,105,AMAC_DAC_INTERNAL_CALX_RAMP_FUNCTION
AMAC,PROBED_AT_UPENN,1,False,105,AMBG_4_RAMPGAIN_FUNCTION_AMBGSWITCH_1_RAMPGAINSWITCH_0
AMAC,ON_WAFER,1,False,106,HVRET_2_RAMP_FUNCTION
AMAC,PROBED_AT_UPENN,1,False,106,AMBG_11_RAMPGAIN_FUNCTION_AMBGSWITCH_0_RAMPGAINSWITCH_0
AMAC,ON_WAFER,1,False,107,HVRET_4_RAMP_FUNCTION
AMAC,PROBED_AT_UPENN,1,False,107,AMBG_11_RAMPGAIN_FUNCTION_AMBGSWITCH_0_RAMPGAINSWITCH_1
AMAC,ON_WAFER,1,False,108,AMBG_14_RAMPGAIN_FUNCTION_AMBGSWITCH_0_RAMPGAINSWITCH_1
AMAC,PROBED_AT_UPENN,1,False,108,HV0FREQ_OSCSETTING_1_RAMP_FUNCTION
AMAC,ON_WAFER,1,False,109,AMBG_14_RAMPGAIN_FUNCTION_AMBGSWITCH_0_RAMPGAINSWITCH_0
AMAC,PROBED_AT_UPENN,1,False,109,AMBG_12_RAMPGAIN_FUNCTION_AMBGSWITCH_1_RAMPGAINSWITCH_0
AMAC,ON_WAFER,1,False,110,NTCY_SW_6_FUNCTION
AMAC,PROBED_AT_UPENN,1,False,110,AMBG_12_RAMPGAIN_FUNCTION_AMBGSWITCH_1_RAMPGAINSWITCH_1
AMAC,ON_WAFER,1,False,111,READOUT_NTCPB_SW_0_FUNCTION
AMAC,PROBED_AT_UPENN,1,False,111,HV2FREQ_OSCSETTING_3_RAMP_FUNCTION
AMAC,ON_WAFER,1,False,112,AMBG_9_RAMPGAIN_FUNCTION_AMBGSWITCH_0_RAMPGAINSWITCH_0
AMAC,PROBED_AT_UPENN,1,False,112,AMAC_DAC_CALY_RAMP_FUNCTION
AMAC,ON_WAFER,1,False,113,AMBG_9_RAMPGAIN_FUNCTION_AMBGSWITCH_0_RAMPGAINSWITCH_1
AMAC,PROBED_AT_UPENN,1,False,113,NTCX_SW_6_FUNCTION
AMAC,ON_WAFER,1,False,114,NTCPB_SW_6_FUNCTION
AMAC,PROBED_AT_UPENN,1,False,114,AMAC_DAC_SHUNTX_RAMP_FUNCTION
AMAC,ON_WAFER,1,False,115,HV1FREQ_OSCSETTING_3_RAMP_FUNCTION
AMAC,PROBED_AT_UPENN,1,False,115,AMBG_11_RAMPGAIN_FUNCTION_AMBGSWITCH_1_RAMPGAINSWITCH_1
AMAC,ON_WAFER,1,False,116,AMBG_13_RAMPGAIN_FUNCTION_AMBGSWITCH_1_RAMPGAINSWITCH_1
AMAC,PROBED_AT_UPENN,1,False,116,HV1FREQ_OSCSETTING_1_RAMP_FUNCTION
AMAC,ON_WAFER,1,False,117,AMBG_13_RAMPGAIN_FUNCTION_AMBGSWITCH_1_RAMPGAINSWITCH_0
AMAC,PROBED_AT_UPENN,1,False,117,AMAC_DAC_INTERNAL_SHUNTX_RAMP_FUNCTION
AMAC,ON_WAFER,1,False,118,POWER_FUNCTIONS
AMAC,PROBED_AT_UPENN,1,False,118,AMBG_9_RAMPGAIN_FUNCTION_AMBGSWITCH_1_RAMPGAINSWITCH_1
AMAC,ON_WAFER,1,False,119,AMBG_4_RAMPGAIN_FUNCTION_AMBGSWITCH_1_RAMPGAINSWITCH_1
AMAC,PROBED_AT_UPENN,1,False,119,AMBG_9_RAMPGAIN_FUNCTION_AMBGSWITCH_1_RAMPGAINSWITCH_0
AMAC,ON_WAFER,1,False,120,AMBG_4_RAMPGAIN_FUNCTION_AMBGSWITCH_1_RAMPGAINSWITCH_0
AMAC,PROBED_AT_UPENN,1,False,120,ZERO_CALIBRATION_DISTRIBUTION
AMAC,ON_WAFER,1,False,121,READOUT_NTCX_SW_1_FUNCTION
AMAC,PROBED_AT_UPENN,1,False,121,AMBG_11_RAMPGAIN_FUNCTION_AMBGSWITCH_1_RAMPGAINSWITCH_0
AMAC,ON_WAFER,1,False,122,NTCPB_SW_4_FUNCTION
AMAC,ON_WAFER,1,False,123,READOUT_VADC_CAL_RAMP_FUNCTION
AMAC,PROBED_AT_UPENN,1,False,123,AMBG_5_RAMPGAIN_FUNCTION_AMBGSWITCH_0_RAMPGAINSWITCH_1
AMAC,ON_WAFER,1,False,124,READOUT_HVRET_0_RAMP_FUNCTION
AMAC,ON_WAFER,1,False,125,AMBG_0_RAMPGAIN_FUNCTION_AMBGSWITCH_0_RAMPGAINSWITCH_1
AMAC,ON_WAFER,1,False,126,AMBG_11_RAMPGAIN_FUNCTION_AMBGSWITCH_0_RAMPGAINSWITCH_0
AMAC,ON_WAFER,1,False,127,AMBG_11_RAMPGAIN_FUNCTION_AMBGSWITCH_0_RAMPGAINSWITCH_1
AMAC,ON_WAFER,1,False,128,HV0FREQ_OSCSETTING_1_RAMP_FUNCTION
AMAC,ON_WAFER,1,False,129,READOUT_HVRET_2_RAMP_FUNCTION
AMAC,ON_WAFER,1,False,130,AMBG_12_RAMPGAIN_FUNCTION_AMBGSWITCH_1_RAMPGAINSWITCH_0
AMAC,ON_WAFER,1,False,131,AMBG_12_RAMPGAIN_FUNCTION_AMBGSWITCH_1_RAMPGAINSWITCH_1
AMAC,ON_WAFER,1,False,132,HV2FREQ_OSCSETTING_3_RAMP_FUNCTION
AMAC,ON_WAFER,1,False,133,AMAC_DAC_CALY_RAMP_FUNCTION
AMAC,ON_WAFER,1,False,134,READOUT_HVRET_3_RAMP_FUNCTION
AMAC,ON_WAFER,1,False,135,NTCX_SW_6_FUNCTION
AMAC,ON_WAFER,1,False,136,AMAC_DAC_SHUNTX_RAMP_FUNCTION
AMAC,ON_WAFER,1,False,137,AMBG_11_RAMPGAIN_FUNCTION_AMBGSWITCH_1_RAMPGAINSWITCH_1
AMAC,ON_WAFER,1,False,138,HV1FREQ_OSCSETTING_1_RAMP_FUNCTION
AMAC,ON_WAFER,1,False,139,AMAC_DAC_INTERNAL_SHUNTX_RAMP_FUNCTION
AMAC,ON_WAFER,1,False,140,AMBG_9_RAMPGAIN_FUNCTION_AMBGSWITCH_1_RAMPGAINSWITCH_1
AMAC,ON_WAFER,1,False,141,AMBG_9_RAMPGAIN_FUNCTION_AMBGSWITCH_1_RAMPGAINSWITCH_0
AMAC,ON_WAFER,1,False,142,ZERO_CALIBRATION_DISTRIBUTION
AMAC,ON_WAFER,1,False,143,AMBG_11_RAMPGAIN_FUNCTION_AMBGSWITCH_1_RAMPGAINSWITCH_0
AMAC,ON_WAFER,1,False,144,READOUT_NTCX_SW_6_FUNCTION
AMAC,ON_WAFER,1,False,145,READOUT_NTCPB_SW_4_FUNCTION
AMAC,ON_WAFER,1,False,146,READOUT_NTCPB_SW_1_FUNCTION
AMAC,ON_WAFER,1,False,147,AMBG_5_RAMPGAIN_FUNCTION_AMBGSWITCH_0_RAMPGAINSWITCH_0
AMAC,ON_WAFER,1,False,148,AMBG_5_RAMPGAIN_FUNCTION_AMBGSWITCH_0_RAMPGAINSWITCH_1
AMAC,ON_SCB,8,True,1,FAST_TID
AMAC,CATEGORY_A,10,False,1,VISUAL_INSPECTION
AMAC_GELPACK,PRE_IRRADIATED,2,False,1,VISUAL_INSPECTION
BJG_TEST_COMP,BJG_STEP_A,1,False,1,BJG_TEST_SD
BJG_TEST_COMP,BJG_STEP_A,1,False,2,B_TEST_2
BJG_TEST_COMP,BJG_STEP_B,2,False,1,B_TEST_2
BLADE,INITIAL,1,False,1,BLADE_RESISTANCE
BT,BARE,1,None,0,BTELECTRICAL
BT,BARE,1,None,1,BTMETROLOGY
BT,BARE,1,None,2,BTMETROLOGY_LBL
BT,BARE,1,None,3,BTSTRETCHP
BT,BARE,1,None,5,BTWEIGHT
BT,BARE,1,None,6,BTVISUAL
BT,COCURED,2,None,0,BTELECTRICAL
BT,COCURED,2,None,1,BTMETROLOGY
BT,COCURED,2,None,2,BTMETROLOGY_LBL
BT,COCURED,2,None,3,BTSTRETCHP
BT,COCURED,2,None,5,BTWEIGHT
BT,COCURED,2,None,6,BTVISUAL
BT,COCURED,2,None,7,BTCOCURING
BT,COCURED,2,None,8,BTTHICKNESS
BT,COCURED,2,None,9,BTBOND
BT,COMPLETED,3,None,0,BTELECTRICAL
BT,COMPLETED,3,None,1,BTMETROLOGY
BT,COMPLETED,3,None,2,BTMETROLOGY_LBL
BT,COMPLETED,3,None,3,BTSTRETCHP
CICOREL_CARD,NEW,1,False,1,PULL_TEST
COOLING_LOOP_PETAL,WELDING,1,False,2,WELDING
COOLING_LOOP_PETAL,WELDING,1,False,2,VISUAL_INSPECTION
COOLING_LOOP_PETAL,TESTING_PT,3,False,1,PRESSURE_TEST
COOLING_LOOP_PETAL,TESTING_LT,4,False,1,LEAK_TEST
COOLING_LOOP_PETAL,TESTING_LT,4,False,2,GEOMETRY_CHECK
COOLING_LOOP_PETAL,TESTING_LT,4,False,3,WEIGHT
COOLING_LOOP_PETAL,RECEPTION_CORE_MANUFACTURER,6,False,1,VISUAL_INSPECTION
COOLING_LOOP_PETAL,CLINCORE,6,False,1,VISUAL_INSPECTION
COOLING_LOOP_PETAL,CLINCORE,6,False,2,PRESSURE_TEST
COOLING_LOOP_PETAL,CLINCORE,6,False,3,LEAK_TEST
COOLING_LOOP_STAVE,BARE_PIPE,1,False,0,VI_Bare_pipe
COOLING_LOOP_STAVE,WELDING_INLET,2,False,1,VISUA_INSPECTION
COOLING_LOOP_STAVE,WELDING_EXHAUST,3,False,1,VISUA_INSPECTION
COOLING_LOOP_STAVE,TESTING,4,False,0,GEOMETRY_CHECK
COOLING_LOOP_STAVE,TESTING,4,False,1,PRESSURE_TEST
COOLING_LOOP_STAVE,TESTING,4,False,2,LEAK_TEST_APT
COOLING_LOOP_STAVE,TESTING,4,False,3,LEAK_TEST_BPT
COOLING_PIPE,BENT_TUBE,3,False,1,VISUAL_INSPECTION
COOLING_PIPE,BENT_TUBE,3,False,2,GEOMETRY_CHECK
COOLING_PIPE,BENT_TUBE,3,False,3,OUT_OF_ROUNDNESS
COOLING_PIPE,BENT_TUBE,3,False,4,WEIGHT
COOLING_PIPE,BENT_TUBE,3,False,5,ANEALING
COOLING_WIGLET_ASM,BARE_WIGLET,1,False,0,VI_Bare_Pipe
COOLING_WIGLET_ASM,WELDE_TERM,2,False,0,VISUAL_INSPECTION
COOLING_WIGLET_ASM,WELDED,3,False,1,VISUAL_INSPECTION
CORE_PETAL,ASSEMBLY,1,False,1,WEIGHING
CORE_PETAL,ASSEMBLY,1,False,2,MANUFACTURING
CORE_PETAL,ASSEMBLY,1,False,3,DELAMINATION
CORE_PETAL,ASSEMBLY,1,False,4,GROUNDING_CHECK
CORE_PETAL,ASSEMBLY,1,False,5,FLATNESS_AVS
CORE_PETAL,ASSEMBLY,1,False,6,METROLOGY_AVS
CORE_PETAL,ASSEMBLY,1,False,7,VISUAL_INSPECTION
CORE_PETAL,AT_QC_SITE,2,False,1,VISUAL_INSPECTION
CORE_PETAL,AT_QC_SITE,2,False,2,DELAMINATION
CORE_PETAL,AT_QC_SITE,2,False,3,METROLOGY
CORE_PETAL,AT_QC_SITE,2,False,4,FLATNESS
CORE_PETAL,AT_QC_SITE,2,False,5,BTTESTING
CORE_PETAL,PIPEBENDING,3,False,2,CLTESTING
CORE_PETAL,PIPEBENDING,3,False,3,VISUAL_INSPECTION
CORE_PETAL,QCTESTS,4,False,1,VISUAL_INSPECTION
CORE_PETAL,QCTESTS,4,False,2,GROUNDING_CHECK
CORE_PETAL,QCTESTS,4,False,3,THERMAL_EVALUATION
CORE_PETAL,QCTESTS,4,False,4,XRAYIMAGING
CORE_PETAL,AT_LOADING_SITE,7,False,1,VISUAL_INSPECTION
CORE_STAVE,RECEPTION,1,None,1,WEIGHING
CYLINDER,RECEIVED,1,False,1,INSPECTION
CYLINDER,RECEIVED,1,False,2,PHOTOGRAMMETRY
CYLINDER,GLUED,2,False,1,PACKING
CYLINDER,GLUED,2,False,2,PHOTOGRAMMETRY
CYLINDER_ROW,GLUED,1,False,1,GLUING
CYLINDER_ROW,GLUED,1,False,2,FUNCTIONAL
CYLINDER_ROW,GLUED,1,False,3,LOAD
CYLINDER_ROW,GLUED,1,False,4,PHOTOGRAMMETRY
ELEC_BREAK,RECEPTION,1,False,1,VISUAL_INSPECTION
ELEC_BREAK,RECEPTION,1,False,2,DIMENSION_CHECK
ELEC_BREAK,RECEPTION,1,False,3,WEIGHT
ELEC_BREAK,RECEPTION,1,False,4,CONTINUITY_TEST
EMILY_TEST_COMPONENT,HV_TAB_ATTACHED,1,False,1,700V_MODULE_IV_TEST_V1_PRACTICE
ENDCAP_WHEEL,INITIAL,1,False,1,WHEEL_CONDUCTION
ENDCAP_WHEEL,SECOND,2,False,1,WHEEL_CONDUCTION
EOS,UPCB,1,False,1,VISUAL_INSPECTION
EOS,PPCBTS1,3,False,2,TS1_RFID
EOS,PPCBTS1,3,False,2,4.1.B
EOS,PPCBTS1,3,False,3,5.3.A
EOS,PPCBTS1,3,False,4,5.3.B
EOS,PPCBTS1,3,False,5,TS1_IRCAM
EOS,PPCBTS1,3,False,6,EFUSE
EOS,PPCBTS4,6,False,1,EOS_TEST_TB4_BERT
EOS,PPCBTS4,6,False,2,EOS_TEST_TS4_UplinkEyeDiagram
EOS,PPCBTS4,6,False,3,EOS_TEST_TS4_ScanMatrixSettings
EOS_CTC,TIMP,2,False,1,CTC_IMP_R1
EOS_CTC,TIMP,2,False,2,CTC_IMP_R2
EOS_CTC,TRES,3,False,1,CTC_RES_LAYER1
EOS_CTC,TRES,3,False,2,CTC_RES_LAYER2
EOS_CTC,TRES,3,False,3,CTC_RES_LAYER3
EOS_CTC,TRES,3,False,4,CTC_RES_LAYER5
EOS_CTC,TRES,3,False,5,CTC_RES_LAYER6
EOS_CTC,TRES,3,False,6,CTC_RES_LAYER7
EOS_CTC,TRES,3,False,7,CTC_RES_LAYER8
EOS_CTC,TRES,3,False,8,CTC_RES_LAYER9
EOS_CTC,TRES,3,False,9,CTC_RES_LAYER10
EOS_CTC,TRES,3,False,10,CTC_RES_LAYER12
EOS_CTC,TRES,3,False,11,CTC_RES_LAYER13
EOS_CTC,TRES,3,False,12,CTC_RES_LAYER14
EOS_CTC,TRES,3,False,13,CTC_RES_VIAS
EOS_CTC,TRES,3,False,14,CTC_RES_BALLGRID
EOS_CTC,QCD,4,False,1,CTC_QC_DECISION
FLEX-TEST-COUPON,AFTER_MANUFACTURING,0,None,1,TEST-COUPON-WIRE-PULL
FLEX-TEST-COUPON,AFTER_MANUFACTURING,0,None,2,RESISTANCE_TEST
FLEX-TEST-COUPON,AFTER_MANUFACTURING,0,None,3,NEW_RESISTANCE_TEST
FLEX-TEST-COUPON,AFTER_SMD,1,None,1,TEST-COUPON-WIRE-PULL
FLEX-TEST-COUPON,AFTER_SMD,1,None,2,RESISTANCE_TEST
FLEX-TEST-COUPON,AFTER_SMD,1,None,3,NEW_RESISTANCE_TEST
FLEX-TEST-COUPON,AFTER_REFLOW,3,None,1,NEW_RESISTANCE_TEST
HCC,PROBED,2,True,1,HCCProbe_DCSScan
HCC,PROBED,2,True,2,HCCProbe_Digital_RegisterDefaults
HCC,PROBED,2,True,3,HCCProbe_Digital_HCCIDResponse
HCC,PROBED,2,True,4,HCCProbe_Digital_Triggering
HCC,PROBED,2,True,5,HCCProbe_Digital_8B10BEncoding
HCC,PROBED,2,True,6,HCCProbe_Digital_ErrorBlocks
HCC,PROBED,2,True,7,HCCProbe_Digital_StuckMemory
HCC,PROBED,2,True,8,HCCProbe_Digital_ABCPassthrough
HCC,PROBED,2,True,9,HCCProbe_Digital_HCCPassthrough
HCC,PROBED,2,True,10,HCCProbe_LDOScan
HCC,PROBED,2,True,11,HCCProbe_CalibrationScan
HCC,TESTED,4,True,1,PULL_TEST
HCC,ON_SCB,10,True,1,FAST_TID
HCC,CATEGORY_A,12,False,1,VISUAL_INSPECTION
HCC_GELPACK,PRE_IRRADIATED,2,False,1,VISUAL_INSPECTION
HONEYCOMB,RECEPTION,1,False,1,VISUAL_INSPECTION
HV_TAB_SHEET,SHEET_WITH_TABS,1,False,1,VISUAL_INSPECTION
HV_TAB_SHEET,SHEET_WITH_TABS,1,False,2,SHEAR_TEST
HYBRID,BARE,1,None,1,HYBRID_THICKNESS
HYBRID,BARE,1,None,2,VISUAL_INSPECTION_NEW
HYBRID,SMD,3,None,1,HYBRID-WIRE-PULL
HYBRID,SMD,3,None,2,VISUAL_INSPECTION_NEW
HYBRID,ASIC,4,None,1,HYBRID_METROLOGY
HYBRID,ASIC,4,None,2,GLUEWEIGHT_AH
HYBRID,ASIC,4,None,3,HYBRID-WIRE-PULL
HYBRID,ASIC,4,None,4,VISUAL_INSPECTION_NEW
HYBRID,ELECTRICAL,6,None,1,RESPONSE_CURVE
HYBRID,ELECTRICAL,6,None,2,STROBE_DELAY
HYBRID,ELECTRICAL,6,None,3,NOISE_OCCUPANCY
HYBRID,ELECTRICAL,6,None,4,THREE_POINT_GAIN
HYBRID,ELECTRICAL,6,None,5,PEDESTAL_SCAN
HYBRID,ELECTRICAL,6,None,6,TRIM_RANGE
HYBRID,ELECTRICAL,6,None,7,VISUAL_INSPECTION_NEW
HYBRID,COMPLETED,7,None,1,RESPONSE_CURVE
HYBRID,COMPLETED,7,None,3,NOISE_OCCUPANCY
HYBRID,COMPLETED,7,None,4,PEDESTAL_SCAN
HYBRID,COMPLETED,7,None,5,STROBE_DELAY
HYBRID,COMPLETED,7,None,6,THREE_POINT_GAIN
HYBRID,COMPLETED,7,None,7,TRIM_RANGE
HYBRID,COMPLETED,7,None,8,VISUAL_INSPECTION_NEW
HYBRID_ASSEMBLY,ASIC_ATTACHMENT,1,False,1,ASIC_GLUE_WEIGHT
HYBRID_ASSEMBLY,ASIC_ATTACHMENT,1,False,2,VISUAL_INSPECTION_RECEPTION
HYBRID_ASSEMBLY,ASIC_ATTACHMENT,1,False,3,ASIC_METROLOGY
HYBRID_ASSEMBLY,ASIC_ATTACHMENT,1,False,4,VISUAL_INSPECTION
HYBRID_ASSEMBLY,WIRE_BONDING,2,False,1,VISUAL_INSPECTION_RECEPTION
HYBRID_ASSEMBLY,WIRE_BONDING,2,False,2,VISUAL_INSPECTION
HYBRID_ASSEMBLY,WIRE_BONDING,2,False,3,WIRE_BONDING
HYBRID_ASSEMBLY,WIRE_BONDING,2,False,4,NO_PPA
HYBRID_ASSEMBLY,WIRE_BONDING,2,False,5,PEDESTAL_TRIM_PPA
HYBRID_ASSEMBLY,WIRE_BONDING,2,False,6,RESPONSE_CURVE_PPA
HYBRID_ASSEMBLY,WIRE_BONDING,2,False,7,STROBE_DELAY_PPA
HYBRID_ASSEMBLY,BURN_IN,3,False,1,VISUAL_INSPECTION_RECEPTION
HYBRID_ASSEMBLY,BURN_IN,3,False,2,NO_PPA
HYBRID_ASSEMBLY,BURN_IN,3,False,3,PEDESTAL_TRIM_PPA
HYBRID_ASSEMBLY,BURN_IN,3,False,4,RESPONSE_CURVE_PPA
HYBRID_ASSEMBLY,BURN_IN,3,False,5,STROBE_DELAY_PPA
HYBRID_ASSEMBLY,FINISHED_HYBRID,4,False,1,VISUAL_INSPECTION_RECEPTION
HYBRID_ASSEMBLY,FINISHED_HYBRID,4,False,2,VISUAL_INSPECTION
HYBRID_ASSEMBLY,FINISHED_HYBRID,4,False,3,NO_PPA
HYBRID_ASSEMBLY,FINISHED_HYBRID,4,False,4,RESPONSE_CURVE_PPA
HYBRID_ASSEMBLY,FINISHED_HYBRID,4,False,5,PEDESTAL_TRIM_PPA
HYBRID_ASSEMBLY,FINISHED_HYBRID,4,False,6,STROBE_DELAY_PPA
HYBRID_ASSEMBLY,AT_MODULE_ASSEMBLY_SITE,5,False,1,VISUAL_INSPECTION_RECEPTION
HYBRID_ASSEMBLY,AT_MODULE_ASSEMBLY_SITE,5,False,2,NO_PPA
HYBRID_ASSEMBLY,AT_MODULE_ASSEMBLY_SITE,5,False,3,PEDESTAL_TRIM_PPA
HYBRID_ASSEMBLY,AT_MODULE_ASSEMBLY_SITE,5,False,4,RESPONSE_CURVE_PPA
HYBRID_ASSEMBLY,AT_MODULE_ASSEMBLY_SITE,5,False,5,STROBE_DELAY_PPA
HYBRID_ASSEMBLY,ON_MODULE,8,False,1,NO_PPA
HYBRID_ASSEMBLY,ON_MODULE,8,False,2,PEDESTAL_TRIM_PPA
HYBRID_ASSEMBLY,ON_MODULE,8,False,3,RESPONSE_CURVE_PPA
HYBRID_ASSEMBLY,ON_MODULE,8,False,4,STROBE_DELAY_PPA
HYBRID_FLEX,FROM_MANUFACTURER,1,False,1,VISUAL_INSPECTION_BARE
HYBRID_FLEX,FROM_MANUFACTURER,1,False,2,FLEX_METROLOGY
HYBRID_FLEX,SMD_POPULATED,5,False,1,VISUAL_INSPECTION_SMD
HYBRID_FLEX,SMD_POPULATED,5,False,2,PULL_TEST
HYBRID_FLEX,SMD_POPULATED,5,False,3,FLEX_METROLOGY
HYBRID_FLEX,SMD_COMPLETED,7,False,0,VISUAL_INSPECTION_RECEPTION
HYBRID_FLEX,AT_HYBRID_ASSEMBLY_SITE,8,False,1,PULL_TEST
HYBRID_FLEX,AT_HYBRID_ASSEMBLY_SITE,8,False,2,VISUAL_INSPECTION_RECEPTION
HYBRID_FLEX_ARRAY,FROM_MANUFACTURER,1,False,1,VISUAL_INSPECTION
HYBRID_FLEX_ARRAY,FROM_MANUFACTURER,1,False,2,VISUAL_INSPECTION_BARE
HYBRID_FLEX_ARRAY,FROM_MANUFACTURER,1,False,3,THICKNESS
HYBRID_FLEX_ARRAY,SMD_POPULATED,5,False,1,PULL_TEST
HYBRID_FLEX_ARRAY,SMD_POPULATED,5,False,2,VISUAL_INSPECTION
HYBRID_FLEX_ARRAY,SMD_POPULATED,5,False,3,VISUAL_INSPECTION_SMD
HYBRID_FLEX_ARRAY,SMD_POPULATED,5,False,4,THICKNESS
HYBRID_FLEX_ARRAY,SMD_COMPLETED,6,False,1,VISUAL_INSPECTION_RECEPTION
HYBRID_FLEX_ARRAY,AT_HYBRID_ASSEMBLY_SITE,7,False,1,PULL_TEST
HYBRID_FLEX_ARRAY,AT_HYBRID_ASSEMBLY_SITE,7,False,2,VISUAL_INSPECTION_RECEPTION
HYBRID_FLEX_PANEL,MANUFACTURED,1,False,1,VISUAL_INSPECTION
HYBRID_FLEX_PANEL,MANUFACTURED,1,False,2,THICKNESS
HYBRID_FLEX_PANEL,SMD_POPULATED,4,False,1,VISUAL_INSPECTION
HYBRID_FLEX_PANEL,SMD_POPULATED,4,False,2,THICKNESS
HYBRID_FLEX_PANEL,SMD_COMPLETED,5,False,1,VISUAL_INSPECTION_RECEPTION
HYBRID_FLEX_PANEL,AT_HYBRID_ASSEMBLY_SITE,6,False,1,VISUAL_INSPECTION_RECEPTION
HYBRID_FLEX_TEST_COUPON,FROM_MANUFACTURER,0,False,1,PULL_TEST
HYBRID_FLEX_TEST_COUPON,FROM_MANUFACTURER,0,False,3,RESISTANCE_CAPACITANCE
HYBRID_FLEX_TEST_COUPON,FROM_MANUFACTURER,0,False,3,THICKNESS
HYBRID_FLEX_TEST_COUPON,AFTER_REFLOW,2,False,0,PULL_TEST
HYBRID_FLEX_TEST_COUPON,AFTER_REFLOW,2,False,3,RESISTANCE_CAPACITANCE
HYBRID_FLEX_TEST_COUPON,AFTER_REFLOW,2,False,3,THICKNESS
HYBRID_TEST_PANEL,HYBRIDS_ASSEMBLED,2,True,1,HYBRID_POSITION
HYBRID_TEST_PANEL,HYBRIDS_ASSEMBLED,2,True,2,HYBRID_POSITION_RECEPTION
HYBRID_TEST_PANEL,HYBRIDS_ASSEMBLED,2,True,3,VISUAL_INSPECTION_RECEPTION
HYBRID_TEST_PANEL,EMPTY,3,True,1,PULL_TEST
JIAYI-TEST-COMP,TEST-JIAYI-COMP-STAGE,1,False,0,LEAK_TEST_CL_PETAL
KKTESTITEM1,STAGE1,1,False,1,KKTEST1
KKTESTITEM1,STAGE1,1,False,2,KKTEST2
KKTESTITEM1,STAGE2,2,False,1,KKTEST1
KKTESTITEM1,STAGE2,2,False,2,KKTEST2
LUISETESTMATERIAL,LTEST_ST1,1,False,1,LTEST_TEST
MATTS_TEST_COMPONENT_A,MATTS_TEST_COMPONENT_STAGE1,1,False,1,MATTS_TEST_TYPE_A
MATTS_TEST_COMPONENT_B,MATTS_TEST_COMPONENT_B_STAGE1,1,False,1,MATTS_TEST_TYPE_B
MODULE,HV_TAB_ATTACHED,2,False,1,VISUAL_INSPECTION_RECEPTION
MODULE,HV_TAB_ATTACHED,2,False,2,VISUAL_INSPECTION
MODULE,HV_TAB_ATTACHED,2,False,3,MODULE_IV_PS_V1
MODULE,GLUED,3,False,4,MODULE_IV_PS_V1
MODULE,GLUED,3,False,5,GLUE_WEIGHT
MODULE,GLUED,3,False,5,MODULE_METROLOGY
MODULE,GLUED,3,False,6,VISUAL_INSPECTION_RECEPTION
MODULE,GLUED,3,False,6,MODULE_BOW
MODULE,GLUED,3,False,7,VISUAL_INSPECTION
MODULE,STITCH_BONDING,4,True,1,VISUAL_INSPECTION_RECEPTION
MODULE,STITCH_BONDING,4,True,2,MODULE_IV_PS_V1
MODULE,BONDED,5,False,1,VISUAL_INSPECTION_RECEPTION
MODULE,BONDED,5,False,2,VISUAL_INSPECTION
MODULE,BONDED,5,False,4,MODULE_WIRE_BONDING
MODULE,BONDED,5,False,4,MODULE_BOW
MODULE,BONDED,5,False,5,MODULE_IV_PS_BONDED
MODULE,TESTED,6,False,1,NOISE_OCCUPANCY
MODULE,TESTED,6,False,2,STROBE_DELAY
MODULE,TESTED,6,False,3,PEDESTAL_SCAN
MODULE,TESTED,6,False,4,THREE_POINT_GAIN
MODULE,TESTED,6,False,5,RESPONSE_CURVE
MODULE,TESTED,6,False,6,TRIM_RANGE
MODULE,TESTED,6,False,8,VISUAL_INSPECTION_RECEPTION
MODULE,TESTED,6,False,8,MODULE_IV_PS_BONDED
MODULE,FINISHED,7,False,1,VISUAL_INSPECTION_RECEPTION
MODULE,FINISHED,7,False,2,VISUAL_INSPECTION
MODULE,FINISHED,7,False,3,MODULE_IV_PS_BONDED
MODULE,AT_LOADING_SITE,8,False,1,VISUAL_INSPECTION_RECEPTION
MODULE,AT_LOADING_SITE,8,False,2,MODULE_IV_PS_BONDED
MODULE_FRAME,EMPTY,2,True,1,PULL_TEST
MODULE_FRAME,SENSOR_ASSEMBLED,3,True,1,VISUAL_INSPECTION_RECEPTION
MODULE_FRAME,MODULE_ASSEMBLED,4,True,1,VISUAL_INSPECTION_RECEPTION
MWAFER,UNTESTED,1,False,1,FOUNDRY_DATA
MWAFER,DICED,7,False,1,ASIC_SIZE
MWAFER,DICED,7,False,2,WAFER_THICKNESS
MWAFER,DICED,7,False,3,PULL_TEST
PB_FLEX,RCP,1,False,1,VI
PB_FLEX,SMD_LOAD,2,False,1,VI
PB_FLEX,MAN_LOAD,3,False,1,VI
PB_TC,RCP,1,False,1,PICTURE
PB_TC,BONDED,4,False,2,PICTURE
PB_TC,BONDED,4,False,3,VINIOUT
PB_TC,BONDED,4,False,3,CAPACITANCE
PB_TC,BONDED,4,False,4,RESISTANCE
PB_TC,THERMAL,5,True,2,VINIOUT
PB_TC,THERMAL,5,True,3,CAPACITANCE
PB_TC,THERMAL,5,True,3,RESISTANCE
PB_TC,IRRADIATION,6,True,2,VINIOUT
PB_TC,IRRADIATION,6,True,3,CAPACITANCE
PB_TC,IRRADIATION,6,True,3,RESISTANCE
PB_TC,MODULE_RCP,8,False,1,PICTURE
PB_TC,MODULE_RCP,8,False,2,VINIOUT
PB_TC,MODULE_RCP,8,False,3,CAPACITANCE
PB_TC,MODULE_RCP,8,False,4,RESISTANCE
PB_TC,MODULE_RCP,8,False,5,PULL_TEST
PETAL,MODULE_LOADING,2,False,1,MODULE_PLACEMENT_ACCURACY_PETAL
PETAL,MODULE_LOADING,2,False,2,GLUE-SEEPAGE
PETAL,MODULE_LOADING,2,False,3,ENVELOPE
PETAL,MODULE_LOADING,2,False,4,WEIGHING
PETAL,MODULE_LOADING,2,False,5,CODE_TABLE_TEST_PETAL
PETAL,POST_ASSEMBLY,3,False,1,VISUAL_CAPTURE
PETAL,POST_ASSEMBLY,3,False,2,OUT_OF_PLANE_METROLOGY
PETAL,POST_ASSEMBLY,3,False,3,THREE-POINT-GAIN
PETAL,DECISION,4,False,1,VISUAL_INSPECTION
PWB,BONDED,3,False,1,TOGGLEOUTPUT
PWB,BONDED,3,False,2,PADID
PWB,BONDED,3,False,3,BER
PWB,BONDED,3,False,4,OF
PWB,BONDED,3,False,5,HV_ENABLE
PWB,BONDED,3,False,6,LV_ENABLE
PWB,BONDED,3,False,7,PICTURE
PWB,BONDED,3,False,8,CONFIG
PWB,BONDED,3,False,9,AMOFFSET
PWB,BONDED,3,False,10,AMSLOPE
PWB,BONDED,3,False,11,DCDCEFFICIENCY
PWB,BONDED,3,False,12,HVSENSE
PWB,BONDED,3,False,13,CUR10V
PWB,BONDED,3,False,14,CUR1V
PWB,BONDED,3,False,16,VIN
PWB,BONDED,3,False,16,TEMPERATURE_CTAT
PWB,BONDED,3,False,17,DCDC_ADJUST
PWB,BONDED,3,False,18,TEMPERATURE
PWB,BONDED,3,False,19,TEMPERATURE_NTC
PWB,THERMAL,4,False,1,AMOFFSET
PWB,THERMAL,4,False,2,AMSLOPE
PWB,THERMAL,4,False,3,DCDCEFFICIENCY
PWB,THERMAL,4,False,4,HVSENSE
PWB,THERMAL,4,False,5,CUR10V
PWB,THERMAL,4,False,6,CUR1V
PWB,THERMAL,4,False,7,VIN
PWB,THERMAL,4,False,8,STATUS
PWB,THERMAL,4,False,9,CONFIG
PWB,THERMAL,4,False,10,BER
PWB,THERMAL,4,False,11,OF
PWB,THERMAL,4,False,12,TOGGLEOUTPUT
PWB,THERMAL,4,False,13,PADID
PWB,THERMAL,4,False,14,LV_ENABLE
PWB,THERMAL,4,False,15,HV_ENABLE
PWB,BURN_IN,5,False,1,AMOFFSET
PWB,BURN_IN,5,False,2,AMSLOPE
PWB,BURN_IN,5,False,3,DCDCEFFICIENCY
PWB,BURN_IN,5,False,4,HVSENSE
PWB,BURN_IN,5,False,5,CUR10V
PWB,BURN_IN,5,False,6,CUR1V
PWB,BURN_IN,5,False,7,STATUS
PWB,BURN_IN,5,False,8,PICTURE
PWB,BURN_IN,5,False,9,VIN
PWB,MODULE_RCP,6,False,1,BER
PWB,MODULE_RCP,6,False,2,HV_ENABLE
PWB,MODULE_RCP,6,False,3,LV_ENABLE
PWB,MODULE_RCP,6,False,4,OF
PWB,MODULE_RCP,6,False,5,PADID
PWB,MODULE_RCP,6,False,6,TOGGLEOUTPUT
PWB,MODULE_RCP,6,False,7,STATUS
PWB,MODULE_RCP,6,False,8,CONFIG
PWB,MODULE_RCP,6,False,9,DCDC_ADJUST
PWB,MODULE_RCP,6,False,10,TEMPERATURE
PWB,MODULE_RCP,6,False,11,PICTURE
PWB,MODULE_RCP,6,False,12,VISUAL_INSPECTION
PWB,HYBBURN,8,True,1,CONFIG
PWB,HYBBURN,8,True,2,BER
PWB,HYBBURN,8,True,3,PADID
PWB,HYBBURN,8,True,4,TEMPERATURE
PWB,HYBBURN,8,True,5,DCDC_ADJUST
PWB,HYBBURN,8,True,7,LV_ENABLE
PWB,HYBBURN,8,True,8,OF
PWB,HYBBURN,8,True,9,STATUS
PWB,HYBBURN,8,True,10,TOGGLEOUTPUT
SENSOR,REGISTERED,1,False,1,MANUFACTURING18
SENSOR,SENS_TEST_STAGE,2,False,9,ATLAS18_IV_TEST_V1
SENSOR,SENS_TEST_STAGE,2,False,9,ATLAS18_VIS_INSPECTION_V2
SENSOR,SENS_TEST_STAGE,2,False,10,ATLAS18_CV_TEST_V1
SENSOR,SENS_TEST_STAGE,2,False,10,ATLAS18_HANDLING_DAMAGE_V1
SENSOR,SENS_TEST_STAGE,2,False,11,ATLAS18_CURRENT_STABILITY_V1
SENSOR,SENS_TEST_STAGE,2,False,11,ATLAS18_RECOVERY_V1
SENSOR,SENS_TEST_STAGE,2,False,12,ATLAS18_FULLSTRIP_STD_V1
SENSOR,SENS_TEST_STAGE,2,False,12,ATLAS18_SPECIAL_USE_V1
SENSOR,SENS_TEST_STAGE,2,False,13,ATLAS18_SHAPE_METROLOGY_V1
SENSOR,SENS_TEST_STAGE,2,False,14,ATLAS18_MAIN_THICKNESS_V1
SENSOR,SENS_TEST_STAGE,2,False,15,ATLAS18_KEKTEST_OLD_V1
SENSOR,SENS_TEST_STAGE,2,False,16,ATLAS18_KEKTEST_NEW_V1
SENSOR,BLESSING,3,False,1,ATLAS18_APPROVAL_V1
SENSOR,READY_FOR_MODULE,4,False,1,ATLAS18_IV_TEST_V1
SENSOR,READY_FOR_MODULE,4,False,2,VIS_INSP_RES_MOD_V2
SENSOR,READY_FOR_MODULE,4,False,3,ATLAS18_HANDLING_DAMAGE_V1
SENSOR,READY_FOR_MODULE,4,False,4,ATLAS18_RECOVERY_V1
SENSOR,READY_FOR_MODULE,4,False,5,ATLAS18_SPECIAL_USE_V1
SENSOR,UNHAPPY,5,True,1,ATLAS18_IV_TEST_V1
SENSOR,UNHAPPY,5,True,2,VIS_INSP_RES_MOD_V2
SENSOR,UNHAPPY,5,True,3,ATLAS18_HANDLING_DAMAGE_V1
SENSOR,UNHAPPY,5,True,4,ATLAS18_RECOVERY_V1
SENSOR,UNHAPPY,5,True,5,ATLAS18_SPECIAL_USE_V1
SENSOR,DAMAGED,6,True,1,ATLAS18_IV_TEST_V1
SENSOR,DAMAGED,6,True,2,VIS_INSP_RES_MOD_V2
SENSOR,DAMAGED,6,True,3,ATLAS18_HANDLING_DAMAGE_V1
SENSOR,DAMAGED,6,True,4,ATLAS18_RECOVERY_V1
SENSOR,DAMAGED,6,True,5,ATLAS18_SPECIAL_USE_V1
SENSOR,SPECIAL_USE,8,True,1,ATLAS18_IV_TEST_V1
SENSOR,SPECIAL_USE,8,True,2,VIS_INSP_RES_MOD_V2
SENSOR,SPECIAL_USE,8,True,3,ATLAS18_HANDLING_DAMAGE_V1
SENSOR,SPECIAL_USE,8,True,4,ATLAS18_RECOVERY_V1
SENSOR,SPECIAL_USE,8,True,5,ATLAS18_SPECIAL_USE_V1
SENSOR_COMPONENT_FOR_TESTING,STC1_TESTING,3,True,1,TEST
SENSOR_COMPONENT_FOR_TESTING,STC1_STORAGE,4,False,1,SCFT_RESISTANCE
SENSOR_HALFMOONS,RECEIVED,1,False,1,ATLAS18_HM_THICKNESS_V1
SENSOR_HALFMOONS,RECEIVED,1,False,2,PULL_TEST
SENSOR_HALFMOONS,RECEIVED,1,False,3,ATLAS18_HANDLING_DAMAGE_V1
SENSOR_HALFMOONS,RECEIVED,1,False,4,ATLAS18_SPECIAL_USE_V1
SENSOR_HALFMOONS,STORED_AT_ASSEMBLY_SITE,2,False,2,PULL_TEST
SENSOR_HALFMOONS,STORED_AT_ASSEMBLY_SITE,2,False,2,ATLAS18_HANDLING_DAMAGE_V1
SENSOR_HALFMOONS,STORED_AT_ASSEMBLY_SITE,2,False,3,ATLAS18_SPECIAL_USE_V1
SENSOR_HALFMOONS,STORED_AT_ASSEMBLY_SITE,2,False,4,ATLAS18_HM_THICKNESS_V1
SENSOR_H_TEST,RECEIVED,1,False,1,ATLAS18_HM_THICKNESS_V1
SENSOR_H_TEST,RECEIVED,1,False,2,PULL_TEST
SENSOR_H_TEST,RECEIVED,1,False,3,ATLAS18_HANDLING_DAMAGE_V1
SENSOR_H_TEST,RECEIVED,1,False,4,ATLAS18_SPECIAL_USE_V1
SENSOR_H_TEST,STORED_AT_ASSEMBLY_SITE,2,False,1,PULL_TEST
SENSOR_H_TEST,STORED_AT_ASSEMBLY_SITE,2,False,2,ATLAS18_HM_THICKNESS_V1
SENSOR_H_TEST,STORED_AT_ASSEMBLY_SITE,2,False,3,ATLAS18_HANDLING_DAMAGE_V1
SENSOR_H_TEST,STORED_AT_ASSEMBLY_SITE,2,False,4,ATLAS18_SPECIAL_USE_V1
SENSOR_MD8,FURTHER_DICED,1,False,2,MD8_CV
SENSOR_MINI_MD8,RECEPTION,1,False,1,RECEPTION_DATE
SENSOR_MINI_MD8,IRRADIATION,2,True,1,IRRADIATION
SENSOR_MINI_MD8,POST-IRRAD_TESTS,3,False,1,MD8_IV
SENSOR_MINI_MD8,POST-IRRAD_TESTS,3,False,2,MD8_CV
SENSOR_MINI_MD8,POST-IRRAD_TESTS,3,False,3,MINI_CCE
SENSOR_MINI_MD8,POST-IRRAD_TESTS,3,False,4,MINI_IV
SENSOR_MINI_MD8,PRE-IRRAD_TESTS,4,True,1,MD8_IV
SENSOR_MINI_MD8,PRE-IRRAD_TESTS,4,True,2,MD8_CV
SENSOR_MINI_MD8,PRE-IRRAD_TESTS,4,True,3,MINI_CCE
SENSOR_MINI_MD8,PRE-IRRAD_TESTS,4,True,4,MINI_IV
SENSOR_MINI_MD8,PASS,5,False,1,PASS_COMMENTS
SENSOR_QAMINI_TEST,REGISTRATION,1,False,1,RECEPTION_DATE
SENSOR_QAMINI_TEST,IRRADIATION,2,True,1,IRRADIATION
SENSOR_QAMINI_TEST,POST-IRRAD_TESTS,3,False,1,MD8_CV
SENSOR_QAMINI_TEST,POST-IRRAD_TESTS,3,False,2,MD8_IV
SENSOR_QAMINI_TEST,POST-IRRAD_TESTS,3,False,3,MINI_CCE
SENSOR_QAMINI_TEST,POST-IRRAD_TESTS,3,False,4,MINI_IV
SENSOR_QAMINI_TEST,PRE-IRRAD_TESTS,4,True,1,MD8_CV
SENSOR_QAMINI_TEST,PRE-IRRAD_TESTS,4,True,2,MD8_IV
SENSOR_QAMINI_TEST,PRE-IRRAD_TESTS,4,True,3,MINI_CCE
SENSOR_QAMINI_TEST,PRE-IRRAD_TESTS,4,True,4,MINI_IV
SENSOR_QAMINI_TEST,PASS,5,False,1,PASS_COMMENTS
SENSOR_QCHIP_TEST,REGISTRATION,1,False,1,RECEPTION_DATE
SENSOR_QCHIP_TEST,IRRADIATION,2,True,1,IRRADIATION
SENSOR_QCHIP_TEST,POST-IRRAD_TESTS,3,False,1,CCPL_C
SENSOR_QCHIP_TEST,POST-IRRAD_TESTS,3,False,2,CCPL_IV100
SENSOR_QCHIP_TEST,POST-IRRAD_TESTS,3,False,3,CBR-I_IV
SENSOR_QCHIP_TEST,POST-IRRAD_TESTS,3,False,4,CBR-M_IV
SENSOR_QCHIP_TEST,POST-IRRAD_TESTS,3,False,5,CFLD_CV
SENSOR_QCHIP_TEST,POST-IRRAD_TESTS,3,False,6,INT_LOW_C
SENSOR_QCHIP_TEST,POST-IRRAD_TESTS,3,False,7,INT_LOW_IV
SENSOR_QCHIP_TEST,POST-IRRAD_TESTS,3,False,8,INT_MID_C
SENSOR_QCHIP_TEST,POST-IRRAD_TESTS,3,False,9,INT_MID_IV
SENSOR_QCHIP_TEST,POST-IRRAD_TESTS,3,False,10,INT_UP_C
SENSOR_QCHIP_TEST,POST-IRRAD_TESTS,3,False,11,INT_UP_IV
SENSOR_QCHIP_TEST,POST-IRRAD_TESTS,3,False,12,RBIAS_IV
SENSOR_QCHIP_TEST,POST-IRRAD_TESTS,3,False,13,MD8_CV
SENSOR_QCHIP_TEST,POST-IRRAD_TESTS,3,False,14,MD8_IV
SENSOR_QCHIP_TEST,POST-IRRAD_TESTS,3,False,15,PTP_IV
SENSOR_QCHIP_TEST,PRE-IRRAD_TESTS,4,True,1,CCPL_C
SENSOR_QCHIP_TEST,PRE-IRRAD_TESTS,4,True,2,CCPL_IV100
SENSOR_QCHIP_TEST,PRE-IRRAD_TESTS,4,True,3,RBIAS_IV
SENSOR_QCHIP_TEST,PRE-IRRAD_TESTS,4,True,4,CBR-I_IV
SENSOR_QCHIP_TEST,PRE-IRRAD_TESTS,4,True,5,CBR-M_IV
SENSOR_QCHIP_TEST,PRE-IRRAD_TESTS,4,True,6,CFLD_CV
SENSOR_QCHIP_TEST,PRE-IRRAD_TESTS,4,True,7,INT_LOW_C
SENSOR_QCHIP_TEST,PRE-IRRAD_TESTS,4,True,8,INT_LOW_IV
SENSOR_QCHIP_TEST,PRE-IRRAD_TESTS,4,True,9,INT_MID_C
SENSOR_QCHIP_TEST,PRE-IRRAD_TESTS,4,True,10,INT_MID_IV
SENSOR_QCHIP_TEST,PRE-IRRAD_TESTS,4,True,11,INT_UP_C
SENSOR_QCHIP_TEST,PRE-IRRAD_TESTS,4,True,12,INT_UP_IV
SENSOR_QCHIP_TEST,PRE-IRRAD_TESTS,4,True,13,PTP_IV
SENSOR_QCHIP_TEST,PRE-IRRAD_TESTS,4,True,14,MD8_CV
SENSOR_QCHIP_TEST,PRE-IRRAD_TESTS,4,True,15,MD8_IV
SENSOR_QCHIP_TEST,PASS,5,False,1,PASS_COMMENTS
SENSOR_S_TEST,REGISTERED,1,False,1,MANUFACTURING18
SENSOR_S_TEST,SENS_TEST_STAGE,2,False,2,ATLAS18_IV_TEST_V1
SENSOR_S_TEST,SENS_TEST_STAGE,2,False,3,ATLAS18_CV_TEST_V1
SENSOR_S_TEST,SENS_TEST_STAGE,2,False,4,ATLAS18_CURRENT_STABILITY_V1
SENSOR_S_TEST,SENS_TEST_STAGE,2,False,5,ATLAS18_FULLSTRIP_STD_V1
SENSOR_S_TEST,SENS_TEST_STAGE,2,False,6,ATLAS18_SHAPE_METROLOGY_V1
SENSOR_S_TEST,SENS_TEST_STAGE,2,False,7,ATLAS18_MAIN_THICKNESS_V1
SENSOR_S_TEST,SENS_TEST_STAGE,2,False,8,ATLAS18_KEKTEST_OLD_V1
SENSOR_S_TEST,SENS_TEST_STAGE,2,False,9,ATLAS18_KEKTEST_NEW_V1
SENSOR_S_TEST,SENS_TEST_STAGE,2,False,9,ATLAS18_VIS_INSPECTION_V2
SENSOR_S_TEST,SENS_TEST_STAGE,2,False,10,ATLAS18_HANDLING_DAMAGE_V1
SENSOR_S_TEST,SENS_TEST_STAGE,2,False,11,ATLAS18_RECOVERY_V1
SENSOR_S_TEST,SENS_TEST_STAGE,2,False,12,ATLAS18_SPECIAL_USE_V1
SENSOR_S_TEST,SENS_TEST_STAGE,2,False,13,ATLAS18_FASTSTRIP_STD_V1
SENSOR_S_TEST,BLESSING,3,False,1,ATLAS18_APPROVAL_V1
SENSOR_S_TEST,READY_FOR_MODULE,4,False,1,ATLAS18_IV_TEST_V1
SENSOR_S_TEST,READY_FOR_MODULE,4,False,2,VIS_INSP_RES_MOD_V2
SENSOR_S_TEST,READY_FOR_MODULE,4,False,3,ATLAS18_HANDLING_DAMAGE_V1
SENSOR_S_TEST,READY_FOR_MODULE,4,False,4,ATLAS18_RECOVERY_V1
SENSOR_S_TEST,READY_FOR_MODULE,4,False,5,ATLAS18_SPECIAL_USE_V1
SENSOR_S_TEST,UNHAPPY,5,True,1,ATLAS18_IV_TEST_V1
SENSOR_S_TEST,UNHAPPY,5,True,2,VIS_INSP_RES_MOD_V2
SENSOR_S_TEST,UNHAPPY,5,True,3,ATLAS18_HANDLING_DAMAGE_V1
SENSOR_S_TEST,UNHAPPY,5,True,4,ATLAS18_RECOVERY_V1
SENSOR_S_TEST,UNHAPPY,5,True,5,ATLAS18_SPECIAL_USE_V1
SENSOR_S_TEST,DAMAGED,6,True,1,ATLAS18_IV_TEST_V1
SENSOR_S_TEST,DAMAGED,6,True,2,VIS_INSP_RES_MOD_V2
SENSOR_S_TEST,DAMAGED,6,True,3,ATLAS18_HANDLING_DAMAGE_V1
SENSOR_S_TEST,DAMAGED,6,True,4,ATLAS18_RECOVERY_V1
SENSOR_S_TEST,DAMAGED,6,True,5,ATLAS18_SPECIAL_USE_V1
SENSOR_S_TEST,SPECIAL_USE,8,True,1,ATLAS18_IV_TEST_V1
SENSOR_S_TEST,SPECIAL_USE,8,True,2,VIS_INSP_RES_MOD_V2
SENSOR_S_TEST,SPECIAL_USE,8,True,3,ATLAS18_HANDLING_DAMAGE_V1
SENSOR_S_TEST,SPECIAL_USE,8,True,4,ATLAS18_RECOVERY_V1
SENSOR_S_TEST,SPECIAL_USE,8,True,5,ATLAS18_SPECIAL_USE_V1
SENSOR_TESTCHIP_MD8,RECEPTION,1,False,1,RECEPTION_DATE
SENSOR_TESTCHIP_MD8,IRRADIATION,2,True,1,IRRADIATION
SENSOR_TESTCHIP_MD8,POST-IRRAD_TESTS,3,False,1,RBIAS_IV
SENSOR_TESTCHIP_MD8,POST-IRRAD_TESTS,3,False,2,CCPL_C
SENSOR_TESTCHIP_MD8,POST-IRRAD_TESTS,3,False,4,CCPL_IV100
SENSOR_TESTCHIP_MD8,POST-IRRAD_TESTS,3,False,5,CFLD_CV
SENSOR_TESTCHIP_MD8,POST-IRRAD_TESTS,3,False,6,CBR-M_IV
SENSOR_TESTCHIP_MD8,POST-IRRAD_TESTS,3,False,7,CBR-I_IV
SENSOR_TESTCHIP_MD8,POST-IRRAD_TESTS,3,False,8,INT_LOW_IV
SENSOR_TESTCHIP_MD8,POST-IRRAD_TESTS,3,False,9,INT_MID_IV
SENSOR_TESTCHIP_MD8,POST-IRRAD_TESTS,3,False,10,INT_UP_IV
SENSOR_TESTCHIP_MD8,POST-IRRAD_TESTS,3,False,11,INT_LOW_C
SENSOR_TESTCHIP_MD8,POST-IRRAD_TESTS,3,False,12,INT_MID_C
SENSOR_TESTCHIP_MD8,POST-IRRAD_TESTS,3,False,13,INT_UP_C
SENSOR_TESTCHIP_MD8,POST-IRRAD_TESTS,3,False,15,MD8_IV
SENSOR_TESTCHIP_MD8,POST-IRRAD_TESTS,3,False,15,PTP_IV
SENSOR_TESTCHIP_MD8,POST-IRRAD_TESTS,3,False,16,MD8_CV
SENSOR_TESTCHIP_MD8,PRE-IRRAD_TESTS,4,True,1,RBIAS_IV
SENSOR_TESTCHIP_MD8,PRE-IRRAD_TESTS,4,True,2,CCPL_C
SENSOR_TESTCHIP_MD8,PRE-IRRAD_TESTS,4,True,4,CCPL_IV100
SENSOR_TESTCHIP_MD8,PRE-IRRAD_TESTS,4,True,5,CFLD_CV
SENSOR_TESTCHIP_MD8,PRE-IRRAD_TESTS,4,True,6,CBR-M_IV
SENSOR_TESTCHIP_MD8,PRE-IRRAD_TESTS,4,True,7,CBR-I_IV
SENSOR_TESTCHIP_MD8,PRE-IRRAD_TESTS,4,True,8,INT_LOW_IV
SENSOR_TESTCHIP_MD8,PRE-IRRAD_TESTS,4,True,9,INT_MID_IV
SENSOR_TESTCHIP_MD8,PRE-IRRAD_TESTS,4,True,10,INT_UP_IV
SENSOR_TESTCHIP_MD8,PRE-IRRAD_TESTS,4,True,11,INT_LOW_C
SENSOR_TESTCHIP_MD8,PRE-IRRAD_TESTS,4,True,12,INT_MID_C
SENSOR_TESTCHIP_MD8,PRE-IRRAD_TESTS,4,True,13,INT_UP_C
SENSOR_TESTCHIP_MD8,PRE-IRRAD_TESTS,4,True,15,MD8_IV
SENSOR_TESTCHIP_MD8,PRE-IRRAD_TESTS,4,True,15,PTP_IV
SENSOR_TESTCHIP_MD8,PRE-IRRAD_TESTS,4,True,16,MD8_CV
SENSOR_TESTCHIP_MD8,PASS,5,False,1,PASS_COMMENTS
SENSOR_TEST_COMPONENT,SENS_TEST_STAGE,2,False,1,TEST1
SENSOR_TEST_COMPONENT,SENS_TEST_STAGE,2,False,2,APPROVAL_V0
SENSOR_TEST_COMPONENT,SENS_TEST_STAGE,2,False,3,TMP_IMAGE_TEST_2
SENSOR_TEST_COMPONENT,SENS_TEST_STAGE,2,False,4,ATLAS18_VIS_INSPECTION_V2
SENSOR_TEST_COMPONENT,SENS_TEST_STAGE,2,False,5,TEST_OBJECT
SENSOR_TEST_COMPONENT,SENS_TEST_STAGE,2,False,6,TEST_IMAGE
SENSOR_TEST_COMPONENT,SENS_TEST_STAGE,2,False,7,ATLAS18_HANDLING_DAMAGE_V1
SENSOR_TEST_COMPONENT,SENS_TEST_STAGE,2,False,8,ATLAS18_RECOVERY_V1
SENSOR_TEST_COMPONENT,SENS_TEST_STAGE,2,False,9,ATLAS18_SPECIAL_USE_V1
SENSOR_TEST_COMPONENT,SENS_TEST_STAGE,2,False,10,TESTRUN_V1
SENSOR_TEST_COMPONENT,SENS_TEST_STAGE,2,False,11,TESTRUN_GUI_V1
SENSOR_TEST_COMPONENT,SENS_TEST_STAGE,2,False,12,STRING_V1
SENSOR_TEST_COMPONENT,SENS_TEST_STAGE,2,False,13,TESTRUN_SINGLE_V1
SENSOR_TEST_COMPONENT,SENS_TEST_STAGE,2,False,14,TESTRUN_V2
SENSOR_TEST_COMPONENT,SENS_TEST_STAGE,2,False,15,TESTRUN_SINGLE_V2
SENSOR_TEST_COMPONENT,SENS_TEST_STAGE,2,False,16,TESTRUN_GUI_COPY
SENSOR_TEST_COMPONENT,SENS_TEST_STAGE,2,False,17,TESTRUN_COPY1
SENSOR_TEST_COMPONENT,SENS_TEST_STAGE,2,False,18,TESTRUN_COPY2
SENSOR_TEST_COMPONENT,SENS_TEST_STAGE,2,False,19,TESTRUN_COPY3
SENSOR_TEST_COMPONENT,SENS_TEST_STAGE,2,False,20,TESTRUN_COPY4
SENSOR_TEST_COMPONENT,SENS_TEST_STAGE,2,False,21,REF_TESTRUN_V1
SENSOR_TEST_COMPONENT,SENS_TEST_STAGE,2,False,22,REF_RUN_V2
SENSOR_TEST_COMPONENT,SENS_TEST_STAGE,2,False,23,REF_RES_V2
SENSOR_TEST_COMPONENT,SENS_TEST_STAGE,2,False,24,TESTRUN_COPY4A
SENSOR_TEST_COMPONENT,SENS_TEST_STAGE,2,False,25,TESTRUN_COPY4B
SENSOR_TEST_COMPONENT,SENS_TEST_STAGE,2,False,26,RF_RES_V3
SENSOR_TEST_COMPONENT,SENS_TEST_STAGE,2,False,27,RF_RES_V4
SENSOR_TEST_COMPONENT,SENS_TEST_STAGE,2,False,28,SHIZA_V5
SENSOR_TEST_COMPONENT,BLESSING,3,False,1,ATLAS18_APPROVAL_TR_V1
SENSOR_TEST_COMPONENT,BLESSING,3,False,2,ATLAS18_APPROVAL_V1
SENSOR_TEST_COMPONENT,WITH_TAB,5,False,1,TEST2
SENSOR_TEST_COMPONENT,IN_MODULE,9,False,1,APPROVAL_V0
SENSOR_TEST_COMPONENT,IN_MODULE,9,False,2,VIS_INSP_RES_MOD_V2
SENSOR_TEST_COMPONENT,IN_MODULE,9,False,3,ATLAS18_HANDLING_DAMAGE_V1
SENSOR_TEST_COMPONENT,IN_MODULE,9,False,4,ATLAS18_RECOVERY_V1
SENSOR_TEST_COMPONENT,IN_MODULE,9,False,5,ATLAS18_SPECIAL_USE_V1
SENSOR_TEST_COMPONENT,IN_MODULE,9,False,6,STRING_V1
SENSOR_TEST_ID,SENS_TEST_STAGE,2,False,1,ATLAS18_ID_THICKNESS_V1
SENSOR_TEST_NOID,SENS_TEST_STAGE,2,False,1,ATLAS18_ID_THICKNESS_V1
SENSOR_WBTS,FURTHER_DICED,1,False,1,PULL_TEST
STAVE,MODULE_LOADING,1,False,1,STAVEDUMMYTEST
STAVE,MODULE_LOADING,1,False,2,GLUE-SEEPAGE
STAVE,MODULE_LOADING,1,False,3,WEIGHING
STAVE,MODULE_LOADING,1,False,4,FLOAT_TEST_STAVE
STAVE,POST-ASSEMBLY,2,False,0,THREE-POINT-GAIN
STAVE,POST-ASSEMBLY,2,False,1,TEST-TESTRUN
STAVE,POST-ASSEMBLY,2,False,2,VISUAL_CAPTURE
STAVE,POST-ASSEMBLY,2,False,3,OUT_OF_PLANE_METROLOGY
STAVE,POST-ASSEMBLY,2,False,4,ENVELOPE
SVEN-TEST-ASSEMBLY,INITIAL,1,False,1,ARRAY-TEST
SVEN-TEST-ASSEMBLY,INITIAL,1,False,2,empty-test
SVEN-TEST-ITEM,INITIAL,1,False,1,VISUAL_INSPECTION
SVEN-TEST-ITEM,INITIAL,1,False,2,HYBRID-WIRE-PULL
SVEN-TEST-ITEM,INITIAL,1,False,3,BOND_WIRE_RECORDING
SVEN-TEST-ITEM,MEDIUM-STAGE-1,2,False,1,VISUAL_INSPECTION
SVEN-TEST-ITEM,MEDIUM-STAGE-2,4,False,1,VISUAL_INSPECTION
THERMALFOAMSET,MANUFACTURED,1,False,1,WEIGHING
THERMALFOAMSET,MANUFACTURED,1,False,2,GEOMETRY_XY
THERMALFOAMSET,MANUFACTURED,1,False,3,GEOMETRY_Z
THERMALFOAMSET,MANUFACTURED,1,False,4,VISUAL_INSPECTION
THERMALFOAMSET,AT_ASSEMBLYSITE,4,False,1,VISUAL_INSPECTION
THERMALFOAM_PETAL,RECEPTION_VENDOR,1,False,1,VISUAL_INSPECTION
THERMALFOAM_PETAL,QATESTED,2,True,1,VISUAL_INSPECTION
THERMALFOAM_PETAL,QATESTED,2,True,2,THERMALCONDUCTIVITY
THERMALFOAM_PETAL,RECEPTION_ASSEMBLY,3,False,1,VISUAL_INSPECTION
TI_TERMINATIONS,RECEPTION,1,False,1,VISUAL_INSPECTION
TI_TERMINATIONS,RECEPTION,1,False,2,DIMENSION_CHECK
TI_TUBE,RECEPTION,0,None,1,VISUAL_INSPECTION
TI_TUBE,RECEPTION,0,None,2,DIMENSION_CHECK
TOOLS,PRODUCED,1,False,1,METROLOGY
TOOLS,IN_USE,3,False,1,METROLOGY
TOOLS,WORN_OUT,4,False,1,METROLOGY
WIGLET_TERMINATION,WELDED,2,False,1,VISUAL_INSPECTION
uunComponentTypeDemoWork,INITIAL,0,True,1,test_type1
uunComponentTypeDemoWork,TEST3,2,False,1,test_type2
uunComponentTypeDemoWork,TEST3,2,False,2,test_type1
uunComponentTypeDemoWork,TEST3,2,False,3,test_type3
